/*
WARNING: Do NOT edit the input and output ports in this file in a text
editor if you plan to continue editing the block that represents it in
the Block Editor! File corruption is VERY likely to occur.
*/
/*
Copyright (C) 1991-2012 Altera Corporation
Your use of Altera Corporation's design tools, logic functions 
and other software and tools, and its AMPP partner logic 
functions, and any output files from any of the foregoing 
(including device programming or simulation files), and any 
associated documentation or information are expressly subject 
to the terms and conditions of the Altera Program License 
Subscription Agreement, Altera MegaCore Function License 
Agreement, or other applicable license agreement, including, 
without limitation, that your use is for the sole purpose of 
programming logic devices manufactured by Altera and sold by 
Altera or its authorized distributors.  Please refer to the 
applicable agreement for further details.
*/
(header "graphic" (version "1.4"))
(global
	(rect -176 -56 112 -16)
	(parameter)
	(text "PARAM" (rect 3 -1 47 12)(font "Arial" (font_size 8)))
	(text "DEFAULT VALUE" (rect 141 0 230 11)(font "Arial" ))
	(text "WIDTH" (rect 3 16 45 29)(font "Arial" (font_size 8)))
	(text " NAME" (rect 108 0 143 11)(font "Arial" ))
	(text "UD\"16\"" (rect 141 16 155 29)(font "Arial" (font_size 8)))
	(drawing
		(line (pt 138 40)(pt 138 0))
	)
)
(pin
	(input)
	(rect -176 8 -8 24)
	(text "INPUT" (rect 133 0 161 10)(font "Arial" (font_size 6)))
	(text "clock" (rect 5 0 30 11)(font "Arial" ))
	(pt 168 8)
	(drawing
		(line (pt 92 12)(pt 117 12))
		(line (pt 92 4)(pt 117 4))
		(line (pt 121 8)(pt 168 8))
		(line (pt 92 12)(pt 92 4))
		(line (pt 117 4)(pt 121 8))
		(line (pt 117 12)(pt 121 8))
	)
	(text "VCC" (rect 136 7 156 17)(font "Arial" (font_size 6)))
)
(pin
	(input)
	(rect -176 56 -8 72)
	(text "INPUT" (rect 133 0 161 10)(font "Arial" (font_size 6)))
	(text "input" (rect 5 0 28 11)(font "Arial" ))
	(pt 168 8)
	(drawing
		(line (pt 92 12)(pt 117 12))
		(line (pt 92 4)(pt 117 4))
		(line (pt 121 8)(pt 168 8))
		(line (pt 92 12)(pt 92 4))
		(line (pt 117 4)(pt 121 8))
		(line (pt 117 12)(pt 121 8))
	)
	(text "VCC" (rect 136 7 156 17)(font "Arial" (font_size 6)))
)
(pin
	(input)
	(rect -192 80 -8 96)
	(text "INPUT" (rect 149 0 177 10)(font "Arial" (font_size 6)))
	(text "delay[WIDTH-1..0]" (rect 5 0 98 11)(font "Arial" ))
	(pt 184 8)
	(drawing
		(line (pt 108 12)(pt 133 12))
		(line (pt 108 4)(pt 133 4))
		(line (pt 137 8)(pt 184 8))
		(line (pt 108 12)(pt 108 4))
		(line (pt 133 4)(pt 137 8))
		(line (pt 133 12)(pt 137 8))
	)
	(text "VCC" (rect 152 7 172 17)(font "Arial" (font_size 6)))
)
(pin
	(input)
	(rect -176 32 -8 48)
	(text "INPUT" (rect 133 0 161 10)(font "Arial" (font_size 6)))
	(text "reset" (rect 5 0 29 11)(font "Arial" ))
	(pt 168 8)
	(drawing
		(line (pt 92 12)(pt 117 12))
		(line (pt 92 4)(pt 117 4))
		(line (pt 121 8)(pt 168 8))
		(line (pt 92 12)(pt 92 4))
		(line (pt 117 4)(pt 121 8))
		(line (pt 117 12)(pt 121 8))
	)
	(text "VCC" (rect 136 7 156 17)(font "Arial" (font_size 6)))
)
(pin
	(output)
	(rect -184 112 -8 128)
	(text "OUTPUT" (rect 1 0 39 10)(font "Arial" (font_size 6)))
	(text "out_pulse" (rect 90 0 137 11)(font "Arial" ))
	(pt 0 8)
	(drawing
		(line (pt 0 8)(pt 52 8))
		(line (pt 52 4)(pt 78 4))
		(line (pt 52 12)(pt 78 12))
		(line (pt 52 12)(pt 52 4))
		(line (pt 78 4)(pt 82 8))
		(line (pt 82 8)(pt 78 12))
		(line (pt 78 12)(pt 82 8))
	)
)
(pin
	(output)
	(rect -184 136 -8 152)
	(text "OUTPUT" (rect 1 0 39 10)(font "Arial" (font_size 6)))
	(text "out_gate" (rect 90 0 132 11)(font "Arial" ))
	(pt 0 8)
	(drawing
		(line (pt 0 8)(pt 52 8))
		(line (pt 52 4)(pt 78 4))
		(line (pt 52 12)(pt 78 12))
		(line (pt 52 12)(pt 52 4))
		(line (pt 78 4)(pt 82 8))
		(line (pt 82 8)(pt 78 12))
		(line (pt 78 12)(pt 82 8))
	)
)
(symbol
	(rect 1024 584 1088 664)
	(text "DFF" (rect 1 0 19 10)(font "Arial" (font_size 6)))
	(text "inst161" (rect 3 68 38 79)(font "Arial" ))
	(port
		(pt 32 80)
		(input)
		(text "CLRN" (rect 21 59 48 70)(font "Courier New" (bold)))
		(text "CLRN" (rect 21 58 48 69)(font "Courier New" (bold)))
		(line (pt 32 80)(pt 32 76))
	)
	(port
		(pt 0 40)
		(input)
		(text "CLK" (rect 3 29 23 40)(font "Courier New" (bold))(invisible))
		(text "CLK" (rect 3 29 23 40)(font "Courier New" (bold))(invisible))
		(line (pt 0 40)(pt 12 40))
	)
	(port
		(pt 0 24)
		(input)
		(text "D" (rect 14 20 21 31)(font "Courier New" (bold)))
		(text "D" (rect 14 20 21 31)(font "Courier New" (bold)))
		(line (pt 0 24)(pt 12 24))
	)
	(port
		(pt 32 0)
		(input)
		(text "PRN" (rect 24 13 45 24)(font "Courier New" (bold)))
		(text "PRN" (rect 24 11 45 22)(font "Courier New" (bold)))
		(line (pt 32 4)(pt 32 0))
	)
	(port
		(pt 64 24)
		(output)
		(text "Q" (rect 45 20 53 31)(font "Courier New" (bold)))
		(text "Q" (rect 45 20 53 31)(font "Courier New" (bold)))
		(line (pt 52 24)(pt 64 24))
	)
	(drawing
		(line (pt 12 12)(pt 52 12))
		(line (pt 12 68)(pt 52 68))
		(line (pt 52 68)(pt 52 12))
		(line (pt 12 68)(pt 12 12))
		(line (pt 19 40)(pt 12 47))
		(line (pt 12 32)(pt 20 40))
		(circle (rect 28 4 36 12))
		(circle (rect 28 68 36 76))
	)
)
(symbol
	(rect 1104 592 1152 624)
	(text "NOT" (rect 1 0 21 10)(font "Arial" (font_size 6)))
	(text "inst162" (rect 3 21 38 32)(font "Arial" ))
	(port
		(pt 0 16)
		(input)
		(text "IN" (rect 2 7 16 18)(font "Courier New" (bold))(invisible))
		(text "IN" (rect 2 7 16 18)(font "Courier New" (bold))(invisible))
		(line (pt 0 16)(pt 13 16))
	)
	(port
		(pt 48 16)
		(output)
		(text "OUT" (rect 32 7 55 18)(font "Courier New" (bold))(invisible))
		(text "OUT" (rect 32 7 55 18)(font "Courier New" (bold))(invisible))
		(line (pt 39 16)(pt 48 16))
	)
	(drawing
		(line (pt 13 25)(pt 13 7))
		(line (pt 13 7)(pt 31 16))
		(line (pt 13 25)(pt 31 16))
		(circle (rect 31 12 39 20))
	)
)
(symbol
	(rect 1184 552 1248 600)
	(text "AND2" (rect 1 0 26 10)(font "Arial" (font_size 6)))
	(text "inst164" (rect 3 37 38 48)(font "Arial" ))
	(port
		(pt 0 16)
		(input)
		(text "IN1" (rect 2 7 23 18)(font "Courier New" (bold))(invisible))
		(text "IN1" (rect 2 7 23 18)(font "Courier New" (bold))(invisible))
		(line (pt 0 16)(pt 14 16))
	)
	(port
		(pt 0 32)
		(input)
		(text "IN2" (rect 2 23 23 34)(font "Courier New" (bold))(invisible))
		(text "IN2" (rect 2 23 23 34)(font "Courier New" (bold))(invisible))
		(line (pt 0 32)(pt 14 32))
	)
	(port
		(pt 64 24)
		(output)
		(text "OUT" (rect 48 15 71 26)(font "Courier New" (bold))(invisible))
		(text "OUT" (rect 48 15 71 26)(font "Courier New" (bold))(invisible))
		(line (pt 42 24)(pt 64 24))
	)
	(drawing
		(line (pt 14 12)(pt 30 12))
		(line (pt 14 37)(pt 31 37))
		(line (pt 14 12)(pt 14 37))
		(arc (pt 31 37)(pt 30 12)(rect 18 12 43 37))
	)
)
(symbol
	(rect 280 344 344 424)
	(text "DFF" (rect 1 0 19 10)(font "Arial" (font_size 6)))
	(text "inst3" (rect 3 68 26 79)(font "Arial" ))
	(port
		(pt 32 80)
		(input)
		(text "CLRN" (rect 21 59 48 70)(font "Courier New" (bold)))
		(text "CLRN" (rect 21 58 48 69)(font "Courier New" (bold)))
		(line (pt 32 80)(pt 32 76))
	)
	(port
		(pt 0 40)
		(input)
		(text "CLK" (rect 3 29 23 40)(font "Courier New" (bold))(invisible))
		(text "CLK" (rect 3 29 23 40)(font "Courier New" (bold))(invisible))
		(line (pt 0 40)(pt 12 40))
	)
	(port
		(pt 0 24)
		(input)
		(text "D" (rect 14 20 21 31)(font "Courier New" (bold)))
		(text "D" (rect 14 20 21 31)(font "Courier New" (bold)))
		(line (pt 0 24)(pt 12 24))
	)
	(port
		(pt 32 0)
		(input)
		(text "PRN" (rect 24 13 45 24)(font "Courier New" (bold)))
		(text "PRN" (rect 24 11 45 22)(font "Courier New" (bold)))
		(line (pt 32 4)(pt 32 0))
	)
	(port
		(pt 64 24)
		(output)
		(text "Q" (rect 45 20 53 31)(font "Courier New" (bold)))
		(text "Q" (rect 41 20 49 31)(font "Courier New" (bold)))
		(line (pt 52 24)(pt 64 24))
	)
	(drawing
		(line (pt 12 12)(pt 52 12))
		(line (pt 12 68)(pt 52 68))
		(line (pt 52 68)(pt 52 12))
		(line (pt 12 68)(pt 12 12))
		(line (pt 19 40)(pt 12 47))
		(line (pt 12 32)(pt 20 40))
		(circle (rect 28 4 36 12))
		(circle (rect 28 68 36 76))
	)
)
(symbol
	(rect 376 344 440 424)
	(text "DFF" (rect 1 0 19 10)(font "Arial" (font_size 6)))
	(text "inst4" (rect 3 68 26 79)(font "Arial" ))
	(port
		(pt 32 80)
		(input)
		(text "CLRN" (rect 21 59 48 70)(font "Courier New" (bold)))
		(text "CLRN" (rect 21 58 48 69)(font "Courier New" (bold)))
		(line (pt 32 80)(pt 32 76))
	)
	(port
		(pt 0 40)
		(input)
		(text "CLK" (rect 3 29 23 40)(font "Courier New" (bold))(invisible))
		(text "CLK" (rect 3 29 23 40)(font "Courier New" (bold))(invisible))
		(line (pt 0 40)(pt 12 40))
	)
	(port
		(pt 0 24)
		(input)
		(text "D" (rect 14 20 21 31)(font "Courier New" (bold)))
		(text "D" (rect 14 20 21 31)(font "Courier New" (bold)))
		(line (pt 0 24)(pt 12 24))
	)
	(port
		(pt 32 0)
		(input)
		(text "PRN" (rect 24 13 45 24)(font "Courier New" (bold)))
		(text "PRN" (rect 24 11 45 22)(font "Courier New" (bold)))
		(line (pt 32 4)(pt 32 0))
	)
	(port
		(pt 64 24)
		(output)
		(text "Q" (rect 45 20 53 31)(font "Courier New" (bold)))
		(text "Q" (rect 41 20 49 31)(font "Courier New" (bold)))
		(line (pt 52 24)(pt 64 24))
	)
	(drawing
		(line (pt 12 12)(pt 52 12))
		(line (pt 12 68)(pt 52 68))
		(line (pt 52 68)(pt 52 12))
		(line (pt 12 68)(pt 12 12))
		(line (pt 19 40)(pt 12 47))
		(line (pt 12 32)(pt 20 40))
		(circle (rect 28 4 36 12))
		(circle (rect 28 68 36 76))
	)
)
(symbol
	(rect 448 352 496 384)
	(text "NOT" (rect 1 0 21 10)(font "Arial" (font_size 6)))
	(text "inst5" (rect 3 21 26 32)(font "Arial" ))
	(port
		(pt 0 16)
		(input)
		(text "IN" (rect 2 7 16 18)(font "Courier New" (bold))(invisible))
		(text "IN" (rect 2 7 16 18)(font "Courier New" (bold))(invisible))
		(line (pt 0 16)(pt 13 16))
	)
	(port
		(pt 48 16)
		(output)
		(text "OUT" (rect 32 7 55 18)(font "Courier New" (bold))(invisible))
		(text "OUT" (rect 32 7 55 18)(font "Courier New" (bold))(invisible))
		(line (pt 39 16)(pt 48 16))
	)
	(drawing
		(line (pt 13 25)(pt 13 7))
		(line (pt 13 7)(pt 31 16))
		(line (pt 13 25)(pt 31 16))
		(circle (rect 31 12 39 20))
	)
)
(symbol
	(rect 512 320 576 368)
	(text "AND2" (rect 1 0 26 10)(font "Arial" (font_size 6)))
	(text "inst6" (rect 3 37 26 48)(font "Arial" ))
	(port
		(pt 0 16)
		(input)
		(text "IN1" (rect 2 7 23 18)(font "Courier New" (bold))(invisible))
		(text "IN1" (rect 2 7 23 18)(font "Courier New" (bold))(invisible))
		(line (pt 0 16)(pt 14 16))
	)
	(port
		(pt 0 32)
		(input)
		(text "IN2" (rect 2 23 23 34)(font "Courier New" (bold))(invisible))
		(text "IN2" (rect 2 23 23 34)(font "Courier New" (bold))(invisible))
		(line (pt 0 32)(pt 14 32))
	)
	(port
		(pt 64 24)
		(output)
		(text "OUT" (rect 48 15 71 26)(font "Courier New" (bold))(invisible))
		(text "OUT" (rect 48 15 71 26)(font "Courier New" (bold))(invisible))
		(line (pt 42 24)(pt 64 24))
	)
	(drawing
		(line (pt 14 12)(pt 30 12))
		(line (pt 14 37)(pt 31 37))
		(line (pt 14 12)(pt 14 37))
		(arc (pt 31 37)(pt 30 12)(rect 18 12 43 37))
	)
)
(symbol
	(rect 656 344 720 424)
	(text "SRFF" (rect 1 0 25 10)(font "Arial" (font_size 6)))
	(text "inst2" (rect 3 68 26 79)(font "Arial" ))
	(port
		(pt 32 0)
		(input)
		(text "PRN" (rect 24 13 45 24)(font "Courier New" (bold)))
		(text "PRN" (rect 24 11 45 22)(font "Courier New" (bold)))
		(line (pt 32 4)(pt 32 0))
	)
	(port
		(pt 32 80)
		(input)
		(text "CLRN" (rect 21 59 48 70)(font "Courier New" (bold)))
		(text "CLRN" (rect 21 58 48 69)(font "Courier New" (bold)))
		(line (pt 32 80)(pt 32 76))
	)
	(port
		(pt 0 24)
		(input)
		(text "S" (rect 14 20 22 31)(font "Courier New" (bold)))
		(text "S" (rect 14 20 22 31)(font "Courier New" (bold)))
		(line (pt 0 24)(pt 12 24))
	)
	(port
		(pt 0 56)
		(input)
		(text "R" (rect 14 51 21 62)(font "Courier New" (bold)))
		(text "R" (rect 14 51 21 62)(font "Courier New" (bold)))
		(line (pt 0 56)(pt 12 56))
	)
	(port
		(pt 0 40)
		(input)
		(text "CLK" (rect 2 29 22 40)(font "Courier New" (bold))(invisible))
		(text "CLK" (rect 2 29 22 40)(font "Courier New" (bold))(invisible))
		(line (pt 0 40)(pt 12 40))
	)
	(port
		(pt 64 24)
		(output)
		(text "Q" (rect 45 20 53 31)(font "Courier New" (bold)))
		(text "Q" (rect 41 20 49 31)(font "Courier New" (bold)))
		(line (pt 52 24)(pt 64 24))
	)
	(drawing
		(line (pt 12 68)(pt 52 68))
		(line (pt 12 12)(pt 52 12))
		(line (pt 52 68)(pt 52 12))
		(line (pt 12 68)(pt 12 12))
		(line (pt 19 40)(pt 12 47))
		(line (pt 12 33)(pt 19 40))
		(circle (rect 28 4 36 12))
		(circle (rect 28 68 36 76))
	)
)
(symbol
	(rect 1296 584 1360 664)
	(text "DFF" (rect 1 0 19 10)(font "Arial" (font_size 6)))
	(text "inst7" (rect 3 68 26 79)(font "Arial" ))
	(port
		(pt 32 80)
		(input)
		(text "CLRN" (rect 21 59 48 70)(font "Courier New" (bold)))
		(text "CLRN" (rect 21 58 48 69)(font "Courier New" (bold)))
		(line (pt 32 80)(pt 32 76))
	)
	(port
		(pt 0 40)
		(input)
		(text "CLK" (rect 3 29 23 40)(font "Courier New" (bold))(invisible))
		(text "CLK" (rect 3 29 23 40)(font "Courier New" (bold))(invisible))
		(line (pt 0 40)(pt 12 40))
	)
	(port
		(pt 0 24)
		(input)
		(text "D" (rect 14 20 21 31)(font "Courier New" (bold)))
		(text "D" (rect 14 20 21 31)(font "Courier New" (bold)))
		(line (pt 0 24)(pt 12 24))
	)
	(port
		(pt 32 0)
		(input)
		(text "PRN" (rect 24 13 45 24)(font "Courier New" (bold)))
		(text "PRN" (rect 24 11 45 22)(font "Courier New" (bold)))
		(line (pt 32 4)(pt 32 0))
	)
	(port
		(pt 64 24)
		(output)
		(text "Q" (rect 45 20 53 31)(font "Courier New" (bold)))
		(text "Q" (rect 41 20 49 31)(font "Courier New" (bold)))
		(line (pt 52 24)(pt 64 24))
	)
	(drawing
		(line (pt 12 12)(pt 52 12))
		(line (pt 12 68)(pt 52 68))
		(line (pt 52 68)(pt 52 12))
		(line (pt 12 68)(pt 12 12))
		(line (pt 19 40)(pt 12 47))
		(line (pt 12 32)(pt 20 40))
		(circle (rect 28 4 36 12))
		(circle (rect 28 68 36 76))
	)
)
(symbol
	(rect 472 616 536 664)
	(text "OR2" (rect 1 0 21 10)(font "Arial" (font_size 6)))
	(text "inst8" (rect 3 37 26 48)(font "Arial" ))
	(port
		(pt 0 32)
		(input)
		(text "IN2" (rect 2 23 23 34)(font "Courier New" (bold))(invisible))
		(text "IN2" (rect 2 23 23 34)(font "Courier New" (bold))(invisible))
		(line (pt 0 32)(pt 15 32))
	)
	(port
		(pt 0 16)
		(input)
		(text "IN1" (rect 2 7 23 18)(font "Courier New" (bold))(invisible))
		(text "IN1" (rect 2 7 23 18)(font "Courier New" (bold))(invisible))
		(line (pt 0 16)(pt 15 16))
	)
	(port
		(pt 64 24)
		(output)
		(text "OUT" (rect 48 15 71 26)(font "Courier New" (bold))(invisible))
		(text "OUT" (rect 48 15 71 26)(font "Courier New" (bold))(invisible))
		(line (pt 48 24)(pt 64 24))
	)
	(drawing
		(line (pt 14 36)(pt 25 36))
		(line (pt 14 13)(pt 25 13))
		(arc (pt 7 29)(pt 7 19)(rect -14 8 19 41))
		(arc (pt 49 24)(pt 25 13)(rect -6 13 57 76))
		(arc (pt 25 35)(pt 49 24)(rect -6 -27 57 36))
	)
)
(symbol
	(rect 776 456 912 656)
	(text "LPM_COUNTER" (rect 20 0 134 16)(font "Arial" (font_size 10)))
	(text "inst" (rect 3 189 23 202)(font "Arial" (font_size 8)))
	(port
		(pt 72 200)
		(input)
		(text "aclr" (rect 64 167 77 188)(font "Arial" (font_size 8))(vertical))
		(text "aclr" (rect 64 152 77 173)(font "Arial" (font_size 8))(vertical))
		(line (pt 72 200)(pt 72 184))
	)
	(port
		(pt 88 200)
		(input)
		(text "aload" (rect 80 158 93 188)(font "Arial" (font_size 8))(vertical))
		(text "aload" (rect 80 144 93 174)(font "Arial" (font_size 8))(vertical))
		(line (pt 88 200)(pt 88 184))
		(unused)
	)
	(port
		(pt 104 200)
		(input)
		(text "aset" (rect 48 164 61 188)(font "Arial" (font_size 8))(vertical))
		(text "aset" (rect 96 152 109 176)(font "Arial" (font_size 8))(vertical))
		(line (pt 104 200)(pt 104 184))
		(unused)
	)
	(port
		(pt 0 176)
		(input)
		(text "cin" (rect 24 168 40 181)(font "Arial" (font_size 8)))
		(text "cin" (rect 20 168 36 181)(font "Arial" (font_size 8)))
		(line (pt 0 176)(pt 16 176))
		(unused)
	)
	(port
		(pt 0 144)
		(input)
		(text "clk_en" (rect 20 121 57 134)(font "Arial" (font_size 8)))
		(text "clk_en" (rect 20 137 57 150)(font "Arial" (font_size 8)))
		(line (pt 0 144)(pt 16 144))
		(unused)
	)
	(port
		(pt 0 128)
		(input)
		(text "clock" (rect 27 106 57 119)(font "Arial" (font_size 8))(invisible))
		(text "clock" (rect 27 122 57 135)(font "Arial" (font_size 8))(invisible))
		(line (pt 0 128)(pt 16 128))
	)
	(port
		(pt 0 160)
		(input)
		(text "cnt_en" (rect 20 137 58 150)(font "Arial" (font_size 8)))
		(text "cnt_en" (rect 20 153 58 166)(font "Arial" (font_size 8)))
		(line (pt 0 160)(pt 16 160))
	)
	(port
		(pt 0 80)
		(input)
		(text "data[LPM_WIDTH-1..0]" (rect 20 89 153 102)(font "Arial" (font_size 8)))
		(text "data[]" (rect 20 73 51 86)(font "Arial" (font_size 8)))
		(line (pt 0 80)(pt 16 80)(line_width 3))
	)
	(port
		(pt 0 48)
		(input)
		(text "sload" (rect 20 41 50 54)(font "Arial" (font_size 8)))
		(text "sload" (rect 20 41 50 54)(font "Arial" (font_size 8)))
		(line (pt 0 48)(pt 16 48))
	)
	(port
		(pt 0 32)
		(input)
		(text "ssclr" (rect 20 25 48 38)(font "Arial" (font_size 8)))
		(text "ssclr" (rect 20 25 48 38)(font "Arial" (font_size 8)))
		(line (pt 0 32)(pt 16 32))
		(unused)
	)
	(port
		(pt 0 64)
		(input)
		(text "sset" (rect 20 57 44 70)(font "Arial" (font_size 8)))
		(text "sset" (rect 20 57 44 70)(font "Arial" (font_size 8)))
		(line (pt 0 64)(pt 16 64))
		(unused)
	)
	(port
		(pt 0 112)
		(input)
		(text "updown" (rect 20 73 64 86)(font "Arial" (font_size 8)))
		(text "updown" (rect 20 105 64 118)(font "Arial" (font_size 8)))
		(line (pt 0 112)(pt 16 112))
		(unused)
	)
	(port
		(pt 136 112)
		(output)
		(text "cout" (rect 88 120 112 133)(font "Arial" (font_size 8)))
		(text "cout" (rect 96 104 120 117)(font "Arial" (font_size 8)))
		(line (pt 136 112)(pt 120 112))
	)
	(port
		(pt 136 96)
		(output)
		(text "q[LPM_WIDTH-1..0]" (rect 105 89 220 102)(font "Arial" (font_size 8)))
		(text "q[]" (rect 105 89 119 102)(font "Arial" (font_size 8)))
		(line (pt 120 96)(pt 136 96)(line_width 3))
		(unused)
	)
	(parameter
		"LPM_SVALUE"
		""
		"Unsigned value associated with the sset port"
	)
	(parameter
		"LPM_AVALUE"
		""
		"Unsigned value associated with the aset port"
	)
	(parameter
		"LPM_MODULUS"
		""
		"Optional counter wrap value"
	)
	(parameter
		"LPM_DIRECTION"
		"\"DOWN\""
		"Selects between up/down, up, or down"
		"\"DEFAULT\"" "\"UP\"" "\"DOWN\"" 
	)
	(parameter
		"LPM_WIDTH"
		"WIDTH"
		"Width of I/O, any integer > 0"
		" 1" " 2" " 3" " 4" " 5" " 6" " 7" " 8" " 9" "10" "11" "12" "13" "14" "15" "16" "20" "24" "28" "32" "40" "48" "56" "64" 
	)
	(parameter
		"LPM_PORT_UPDOWN"
		"\"PORT_UNUSED\""
		"Condition of the up/down port"
		"\"PORT_CONNECTIVITY\"" "\"PORT_USED\"" "\"PORT_UNUSED\"" 
	)
	(drawing
		(line (pt 16 184)(pt 120 184))
		(line (pt 16 16)(pt 120 16))
		(line (pt 16 184)(pt 16 16))
		(line (pt 120 184)(pt 120 16))
		(line (pt 16 136)(pt 24 128))
		(line (pt 24 128)(pt 16 120))
	)
	(annotation_block (parameter)(rect 912 360 1159 451))
)
(symbol
	(rect 576 424 624 456)
	(text "NOT" (rect 1 0 21 10)(font "Arial" (font_size 6)))
	(text "inst1" (rect 3 21 26 32)(font "Arial" ))
	(port
		(pt 0 16)
		(input)
		(text "IN" (rect 2 7 16 18)(font "Courier New" (bold))(invisible))
		(text "IN" (rect 2 7 16 18)(font "Courier New" (bold))(invisible))
		(line (pt 0 16)(pt 13 16))
	)
	(port
		(pt 48 16)
		(output)
		(text "OUT" (rect 32 7 55 18)(font "Courier New" (bold))(invisible))
		(text "OUT" (rect 32 7 55 18)(font "Courier New" (bold))(invisible))
		(line (pt 39 16)(pt 48 16))
	)
	(drawing
		(line (pt 13 25)(pt 13 7))
		(line (pt 13 7)(pt 31 16))
		(line (pt 13 25)(pt 31 16))
		(circle (rect 31 12 39 20))
	)
)
(connector
	(pt 512 336)
	(pt 360 336)
)
(connector
	(pt 360 336)
	(pt 360 368)
)
(connector
	(pt 344 368)
	(pt 360 368)
)
(connector
	(pt 360 368)
	(pt 376 368)
)
(connector
	(pt 440 368)
	(pt 448 368)
)
(connector
	(pt 496 368)
	(pt 504 368)
)
(connector
	(pt 504 368)
	(pt 504 352)
)
(connector
	(pt 504 352)
	(pt 512 352)
)
(connector
	(pt 184 312)
	(pt 184 368)
)
(connector
	(text "input" (rect 138 296 161 307)(font "Arial" ))
	(pt 184 312)
	(pt 120 312)
)
(connector
	(text "clock" (rect 132 368 157 379)(font "Arial" ))
	(pt 120 384)
	(pt 280 384)
)
(connector
	(pt 184 368)
	(pt 280 368)
)
(connector
	(pt 280 384)
	(pt 376 384)
)
(connector
	(pt 376 384)
	(pt 656 384)
)
(connector
	(text "clock" (rect 704 568 729 579)(font "Arial" ))
	(pt 696 584)
	(pt 776 584)
)
(connector
	(pt 1088 608)
	(pt 1104 608)
)
(connector
	(pt 1184 584)
	(pt 1168 584)
)
(connector
	(pt 1168 584)
	(pt 1168 608)
)
(connector
	(pt 1152 608)
	(pt 1168 608)
)
(connector
	(pt 1008 608)
	(pt 1024 608)
)
(connector
	(pt 1008 608)
	(pt 1008 568)
)
(connector
	(text "delay[WIDTH-1..0]" (rect 696 520 789 531)(font "Arial" ))
	(pt 776 536)
	(pt 680 536)
	(bus)
)
(connector
	(pt 1008 568)
	(pt 1184 568)
)
(connector
	(pt 752 616)
	(pt 776 616)
)
(connector
	(pt 752 616)
	(pt 752 368)
)
(connector
	(pt 912 568)
	(pt 1008 568)
)
(connector
	(text "clock" (rect 978 608 1003 619)(font "Arial" ))
	(pt 984 624)
	(pt 1024 624)
)
(connector
	(pt 1024 624)
	(pt 1296 624)
)
(connector
	(pt 1296 608)
	(pt 1272 608)
)
(connector
	(pt 1248 576)
	(pt 1272 576)
)
(connector
	(pt 720 368)
	(pt 752 368)
)
(connector
	(text "out_gate" (rect 1525 352 1567 363)(font "Arial" ))
	(pt 752 368)
	(pt 1576 368)
)
(connector
	(pt 1272 576)
	(pt 1272 608)
)
(connector
	(pt 848 656)
	(pt 848 672)
)
(connector
	(pt 1376 696)
	(pt 1376 608)
)
(connector
	(pt 1360 608)
	(pt 1376 608)
)
(connector
	(text "out_pulse" (rect 1531 592 1578 603)(font "Arial" ))
	(pt 1376 608)
	(pt 1576 608)
)
(connector
	(pt 776 504)
	(pt 640 504)
)
(connector
	(pt 640 368)
	(pt 656 368)
)
(connector
	(pt 576 344)
	(pt 640 344)
)
(connector
	(pt 640 344)
	(pt 640 368)
)
(connector
	(pt 640 368)
	(pt 640 504)
)
(connector
	(pt 688 424)
	(pt 688 440)
)
(connector
	(pt 688 440)
	(pt 624 440)
)
(connector
	(pt 656 400)
	(pt 560 400)
)
(connector
	(pt 560 440)
	(pt 576 440)
)
(connector
	(pt 560 400)
	(pt 560 440)
)
(connector
	(pt 848 672)
	(pt 560 672)
)
(connector
	(pt 560 440)
	(pt 560 640)
)
(connector
	(pt 560 640)
	(pt 560 672)
)
(connector
	(pt 536 640)
	(pt 560 640)
)
(connector
	(pt 1376 696)
	(pt 448 696)
)
(connector
	(pt 448 696)
	(pt 448 648)
)
(connector
	(pt 472 648)
	(pt 448 648)
)
(connector
	(text "reset" (rect 129 616 153 627)(font "Arial" ))
	(pt 472 632)
	(pt 120 632)
)
(junction (pt 280 384))
(junction (pt 360 368))
(junction (pt 376 384))
(junction (pt 1008 568))
(junction (pt 752 368))
(junction (pt 1024 624))
(junction (pt 1376 608))
(junction (pt 640 368))
(junction (pt 560 640))
(junction (pt 560 440))
(text "Gate and Delay Generator" (rect -176 -136 104 -115)(font "arial" (color 0 0 255)(font_size 14)(bold)))
