-- Copyright (C) 1991-2009 Altera Corporation
-- Your use of Altera Corporation's design tools, logic functions 
-- and other software and tools, and its AMPP partner logic 
-- functions, and any output files from any of the foregoing 
-- (including device programming or simulation files), and any 
-- associated documentation or information are expressly subject 
-- to the terms and conditions of the Altera Program License 
-- Subscription Agreement, Altera MegaCore Function License 
-- Agreement, or other applicable license agreement, including, 
-- without limitation, that your use is for the sole purpose of 
-- programming logic devices manufactured by Altera and sold by 
-- Altera or its authorized distributors.  Please refer to the 
-- applicable agreement for further details.

-- Quartus II generated Memory Initialization File (.mif)

WIDTH=32;
DEPTH=32;

ADDRESS_RADIX=HEX;
DATA_RADIX=BIN;

CONTENT BEGIN
	00  :   00000000000000010000000000000001;
	01  :   00000000000001000000000000000100;
	02  :   00000000000100000000000000010000;
	03  :   00000000010000000000000001000000;
	04  :   10000000000000001000000000000000;
	05  :   00100000000000000010000000000000;
	06  :   00001000000000000000100000000000;
	07  :   00000010000000000000001000000000;
	08  :   00000001000000000000000100000000;
	09  :   00000100000000000000010000000000;
	0A  :   00010000000000000001000000000000;
	0B  :   01000000000000000100000000000000;
	0C  :   00000000100000000000000010000000;
	0D  :   00000000001000000000000000100000;
	0E  :   00000000000010000000000000001000;
	0F  :   00000000000000100000000000000010;
	10  :   00000000000000010000000000000001;
	11  :   00000000000001000000000000000100;
	12  :   00000000000100000000000000010000;
	13  :   00000000010000000000000001000000;
	14  :   10000000000000001000000000000000;
	15  :   00100000000000000010000000000000;
	16  :   00001000000000000000100000000000;
	17  :   00000010000000000000001000000000;
	18  :   00000001000000000000000100000000;
	19  :   00000100000000000000010000000000;
	1A  :   00010000000000000001000000000000;
	1B  :   01000000000000000100000000000000;
	1C  :   00000000100000000000000010000000;
	1D  :   00000000001000000000000000100000;
	1E  :   00000000000010000000000000001000;
	1F  :   00000000000000100000000000000010;
END;
