/*
WARNING: Do NOT edit the input and output ports in this file in a text
editor if you plan to continue editing the block that represents it in
the Block Editor! File corruption is VERY likely to occur.
*/
/*
Copyright (C) 1991-2011 Altera Corporation
Your use of Altera Corporation's design tools, logic functions 
and other software and tools, and its AMPP partner logic 
functions, and any output files from any of the foregoing 
(including device programming or simulation files), and any 
associated documentation or information are expressly subject 
to the terms and conditions of the Altera Program License 
Subscription Agreement, Altera MegaCore Function License 
Agreement, or other applicable license agreement, including, 
without limitation, that your use is for the sole purpose of 
programming logic devices manufactured by Altera and sold by 
Altera or its authorized distributors.  Please refer to the 
applicable agreement for further details.
*/
(header "graphic" (version "1.4"))
(global
	(rect 80 56 368 96)
	(parameter)
	(text "PARAM" (rect 3 -1 47 12)(font "Arial" (font_size 8)))
	(text "DEFAULT VALUE" (rect 141 0 230 11)(font "Arial" ))
	(text "WIDTH" (rect 3 16 45 29)(font "Arial" (font_size 8)))
	(text " NAME" (rect 108 0 143 11)(font "Arial" ))
	(text "32" (rect 141 16 155 29)(font "Arial" (font_size 8)))
	(drawing
		(line (pt 138 40)(pt 138 0))
	)
)
(pin
	(input)
	(rect 80 120 248 136)
	(text "INPUT" (rect 125 0 153 10)(font "Arial" (font_size 6)))
	(text "clock" (rect 5 0 31 11)(font "Arial" ))
	(pt 168 8)
	(drawing
		(line (pt 84 12)(pt 109 12))
		(line (pt 84 4)(pt 109 4))
		(line (pt 113 8)(pt 168 8))
		(line (pt 84 12)(pt 84 4))
		(line (pt 109 4)(pt 113 8))
		(line (pt 109 12)(pt 113 8))
	)
	(text "VCC" (rect 128 7 148 17)(font "Arial" (font_size 6)))
)
(pin
	(input)
	(rect 80 144 248 160)
	(text "INPUT" (rect 125 0 153 10)(font "Arial" (font_size 6)))
	(text "input" (rect 5 0 29 11)(font "Arial" ))
	(pt 168 8)
	(drawing
		(line (pt 84 12)(pt 109 12))
		(line (pt 84 4)(pt 109 4))
		(line (pt 113 8)(pt 168 8))
		(line (pt 84 12)(pt 84 4))
		(line (pt 109 4)(pt 113 8))
		(line (pt 109 12)(pt 113 8))
	)
	(text "VCC" (rect 128 7 148 17)(font "Arial" (font_size 6)))
)
(pin
	(input)
	(rect 80 192 248 208)
	(text "INPUT" (rect 125 0 153 10)(font "Arial" (font_size 6)))
	(text "flip" (rect 5 0 20 11)(font "Arial" ))
	(pt 168 8)
	(drawing
		(line (pt 84 12)(pt 109 12))
		(line (pt 84 4)(pt 109 4))
		(line (pt 113 8)(pt 168 8))
		(line (pt 84 12)(pt 84 4))
		(line (pt 109 4)(pt 113 8))
		(line (pt 109 12)(pt 113 8))
	)
	(text "VCC" (rect 128 7 148 17)(font "Arial" (font_size 6)))
)
(pin
	(input)
	(rect 80 168 248 184)
	(text "INPUT" (rect 125 0 153 10)(font "Arial" (font_size 6)))
	(text "enable" (rect 5 0 37 11)(font "Arial" ))
	(pt 168 8)
	(drawing
		(line (pt 84 12)(pt 109 12))
		(line (pt 84 4)(pt 109 4))
		(line (pt 113 8)(pt 168 8))
		(line (pt 84 12)(pt 84 4))
		(line (pt 109 4)(pt 113 8))
		(line (pt 109 12)(pt 113 8))
	)
	(text "VCC" (rect 128 7 148 17)(font "Arial" (font_size 6)))
)
(pin
	(output)
	(rect 80 216 273 232)
	(text "OUTPUT" (rect 1 0 39 10)(font "Arial" (font_size 6)))
	(text "output[WIDTH-1..0]" (rect 90 0 187 11)(font "Arial" ))
	(pt 0 8)
	(drawing
		(line (pt 0 8)(pt 52 8))
		(line (pt 52 4)(pt 78 4))
		(line (pt 52 12)(pt 78 12))
		(line (pt 52 12)(pt 52 4))
		(line (pt 78 4)(pt 82 8))
		(line (pt 82 8)(pt 78 12))
		(line (pt 78 12)(pt 82 8))
	)
)
(symbol
	(rect 1192 296 1256 344)
	(text "AND2" (rect 1 0 26 10)(font "Arial" (font_size 6)))
	(text "inst310" (rect 3 37 38 48)(font "Arial" ))
	(port
		(pt 0 16)
		(input)
		(text "IN1" (rect 2 7 23 18)(font "Courier New" (bold))(invisible))
		(text "IN1" (rect 2 7 23 18)(font "Courier New" (bold))(invisible))
		(line (pt 0 16)(pt 14 16))
	)
	(port
		(pt 0 32)
		(input)
		(text "IN2" (rect 2 23 23 34)(font "Courier New" (bold))(invisible))
		(text "IN2" (rect 2 23 23 34)(font "Courier New" (bold))(invisible))
		(line (pt 0 32)(pt 14 32))
	)
	(port
		(pt 64 24)
		(output)
		(text "OUT" (rect 48 15 71 26)(font "Courier New" (bold))(invisible))
		(text "OUT" (rect 48 15 71 26)(font "Courier New" (bold))(invisible))
		(line (pt 42 24)(pt 64 24))
	)
	(drawing
		(line (pt 14 12)(pt 30 12))
		(line (pt 14 37)(pt 31 37))
		(line (pt 14 12)(pt 14 37))
		(arc (pt 31 37)(pt 30 12)(rect 18 12 43 37))
	)
)
(symbol
	(rect 1192 616 1256 664)
	(text "AND2" (rect 1 0 26 10)(font "Arial" (font_size 6)))
	(text "inst311" (rect 3 37 38 48)(font "Arial" ))
	(port
		(pt 0 16)
		(input)
		(text "IN1" (rect 2 7 23 18)(font "Courier New" (bold))(invisible))
		(text "IN1" (rect 2 7 23 18)(font "Courier New" (bold))(invisible))
		(line (pt 0 16)(pt 14 16))
	)
	(port
		(pt 0 32)
		(input)
		(text "IN2" (rect 2 23 23 34)(font "Courier New" (bold))(invisible))
		(text "IN2" (rect 2 23 23 34)(font "Courier New" (bold))(invisible))
		(line (pt 0 32)(pt 14 32))
	)
	(port
		(pt 64 24)
		(output)
		(text "OUT" (rect 48 15 71 26)(font "Courier New" (bold))(invisible))
		(text "OUT" (rect 48 15 71 26)(font "Courier New" (bold))(invisible))
		(line (pt 42 24)(pt 64 24))
	)
	(drawing
		(line (pt 14 12)(pt 30 12))
		(line (pt 14 37)(pt 31 37))
		(line (pt 14 12)(pt 14 37))
		(arc (pt 31 37)(pt 30 12)(rect 18 12 43 37))
	)
)
(symbol
	(rect 1344 304 1408 352)
	(text "OR2" (rect 1 0 21 10)(font "Arial" (font_size 6)))
	(text "inst312" (rect 3 37 38 48)(font "Arial" ))
	(port
		(pt 0 32)
		(input)
		(text "IN2" (rect 2 23 23 34)(font "Courier New" (bold))(invisible))
		(text "IN2" (rect 2 23 23 34)(font "Courier New" (bold))(invisible))
		(line (pt 0 32)(pt 15 32))
	)
	(port
		(pt 0 16)
		(input)
		(text "IN1" (rect 2 7 23 18)(font "Courier New" (bold))(invisible))
		(text "IN1" (rect 2 7 23 18)(font "Courier New" (bold))(invisible))
		(line (pt 0 16)(pt 15 16))
	)
	(port
		(pt 64 24)
		(output)
		(text "OUT" (rect 48 15 71 26)(font "Courier New" (bold))(invisible))
		(text "OUT" (rect 48 15 71 26)(font "Courier New" (bold))(invisible))
		(line (pt 48 24)(pt 64 24))
	)
	(drawing
		(line (pt 14 36)(pt 25 36))
		(line (pt 14 13)(pt 25 13))
		(arc (pt 7 29)(pt 7 19)(rect -14 8 19 41))
		(arc (pt 49 24)(pt 25 13)(rect -6 13 57 76))
		(arc (pt 25 35)(pt 49 24)(rect -6 -27 57 36))
	)
)
(symbol
	(rect 640 424 704 472)
	(text "AND2" (rect 1 0 26 10)(font "Arial" (font_size 6)))
	(text "inst315" (rect 3 37 38 48)(font "Arial" ))
	(port
		(pt 0 16)
		(input)
		(text "IN1" (rect 2 7 23 18)(font "Courier New" (bold))(invisible))
		(text "IN1" (rect 2 7 23 18)(font "Courier New" (bold))(invisible))
		(line (pt 0 16)(pt 14 16))
	)
	(port
		(pt 0 32)
		(input)
		(text "IN2" (rect 2 23 23 34)(font "Courier New" (bold))(invisible))
		(text "IN2" (rect 2 23 23 34)(font "Courier New" (bold))(invisible))
		(line (pt 0 32)(pt 14 32))
	)
	(port
		(pt 64 24)
		(output)
		(text "OUT" (rect 48 15 71 26)(font "Courier New" (bold))(invisible))
		(text "OUT" (rect 48 15 71 26)(font "Courier New" (bold))(invisible))
		(line (pt 42 24)(pt 64 24))
	)
	(drawing
		(line (pt 14 12)(pt 30 12))
		(line (pt 14 37)(pt 31 37))
		(line (pt 14 12)(pt 14 37))
		(arc (pt 31 37)(pt 30 12)(rect 18 12 43 37))
	)
)
(symbol
	(rect 640 744 704 792)
	(text "AND2" (rect 1 0 26 10)(font "Arial" (font_size 6)))
	(text "inst316" (rect 3 37 38 48)(font "Arial" ))
	(port
		(pt 0 16)
		(input)
		(text "IN1" (rect 2 7 23 18)(font "Courier New" (bold))(invisible))
		(text "IN1" (rect 2 7 23 18)(font "Courier New" (bold))(invisible))
		(line (pt 0 16)(pt 14 16))
	)
	(port
		(pt 0 32)
		(input)
		(text "IN2" (rect 2 23 23 34)(font "Courier New" (bold))(invisible))
		(text "IN2" (rect 2 23 23 34)(font "Courier New" (bold))(invisible))
		(line (pt 0 32)(pt 14 32))
	)
	(port
		(pt 64 24)
		(output)
		(text "OUT" (rect 48 15 71 26)(font "Courier New" (bold))(invisible))
		(text "OUT" (rect 48 15 71 26)(font "Courier New" (bold))(invisible))
		(line (pt 42 24)(pt 64 24))
	)
	(drawing
		(line (pt 14 12)(pt 30 12))
		(line (pt 14 37)(pt 31 37))
		(line (pt 14 12)(pt 14 37))
		(arc (pt 31 37)(pt 30 12)(rect 18 12 43 37))
	)
)
(symbol
	(rect 640 824 704 904)
	(text "DFF" (rect 1 0 19 10)(font "Arial" (font_size 6)))
	(text "inst317" (rect 3 68 38 79)(font "Arial" ))
	(port
		(pt 32 80)
		(input)
		(text "CLRN" (rect 21 59 48 70)(font "Courier New" (bold)))
		(text "CLRN" (rect 21 58 48 69)(font "Courier New" (bold)))
		(line (pt 32 80)(pt 32 76))
	)
	(port
		(pt 0 40)
		(input)
		(text "CLK" (rect 3 29 23 40)(font "Courier New" (bold))(invisible))
		(text "CLK" (rect 3 29 23 40)(font "Courier New" (bold))(invisible))
		(line (pt 0 40)(pt 12 40))
	)
	(port
		(pt 0 24)
		(input)
		(text "D" (rect 14 20 21 31)(font "Courier New" (bold)))
		(text "D" (rect 14 20 21 31)(font "Courier New" (bold)))
		(line (pt 0 24)(pt 12 24))
	)
	(port
		(pt 32 0)
		(input)
		(text "PRN" (rect 24 13 45 24)(font "Courier New" (bold)))
		(text "PRN" (rect 24 11 45 22)(font "Courier New" (bold)))
		(line (pt 32 4)(pt 32 0))
	)
	(port
		(pt 64 24)
		(output)
		(text "Q" (rect 45 20 53 31)(font "Courier New" (bold)))
		(text "Q" (rect 41 20 49 31)(font "Courier New" (bold)))
		(line (pt 52 24)(pt 64 24))
	)
	(drawing
		(line (pt 12 12)(pt 52 12))
		(line (pt 12 68)(pt 52 68))
		(line (pt 52 68)(pt 52 12))
		(line (pt 12 68)(pt 12 12))
		(line (pt 19 40)(pt 12 47))
		(line (pt 12 32)(pt 20 40))
		(circle (rect 28 4 36 12))
		(circle (rect 28 68 36 76))
	)
)
(symbol
	(rect 720 824 784 904)
	(text "TFF" (rect 1 0 18 10)(font "Arial" (font_size 6)))
	(text "inst318" (rect 3 68 38 79)(font "Arial" ))
	(port
		(pt 32 0)
		(input)
		(text "PRN" (rect 24 13 45 24)(font "Courier New" (bold)))
		(text "PRN" (rect 24 11 45 22)(font "Courier New" (bold)))
		(line (pt 32 4)(pt 32 0))
	)
	(port
		(pt 32 80)
		(input)
		(text "CLRN" (rect 21 59 48 70)(font "Courier New" (bold)))
		(text "CLRN" (rect 21 58 48 69)(font "Courier New" (bold)))
		(line (pt 32 80)(pt 32 76))
	)
	(port
		(pt 0 24)
		(input)
		(text "T" (rect 16 20 24 31)(font "Courier New" (bold)))
		(text "T" (rect 16 20 24 31)(font "Courier New" (bold)))
		(line (pt 0 24)(pt 12 24))
	)
	(port
		(pt 0 40)
		(input)
		(text "CLK" (rect 2 28 22 39)(font "Courier New" (bold))(invisible))
		(text "CLK" (rect 2 28 22 39)(font "Courier New" (bold))(invisible))
		(line (pt 0 40)(pt 12 40))
	)
	(port
		(pt 64 24)
		(output)
		(text "Q" (rect 45 20 53 31)(font "Courier New" (bold)))
		(text "Q" (rect 41 20 49 31)(font "Courier New" (bold)))
		(line (pt 52 24)(pt 64 24))
	)
	(drawing
		(line (pt 12 12)(pt 52 12))
		(line (pt 12 68)(pt 52 68))
		(line (pt 12 68)(pt 12 12))
		(line (pt 52 68)(pt 52 12))
		(line (pt 12 34)(pt 19 41))
		(line (pt 18 41)(pt 12 47))
		(circle (rect 28 4 36 12))
		(circle (rect 28 68 36 76))
	)
)
(symbol
	(rect 816 832 864 864)
	(text "NOT" (rect 1 0 21 10)(font "Arial" (font_size 6)))
	(text "inst319" (rect 3 21 38 32)(font "Arial" ))
	(port
		(pt 0 16)
		(input)
		(text "IN" (rect 2 7 16 18)(font "Courier New" (bold))(invisible))
		(text "IN" (rect 2 7 16 18)(font "Courier New" (bold))(invisible))
		(line (pt 0 16)(pt 13 16))
	)
	(port
		(pt 48 16)
		(output)
		(text "OUT" (rect 32 7 55 18)(font "Courier New" (bold))(invisible))
		(text "OUT" (rect 32 7 55 18)(font "Courier New" (bold))(invisible))
		(line (pt 39 16)(pt 48 16))
	)
	(drawing
		(line (pt 13 25)(pt 13 7))
		(line (pt 13 7)(pt 31 16))
		(line (pt 13 25)(pt 31 16))
		(circle (rect 31 12 39 20))
	)
)
(symbol
	(rect 768 216 904 416)
	(text "LPM_COUNTER" (rect 20 0 134 16)(font "Arial" (font_size 10)))
	(text "counter1" (rect 3 189 45 200)(font "Arial" ))
	(port
		(pt 72 200)
		(input)
		(text "aclr" (rect 64 167 77 188)(font "Arial" (font_size 8))(vertical))
		(text "aclr" (rect 64 152 77 173)(font "Arial" (font_size 8))(vertical))
		(line (pt 72 200)(pt 72 184))
	)
	(port
		(pt 88 200)
		(input)
		(text "aload" (rect 80 158 93 188)(font "Arial" (font_size 8))(vertical))
		(text "aload" (rect 80 144 93 174)(font "Arial" (font_size 8))(vertical))
		(line (pt 88 200)(pt 88 184))
		(unused)
	)
	(port
		(pt 104 200)
		(input)
		(text "aset" (rect 48 164 61 188)(font "Arial" (font_size 8))(vertical))
		(text "aset" (rect 96 152 109 176)(font "Arial" (font_size 8))(vertical))
		(line (pt 104 200)(pt 104 184))
		(unused)
	)
	(port
		(pt 0 176)
		(input)
		(text "cin" (rect 24 168 40 181)(font "Arial" (font_size 8)))
		(text "cin" (rect 20 168 36 181)(font "Arial" (font_size 8)))
		(line (pt 0 176)(pt 16 176))
		(unused)
	)
	(port
		(pt 0 144)
		(input)
		(text "clk_en" (rect 20 121 57 134)(font "Arial" (font_size 8)))
		(text "clk_en" (rect 20 137 57 150)(font "Arial" (font_size 8)))
		(line (pt 0 144)(pt 16 144))
	)
	(port
		(pt 0 128)
		(input)
		(text "clock" (rect 27 106 57 119)(font "Arial" (font_size 8))(invisible))
		(text "clock" (rect 27 122 57 135)(font "Arial" (font_size 8))(invisible))
		(line (pt 0 128)(pt 16 128))
	)
	(port
		(pt 0 160)
		(input)
		(text "cnt_en" (rect 20 137 58 150)(font "Arial" (font_size 8)))
		(text "cnt_en" (rect 20 153 58 166)(font "Arial" (font_size 8)))
		(line (pt 0 160)(pt 16 160))
		(unused)
	)
	(port
		(pt 0 80)
		(input)
		(text "data[LPM_WIDTH-1..0]" (rect 20 89 153 102)(font "Arial" (font_size 8)))
		(text "data[]" (rect 20 73 51 86)(font "Arial" (font_size 8)))
		(line (pt 0 80)(pt 16 80)(line_width 3))
		(unused)
	)
	(port
		(pt 0 32)
		(input)
		(text "sclr" (rect 20 25 41 38)(font "Arial" (font_size 8)))
		(text "sclr" (rect 20 25 41 38)(font "Arial" (font_size 8)))
		(line (pt 0 32)(pt 16 32))
		(unused)
	)
	(port
		(pt 0 48)
		(input)
		(text "sload" (rect 20 41 50 54)(font "Arial" (font_size 8)))
		(text "sload" (rect 20 41 50 54)(font "Arial" (font_size 8)))
		(line (pt 0 48)(pt 16 48))
		(unused)
	)
	(port
		(pt 0 64)
		(input)
		(text "sset" (rect 20 57 44 70)(font "Arial" (font_size 8)))
		(text "sset" (rect 20 57 44 70)(font "Arial" (font_size 8)))
		(line (pt 0 64)(pt 16 64))
		(unused)
	)
	(port
		(pt 0 112)
		(input)
		(text "updown" (rect 20 73 64 86)(font "Arial" (font_size 8)))
		(text "updown" (rect 20 105 64 118)(font "Arial" (font_size 8)))
		(line (pt 0 112)(pt 16 112))
		(unused)
	)
	(port
		(pt 136 112)
		(output)
		(text "cout" (rect 88 120 112 133)(font "Arial" (font_size 8)))
		(text "cout" (rect 96 104 120 117)(font "Arial" (font_size 8)))
		(line (pt 136 112)(pt 120 112))
	)
	(port
		(pt 136 96)
		(output)
		(text "q[LPM_WIDTH-1..0]" (rect 105 89 220 102)(font "Arial" (font_size 8)))
		(text "q[]" (rect 105 89 119 102)(font "Arial" (font_size 8)))
		(line (pt 120 96)(pt 136 96)(line_width 3))
	)
	(parameter
		"LPM_SVALUE"
		""
		"Unsigned value associated with the sset port"
	)
	(parameter
		"LPM_AVALUE"
		""
		"Unsigned value associated with the aset port"
	)
	(parameter
		"LPM_MODULUS"
		""
		"Optional counter wrap value"
	)
	(parameter
		"LPM_DIRECTION"
		""
		"Selects between up/down, up, or down (\"DEFAULT\" \"UP\" \"DOWN\")"
	)
	(parameter
		"LPM_WIDTH"
		"WIDTH"
		"Width of I/O, any integer > 0"
	)
	(parameter
		"LPM_PORT_UPDOWN"
		""
		"Condition of the up/down port (\"PORT_CONNECTIVITY\" \"PORT_USED\" \"PORT_UNUSED\")"
	)
	(drawing
		(line (pt 16 184)(pt 120 184))
		(line (pt 16 16)(pt 120 16))
		(line (pt 16 184)(pt 16 16))
		(line (pt 120 184)(pt 120 16))
		(line (pt 16 136)(pt 24 128))
		(line (pt 24 128)(pt 16 120))
	)
	(annotation_block (parameter)(rect 904 120 1094 211))
)
(symbol
	(rect 768 536 904 736)
	(text "LPM_COUNTER" (rect 20 0 134 16)(font "Arial" (font_size 10)))
	(text "counter2" (rect 3 189 45 200)(font "Arial" ))
	(port
		(pt 72 200)
		(input)
		(text "aclr" (rect 64 167 77 188)(font "Arial" (font_size 8))(vertical))
		(text "aclr" (rect 64 152 77 173)(font "Arial" (font_size 8))(vertical))
		(line (pt 72 200)(pt 72 184))
	)
	(port
		(pt 88 200)
		(input)
		(text "aload" (rect 80 158 93 188)(font "Arial" (font_size 8))(vertical))
		(text "aload" (rect 80 144 93 174)(font "Arial" (font_size 8))(vertical))
		(line (pt 88 200)(pt 88 184))
		(unused)
	)
	(port
		(pt 104 200)
		(input)
		(text "aset" (rect 48 164 61 188)(font "Arial" (font_size 8))(vertical))
		(text "aset" (rect 96 152 109 176)(font "Arial" (font_size 8))(vertical))
		(line (pt 104 200)(pt 104 184))
		(unused)
	)
	(port
		(pt 0 176)
		(input)
		(text "cin" (rect 24 168 40 181)(font "Arial" (font_size 8)))
		(text "cin" (rect 20 168 36 181)(font "Arial" (font_size 8)))
		(line (pt 0 176)(pt 16 176))
		(unused)
	)
	(port
		(pt 0 144)
		(input)
		(text "clk_en" (rect 20 121 57 134)(font "Arial" (font_size 8)))
		(text "clk_en" (rect 20 137 57 150)(font "Arial" (font_size 8)))
		(line (pt 0 144)(pt 16 144))
	)
	(port
		(pt 0 128)
		(input)
		(text "clock" (rect 27 106 57 119)(font "Arial" (font_size 8))(invisible))
		(text "clock" (rect 27 122 57 135)(font "Arial" (font_size 8))(invisible))
		(line (pt 0 128)(pt 16 128))
	)
	(port
		(pt 0 160)
		(input)
		(text "cnt_en" (rect 20 137 58 150)(font "Arial" (font_size 8)))
		(text "cnt_en" (rect 20 153 58 166)(font "Arial" (font_size 8)))
		(line (pt 0 160)(pt 16 160))
		(unused)
	)
	(port
		(pt 0 80)
		(input)
		(text "data[LPM_WIDTH-1..0]" (rect 20 89 153 102)(font "Arial" (font_size 8)))
		(text "data[]" (rect 20 73 51 86)(font "Arial" (font_size 8)))
		(line (pt 0 80)(pt 16 80)(line_width 3))
		(unused)
	)
	(port
		(pt 0 32)
		(input)
		(text "sclr" (rect 20 25 41 38)(font "Arial" (font_size 8)))
		(text "sclr" (rect 20 25 41 38)(font "Arial" (font_size 8)))
		(line (pt 0 32)(pt 16 32))
		(unused)
	)
	(port
		(pt 0 48)
		(input)
		(text "sload" (rect 20 41 50 54)(font "Arial" (font_size 8)))
		(text "sload" (rect 20 41 50 54)(font "Arial" (font_size 8)))
		(line (pt 0 48)(pt 16 48))
		(unused)
	)
	(port
		(pt 0 64)
		(input)
		(text "sset" (rect 20 57 44 70)(font "Arial" (font_size 8)))
		(text "sset" (rect 20 57 44 70)(font "Arial" (font_size 8)))
		(line (pt 0 64)(pt 16 64))
		(unused)
	)
	(port
		(pt 0 112)
		(input)
		(text "updown" (rect 20 73 64 86)(font "Arial" (font_size 8)))
		(text "updown" (rect 20 105 64 118)(font "Arial" (font_size 8)))
		(line (pt 0 112)(pt 16 112))
		(unused)
	)
	(port
		(pt 136 112)
		(output)
		(text "cout" (rect 88 120 112 133)(font "Arial" (font_size 8)))
		(text "cout" (rect 96 104 120 117)(font "Arial" (font_size 8)))
		(line (pt 136 112)(pt 120 112))
	)
	(port
		(pt 136 96)
		(output)
		(text "q[LPM_WIDTH-1..0]" (rect 105 89 220 102)(font "Arial" (font_size 8)))
		(text "q[]" (rect 105 89 119 102)(font "Arial" (font_size 8)))
		(line (pt 120 96)(pt 136 96)(line_width 3))
	)
	(parameter
		"LPM_SVALUE"
		""
		"Unsigned value associated with the sset port"
	)
	(parameter
		"LPM_AVALUE"
		""
		"Unsigned value associated with the aset port"
	)
	(parameter
		"LPM_MODULUS"
		""
		"Optional counter wrap value"
	)
	(parameter
		"LPM_DIRECTION"
		""
		"Selects between up/down, up, or down (\"DEFAULT\" \"UP\" \"DOWN\")"
	)
	(parameter
		"LPM_WIDTH"
		"WIDTH"
		"Width of I/O, any integer > 0"
	)
	(parameter
		"LPM_PORT_UPDOWN"
		""
		"Condition of the up/down port (\"PORT_CONNECTIVITY\" \"PORT_USED\" \"PORT_UNUSED\")"
	)
	(drawing
		(line (pt 16 184)(pt 120 184))
		(line (pt 16 16)(pt 120 16))
		(line (pt 16 184)(pt 16 16))
		(line (pt 120 184)(pt 120 16))
		(line (pt 16 136)(pt 24 128))
		(line (pt 24 128)(pt 16 120))
	)
	(annotation_block (parameter)(rect 904 440 1094 531))
)
(symbol
	(rect 640 336 704 384)
	(text "AND2" (rect 1 0 26 10)(font "Arial" (font_size 6)))
	(text "inst" (rect 3 37 20 48)(font "Arial" ))
	(port
		(pt 0 16)
		(input)
		(text "IN1" (rect 2 7 23 18)(font "Courier New" (bold))(invisible))
		(text "IN1" (rect 2 7 23 18)(font "Courier New" (bold))(invisible))
		(line (pt 0 16)(pt 14 16))
	)
	(port
		(pt 0 32)
		(input)
		(text "IN2" (rect 2 23 23 34)(font "Courier New" (bold))(invisible))
		(text "IN2" (rect 2 23 23 34)(font "Courier New" (bold))(invisible))
		(line (pt 0 32)(pt 14 32))
	)
	(port
		(pt 64 24)
		(output)
		(text "OUT" (rect 48 15 71 26)(font "Courier New" (bold))(invisible))
		(text "OUT" (rect 48 15 71 26)(font "Courier New" (bold))(invisible))
		(line (pt 42 24)(pt 64 24))
	)
	(drawing
		(line (pt 14 12)(pt 30 12))
		(line (pt 14 37)(pt 31 37))
		(line (pt 14 12)(pt 14 37))
		(arc (pt 31 37)(pt 30 12)(rect 18 12 43 37))
	)
)
(symbol
	(rect 640 656 704 704)
	(text "AND2" (rect 1 0 26 10)(font "Arial" (font_size 6)))
	(text "inst2" (rect 3 37 26 48)(font "Arial" ))
	(port
		(pt 0 16)
		(input)
		(text "IN1" (rect 2 7 23 18)(font "Courier New" (bold))(invisible))
		(text "IN1" (rect 2 7 23 18)(font "Courier New" (bold))(invisible))
		(line (pt 0 16)(pt 14 16))
	)
	(port
		(pt 0 32)
		(input)
		(text "IN2" (rect 2 23 23 34)(font "Courier New" (bold))(invisible))
		(text "IN2" (rect 2 23 23 34)(font "Courier New" (bold))(invisible))
		(line (pt 0 32)(pt 14 32))
	)
	(port
		(pt 64 24)
		(output)
		(text "OUT" (rect 48 15 71 26)(font "Courier New" (bold))(invisible))
		(text "OUT" (rect 48 15 71 26)(font "Courier New" (bold))(invisible))
		(line (pt 42 24)(pt 64 24))
	)
	(drawing
		(line (pt 14 12)(pt 30 12))
		(line (pt 14 37)(pt 31 37))
		(line (pt 14 12)(pt 14 37))
		(arc (pt 31 37)(pt 30 12)(rect 18 12 43 37))
	)
)
(connector
	(pt 904 312)
	(pt 1192 312)
	(bus)
)
(connector
	(pt 904 632)
	(pt 1192 632)
	(bus)
)
(connector
	(pt 1256 320)
	(pt 1344 320)
	(bus)
)
(connector
	(pt 1256 640)
	(pt 1304 640)
	(bus)
)
(connector
	(pt 1304 640)
	(pt 1304 336)
	(bus)
)
(connector
	(pt 1304 336)
	(pt 1344 336)
	(bus)
)
(connector
	(text "ena2" (rect 1120 312 1143 323)(font "Arial" ))
	(pt 1192 328)
	(pt 1112 328)
)
(connector
	(text "ena1" (rect 1112 632 1135 643)(font "Arial" ))
	(pt 1192 648)
	(pt 1104 648)
)
(connector
	(pt 768 664)
	(pt 744 664)
)
(connector
	(pt 840 416)
	(pt 840 448)
)
(connector
	(pt 840 448)
	(pt 704 448)
)
(connector
	(pt 840 736)
	(pt 840 768)
)
(connector
	(pt 840 768)
	(pt 704 768)
)
(connector
	(text "ena2" (rect 576 424 599 435)(font "Arial" ))
	(pt 640 440)
	(pt 568 440)
)
(connector
	(text "ena1" (rect 580 744 603 755)(font "Arial" ))
	(pt 640 760)
	(pt 568 760)
)
(connector
	(pt 640 776)
	(pt 624 776)
)
(connector
	(pt 640 456)
	(pt 624 456)
)
(connector
	(pt 704 848)
	(pt 720 848)
)
(connector
	(text "ena1" (rect 926 832 949 843)(font "Arial" ))
	(pt 864 848)
	(pt 952 848)
)
(connector
	(pt 800 848)
	(pt 800 880)
)
(connector
	(text "ena2" (rect 927 864 950 875)(font "Arial" ))
	(pt 800 880)
	(pt 952 880)
)
(connector
	(text "flip" (rect 423 832 437 843)(font "Arial" ))
	(pt 408 848)
	(pt 624 848)
)
(connector
	(pt 624 848)
	(pt 640 848)
)
(connector
	(pt 624 456)
	(pt 624 776)
)
(connector
	(pt 624 776)
	(pt 624 848)
)
(connector
	(pt 784 848)
	(pt 800 848)
)
(connector
	(pt 800 848)
	(pt 816 848)
)
(connector
	(pt 744 344)
	(pt 768 344)
)
(connector
	(text "output[WIDTH-1..0]" (rect 1485 312 1582 323)(font "Arial" ))
	(pt 1408 328)
	(pt 1544 328)
	(bus)
)
(connector
	(text "input" (rect 574 256 597 267)(font "Arial" ))
	(pt 744 272)
	(pt 568 272)
)
(connector
	(pt 744 272)
	(pt 744 344)
)
(connector
	(pt 744 344)
	(pt 744 664)
)
(connector
	(pt 704 360)
	(pt 768 360)
)
(connector
	(text "ena1" (rect 576 336 599 347)(font "Arial" ))
	(pt 568 352)
	(pt 640 352)
)
(connector
	(text "enable" (rect 568 352 599 363)(font "Arial" ))
	(pt 640 368)
	(pt 568 368)
)
(connector
	(pt 704 680)
	(pt 768 680)
)
(connector
	(text "ena2" (rect 576 656 599 667)(font "Arial" ))
	(pt 568 672)
	(pt 640 672)
)
(connector
	(text "enable" (rect 573 672 604 683)(font "Arial" ))
	(pt 640 688)
	(pt 568 688)
)
(connector
	(pt 584 864)
	(pt 584 880)
)
(connector
	(text "clock" (rect 495 864 520 875)(font "Arial" ))
	(pt 480 880)
	(pt 584 880)
)
(connector
	(pt 584 864)
	(pt 640 864)
)
(connector
	(pt 640 864)
	(pt 720 864)
)
(junction (pt 744 344))
(junction (pt 624 776))
(junction (pt 624 848))
(junction (pt 640 864))
(junction (pt 800 848))
