/*
WARNING: Do NOT edit the input and output ports in this file in a text
editor if you plan to continue editing the block that represents it in
the Block Editor! File corruption is VERY likely to occur.
*/
/*
Copyright (C) 1991-2010 Altera Corporation
Your use of Altera Corporation's design tools, logic functions 
and other software and tools, and its AMPP partner logic 
functions, and any output files from any of the foregoing 
(including device programming or simulation files), and any 
associated documentation or information are expressly subject 
to the terms and conditions of the Altera Program License 
Subscription Agreement, Altera MegaCore Function License 
Agreement, or other applicable license agreement, including, 
without limitation, that your use is for the sole purpose of 
programming logic devices manufactured by Altera and sold by 
Altera or its authorized distributors.  Please refer to the 
applicable agreement for further details.
*/
//#pragma file_not_in_maxplusii_format
(header "graphic" (version "1.3"))
(pin
	(input)
	(rect 8 40 176 56)
	(text "INPUT" (rect 133 0 161 11)(font "Arial" (font_size 6)))
	(text "data[31..0]" (rect 5 0 51 11)(font "Arial" ))
	(pt 168 8)
	(drawing
		(line (pt 92 12)(pt 117 12)(line_width 1))
		(line (pt 92 4)(pt 117 4)(line_width 1))
		(line (pt 121 8)(pt 168 8)(line_width 1))
		(line (pt 92 12)(pt 92 4)(line_width 1))
		(line (pt 117 4)(pt 121 8)(line_width 1))
		(line (pt 117 12)(pt 121 8)(line_width 1))
	)
	(text "VCC" (rect 136 7 157 18)(font "Arial" (font_size 6)))
)
(pin
	(input)
	(rect 8 64 176 80)
	(text "INPUT" (rect 133 0 161 11)(font "Arial" (font_size 6)))
	(text "wrreq" (rect 5 0 29 11)(font "Arial" ))
	(pt 168 8)
	(drawing
		(line (pt 92 12)(pt 117 12)(line_width 1))
		(line (pt 92 4)(pt 117 4)(line_width 1))
		(line (pt 121 8)(pt 168 8)(line_width 1))
		(line (pt 92 12)(pt 92 4)(line_width 1))
		(line (pt 117 4)(pt 121 8)(line_width 1))
		(line (pt 117 12)(pt 121 8)(line_width 1))
	)
	(text "VCC" (rect 136 7 157 18)(font "Arial" (font_size 6)))
)
(pin
	(input)
	(rect 8 88 176 104)
	(text "INPUT" (rect 133 0 161 11)(font "Arial" (font_size 6)))
	(text "rdack" (rect 5 0 28 11)(font "Arial" ))
	(pt 168 8)
	(drawing
		(line (pt 92 12)(pt 117 12)(line_width 1))
		(line (pt 92 4)(pt 117 4)(line_width 1))
		(line (pt 121 8)(pt 168 8)(line_width 1))
		(line (pt 92 12)(pt 92 4)(line_width 1))
		(line (pt 117 4)(pt 121 8)(line_width 1))
		(line (pt 117 12)(pt 121 8)(line_width 1))
	)
	(text "VCC" (rect 136 7 157 18)(font "Arial" (font_size 6)))
)
(pin
	(input)
	(rect 8 112 176 128)
	(text "INPUT" (rect 133 0 161 11)(font "Arial" (font_size 6)))
	(text "clock" (rect 5 0 27 11)(font "Arial" ))
	(pt 168 8)
	(drawing
		(line (pt 92 12)(pt 117 12)(line_width 1))
		(line (pt 92 4)(pt 117 4)(line_width 1))
		(line (pt 121 8)(pt 168 8)(line_width 1))
		(line (pt 92 12)(pt 92 4)(line_width 1))
		(line (pt 117 4)(pt 121 8)(line_width 1))
		(line (pt 117 12)(pt 121 8)(line_width 1))
	)
	(text "VCC" (rect 136 7 157 18)(font "Arial" (font_size 6)))
)
(pin
	(input)
	(rect 8 136 176 152)
	(text "INPUT" (rect 133 0 161 11)(font "Arial" (font_size 6)))
	(text "aclr" (rect 5 0 20 11)(font "Arial" ))
	(pt 168 8)
	(drawing
		(line (pt 92 12)(pt 117 12)(line_width 1))
		(line (pt 92 4)(pt 117 4)(line_width 1))
		(line (pt 121 8)(pt 168 8)(line_width 1))
		(line (pt 92 12)(pt 92 4)(line_width 1))
		(line (pt 117 4)(pt 121 8)(line_width 1))
		(line (pt 117 12)(pt 121 8)(line_width 1))
	)
	(text "VCC" (rect 136 7 157 18)(font "Arial" (font_size 6)))
)
(pin
	(output)
	(rect 1064 40 1240 56)
	(text "OUTPUT" (rect 1 0 38 11)(font "Arial" (font_size 6)))
	(text "q[31..0]" (rect 90 0 123 11)(font "Arial" ))
	(pt 0 8)
	(drawing
		(line (pt 0 8)(pt 52 8)(line_width 1))
		(line (pt 52 4)(pt 78 4)(line_width 1))
		(line (pt 52 12)(pt 78 12)(line_width 1))
		(line (pt 52 12)(pt 52 4)(line_width 1))
		(line (pt 78 4)(pt 82 8)(line_width 1))
		(line (pt 82 8)(pt 78 12)(line_width 1))
		(line (pt 78 12)(pt 82 8)(line_width 1))
	)
)
(pin
	(output)
	(rect 1064 64 1240 80)
	(text "OUTPUT" (rect 1 0 38 11)(font "Arial" (font_size 6)))
	(text "empty" (rect 90 0 115 11)(font "Arial" ))
	(pt 0 8)
	(drawing
		(line (pt 0 8)(pt 52 8)(line_width 1))
		(line (pt 52 4)(pt 78 4)(line_width 1))
		(line (pt 52 12)(pt 78 12)(line_width 1))
		(line (pt 52 12)(pt 52 4)(line_width 1))
		(line (pt 78 4)(pt 82 8)(line_width 1))
		(line (pt 82 8)(pt 78 12)(line_width 1))
		(line (pt 78 12)(pt 82 8)(line_width 1))
	)
)
(symbol
	(rect 680 24 744 104)
	(text "DFFE" (rect 1 0 26 11)(font "Arial" (font_size 6)))
	(text "inst" (rect 3 68 19 79)(font "Arial" ))
	(port
		(pt 32 0)
		(input)
		(text "PRN" (rect 24 13 41 22)(font "Courier New" (bold)))
		(text "PRN" (rect 24 11 41 20)(font "Courier New" (bold)))
		(line (pt 32 4)(pt 32 0)(line_width 1))
	)
	(port
		(pt 32 80)
		(input)
		(text "CLRN" (rect 21 59 44 68)(font "Courier New" (bold)))
		(text "CLRN" (rect 21 58 44 67)(font "Courier New" (bold)))
		(line (pt 32 80)(pt 32 76)(line_width 1))
	)
	(port
		(pt 0 24)
		(input)
		(text "D" (rect 14 20 19 29)(font "Courier New" (bold)))
		(text "D" (rect 14 20 19 29)(font "Courier New" (bold)))
		(line (pt 0 24)(pt 12 24)(line_width 1))
	)
	(port
		(pt 0 40)
		(input)
		(text "CLK" (rect 2 28 19 37)(font "Courier New" (bold))(invisible))
		(text "CLK" (rect 2 28 19 37)(font "Courier New" (bold))(invisible))
		(line (pt 0 40)(pt 12 40)(line_width 1))
	)
	(port
		(pt 0 56)
		(input)
		(text "ENA" (rect 14 50 31 59)(font "Courier New" (bold)))
		(text "ENA" (rect 14 50 31 59)(font "Courier New" (bold)))
		(line (pt 0 56)(pt 12 56)(line_width 1))
	)
	(port
		(pt 64 24)
		(output)
		(text "Q" (rect 44 20 49 29)(font "Courier New" (bold)))
		(text "Q" (rect 44 20 49 29)(font "Courier New" (bold)))
		(line (pt 53 24)(pt 64 24)(line_width 1))
	)
	(drawing
		(line (pt 12 68)(pt 52 68)(line_width 1))
		(line (pt 12 12)(pt 52 12)(line_width 1))
		(line (pt 52 68)(pt 52 12)(line_width 1))
		(line (pt 12 68)(pt 12 12)(line_width 1))
		(line (pt 12 34)(pt 19 41)(line_width 1))
		(line (pt 18 41)(pt 12 47)(line_width 1))
		(circle (rect 28 4 36 12)(line_width 1))
		(circle (rect 28 68 36 76)(line_width 1))
	)
)
(symbol
	(rect 792 280 840 312)
	(text "NOT" (rect 1 0 19 11)(font "Arial" (font_size 6)))
	(text "inst72" (rect 3 21 31 32)(font "Arial" ))
	(port
		(pt 0 16)
		(input)
		(text "IN" (rect 2 7 13 16)(font "Courier New" (bold))(invisible))
		(text "IN" (rect 2 7 13 16)(font "Courier New" (bold))(invisible))
		(line (pt 0 16)(pt 13 16)(line_width 1))
	)
	(port
		(pt 48 16)
		(output)
		(text "OUT" (rect 32 7 49 16)(font "Courier New" (bold))(invisible))
		(text "OUT" (rect 32 7 49 16)(font "Courier New" (bold))(invisible))
		(line (pt 39 16)(pt 48 16)(line_width 1))
	)
	(drawing
		(line (pt 13 25)(pt 13 7)(line_width 1))
		(line (pt 13 7)(pt 31 16)(line_width 1))
		(line (pt 13 25)(pt 31 16)(line_width 1))
		(circle (rect 31 12 39 20)(line_width 1))
	)
)
(symbol
	(rect 680 272 744 352)
	(text "SRFF" (rect 1 0 26 11)(font "Arial" (font_size 6)))
	(text "inst8" (rect 3 68 25 79)(font "Arial" ))
	(port
		(pt 32 0)
		(input)
		(text "PRN" (rect 24 13 41 22)(font "Courier New" (bold)))
		(text "PRN" (rect 24 11 41 20)(font "Courier New" (bold)))
		(line (pt 32 4)(pt 32 0)(line_width 1))
	)
	(port
		(pt 32 80)
		(input)
		(text "CLRN" (rect 21 59 44 68)(font "Courier New" (bold)))
		(text "CLRN" (rect 21 58 44 67)(font "Courier New" (bold)))
		(line (pt 32 80)(pt 32 76)(line_width 1))
	)
	(port
		(pt 0 24)
		(input)
		(text "S" (rect 14 20 19 29)(font "Courier New" (bold)))
		(text "S" (rect 14 20 19 29)(font "Courier New" (bold)))
		(line (pt 0 24)(pt 12 24)(line_width 1))
	)
	(port
		(pt 0 56)
		(input)
		(text "R" (rect 14 51 19 60)(font "Courier New" (bold)))
		(text "R" (rect 14 51 19 60)(font "Courier New" (bold)))
		(line (pt 0 56)(pt 12 56)(line_width 1))
	)
	(port
		(pt 0 40)
		(input)
		(text "CLK" (rect 2 29 19 38)(font "Courier New" (bold))(invisible))
		(text "CLK" (rect 2 29 19 38)(font "Courier New" (bold))(invisible))
		(line (pt 0 40)(pt 12 40)(line_width 1))
	)
	(port
		(pt 64 24)
		(output)
		(text "Q" (rect 45 20 50 29)(font "Courier New" (bold)))
		(text "Q" (rect 45 20 50 29)(font "Courier New" (bold)))
		(line (pt 52 24)(pt 64 24)(line_width 1))
	)
	(drawing
		(line (pt 12 68)(pt 52 68)(line_width 1))
		(line (pt 12 12)(pt 52 12)(line_width 1))
		(line (pt 52 68)(pt 52 12)(line_width 1))
		(line (pt 12 68)(pt 12 12)(line_width 1))
		(line (pt 19 40)(pt 12 47)(line_width 1))
		(line (pt 12 33)(pt 19 40)(line_width 1))
		(circle (rect 28 4 36 12)(line_width 1))
		(circle (rect 28 68 36 76)(line_width 1))
	)
)
(symbol
	(rect 520 352 568 384)
	(text "NOT" (rect 1 0 19 11)(font "Arial" (font_size 6)))
	(text "inst73" (rect 3 21 31 32)(font "Arial" ))
	(port
		(pt 0 16)
		(input)
		(text "IN" (rect 2 7 13 16)(font "Courier New" (bold))(invisible))
		(text "IN" (rect 2 7 13 16)(font "Courier New" (bold))(invisible))
		(line (pt 0 16)(pt 13 16)(line_width 1))
	)
	(port
		(pt 48 16)
		(output)
		(text "OUT" (rect 32 7 49 16)(font "Courier New" (bold))(invisible))
		(text "OUT" (rect 32 7 49 16)(font "Courier New" (bold))(invisible))
		(line (pt 39 16)(pt 48 16)(line_width 1))
	)
	(drawing
		(line (pt 13 25)(pt 13 7)(line_width 1))
		(line (pt 13 7)(pt 31 16)(line_width 1))
		(line (pt 13 25)(pt 31 16)(line_width 1))
		(circle (rect 31 12 39 20)(line_width 1))
	)
)
(connector
	(pt 712 352)
	(pt 712 368)
)
(connector
	(pt 680 296)
	(pt 664 296)
)
(connector
	(pt 744 296)
	(pt 792 296)
)
(connector
	(pt 504 72)
	(pt 176 72)
)
(connector
	(pt 680 328)
	(pt 480 328)
)
(connector
	(pt 480 96)
	(pt 480 328)
)
(connector
	(pt 176 96)
	(pt 480 96)
)
(connector
	(text "clock" (rect 617 296 639 307)(font "Arial" ))
	(pt 608 312)
	(pt 680 312)
)
(connector
	(pt 456 144)
	(pt 176 144)
)
(connector
	(text "clock" (rect 616 48 638 59)(font "Arial" ))
	(pt 680 64)
	(pt 608 64)
)
(connector
	(pt 176 48)
	(pt 680 48)
	(bus)
)
(connector
	(pt 744 48)
	(pt 1064 48)
	(bus)
)
(connector
	(pt 664 80)
	(pt 680 80)
)
(connector
	(pt 504 72)
	(pt 504 96)
)
(connector
	(pt 664 96)
	(pt 504 96)
)
(connector
	(pt 664 80)
	(pt 664 96)
)
(connector
	(pt 664 96)
	(pt 664 296)
)
(connector
	(pt 1064 72)
	(pt 992 72)
)
(connector
	(pt 992 72)
	(pt 992 296)
)
(connector
	(pt 840 296)
	(pt 992 296)
)
(connector
	(pt 456 368)
	(pt 520 368)
)
(connector
	(pt 456 144)
	(pt 456 368)
)
(connector
	(pt 712 104)
	(pt 712 120)
)
(connector
	(pt 584 368)
	(pt 584 120)
)
(connector
	(pt 712 120)
	(pt 584 120)
)
(connector
	(pt 568 368)
	(pt 584 368)
)
(connector
	(pt 584 368)
	(pt 712 368)
)
(junction (pt 664 96))
(junction (pt 584 368))
(text "Dummy replacement for a FIFO" (rect 8 -88 325 -66)(font "arial" (color 0 0 255)(font_size 14)))
(text "All inputs and outputs are intended to work like an SCFIFO" (rect 8 -48 588 -26)(font "arial" (color 0 0 255)(font_size 14)))
