<internal_error>
<sub_system>ERR</sub_system>
<callstack>
	0x0cf0d4d5: quartus + 0x4ec54d5 (_ZN15ERR_STACKWALKER15get_stack_traceEPPKviiPv + 0xad)
	0x0cf0ff72: quartus + 0x4ec7f72 (_Z14err_terminatorv + 0x60)
	0xfffffffff6dcea0e: dinkum_alt + 0x17a0e (_ZSt9terminatev + 0x1e)
	0xfffffffff5fa3c0a: stdc++.so.6 + 0xb4c0a
	0x0cf10325: quartus + 0x4ec8325 (err_sigaction_handler + 0x83)
	0xffffffffffffe600:  + 0x600 (__kernel_rt_sigreturn + 0x0)
	0x0073e00a: c.so.6 + 0x6700a
	0x0073fd6d: c.so.6 + 0x68d6d
	0x0074139e: c.so.6 + 0x6a39e (__libc_malloc + 0x7e)
	0x0cf1bca9: quartus + 0x4ed3ca9 (_elf_cook + 0x2f9)
	0x0cf165bd: quartus + 0x4ece5bd (_elf_getehdr + 0x6d)
	0x0cf11e64: quartus + 0x4ec9e64 (gelf_getehdr + 0x44)
	0x0cf0c74f: quartus + 0x4ec474f (_ZN15ERR_STACKWALKER23get_fn_name_from_symtabEPKcPvS2_Pi + 0x205)
	0x0cf0cd47: quartus + 0x4ec4d47 (_ZN15ERR_STACKWALKER16get_address_infoEPKvPNS_12ADDRESS_INFOE + 0x1fd)
	0x0cf0d29b: quartus + 0x4ec529b (_ZN15ERR_STACKWALKER27snprint_display_stack_traceEPciPPKvi + 0x5f)
	0x0cdd9c80: quartus + 0x4d91c80 (_ZN14MSG_ERROR_INFO21format_as_fatal_errorEv + 0xf4)
	0x0ce0a9c2: quartus + 0x4dc29c2 (_ZN18MSG_INTERNAL_ERROR12report_fatalEPKcPv + 0x6a)
	0x092e113e: quartus + 0x129913e (_ZN7AFC_APP22report_fatal_exceptionEPKcPv + 0x27a)
	0x0cf10124: quartus + 0x4ec8124 (_Z26err_report_fatal_exceptionPKcPv + 0x74)
	0x0cf103ee: quartus + 0x4ec83ee (err_sigaction_handler + 0x14c)
	0xffffffffffffe600:  + 0x600 (__kernel_rt_sigreturn + 0x0)
	0xfffffffff7688111: ole32 + 0xe6111 (_ZN18CClipEnumFormatEtc6CreateEPP14IEnumFORMATETCP12tagFORMATETCm + 0x3f1)
	0xfffffffff7688396: ole32 + 0xe6396 (_ZN15CClipDataObject13EnumFormatEtcEmPP14IEnumFORMATETC + 0x86)
	0xfffffffff7989708: mfc400s + 0x13f708 (_ZN14COleDataObject16BeginEnumFormatsEv + 0x58)
	0x0921ab74: quartus + 0x11d2b74 (_ZN15CUI_DATA_OBJECT19is_format_availableE20CUI_CLIPBOARD_FORMAT + 0x66)
	0xfffffffff0691a2d: edt_ged + 0x115a2d (_ZN17GED_DATA_TRANSFER17valid_data_objectEP15CUI_DATA_OBJECTP7GED_DOC + 0xbd)
	0xfffffffff0797373: edt_ged + 0x21b373 (_ZN8GED_VIEW17OnUpdateEditPasteEP6CCmdUI + 0x113)
	0xfffffffff795b843: mfc400s + 0x111843 (_Z18_AfxDispatchCmdMsgP10CCmdTargetjiMS_FvvEPvjP18AFX_CMDHANDLERINFO + 0x103)
	0xfffffffff795ba77: mfc400s + 0x111a77 (_ZN10CCmdTarget8OnCmdMsgEjiPvP18AFX_CMDHANDLERINFO + 0xc7)
	0xfffffffff7963391: mfc400s + 0x119391 (_ZN5CView8OnCmdMsgEjiPvP18AFX_CMDHANDLERINFO + 0x41)
	0xfffffffff791c1a6: mfc400s + 0xd21a6 (_ZN9CFrameWnd8OnCmdMsgEjiPvP18AFX_CMDHANDLERINFO + 0x66)
	0xfffffffff7de933f: ot803as + 0x26833f (_ZN14SECMDIFrameWnd8OnCmdMsgEjiPvP18AFX_CMDHANDLERINFO + 0x13f)
	0xfffffffff795c115: mfc400s + 0x112115 (_ZN6CCmdUI8DoUpdateEP10CCmdTargeti + 0x45)
	0xfffffffff7e1123a: ot803as + 0x29023a (_ZN16SECCustomToolBar13OnUpdateCmdUIEP9CFrameWndi + 0x9a)
	0xfffffffff7927909: mfc400s + 0xdd909 (_ZN11CControlBar17OnIdleUpdateCmdUIEjl + 0xc9)
	0xfffffffff791532e: mfc400s + 0xcb32e (_ZN4CWnd8OnWndMsgEjjlPl + 0x22e)
	0x092ea783: quartus + 0x12a2783 (_ZN12AFC_TOOL_BAR8OnWndMsgEjjlPl + 0x41)
	0xfffffffff7914d59: mfc400s + 0xcad59 (_ZN4CWnd10WindowProcEjjl + 0x39)
	0xfffffffff7926e54: mfc400s + 0xdce54 (_ZN11CControlBar10WindowProcEjjl + 0x54)
	0xfffffffff7919623: mfc400s + 0xcf623 (_Z14AfxCallWndProcP4CWndP6HWND__jjl + 0xc3)
	0xfffffffff7919793: mfc400s + 0xcf793 (_ZN4CWnd24SendMessageToDescendantsEP6HWND__jjlii + 0x53)
	0xfffffffff791980d: mfc400s + 0xcf80d (_ZN4CWnd24SendMessageToDescendantsEP6HWND__jjlii + 0xcd)
	0xfffffffff7976674: mfc400s + 0x12c674 (_ZN10CWinThread6OnIdleEl + 0x1e4)
	0xfffffffff7977d51: mfc400s + 0x12dd51 (_ZN7CWinApp6OnIdleEl + 0x71)
	0x092e0ebc: quartus + 0x1298ebc (_ZN7AFC_APP6OnIdleEl + 0x376)
	0x0896979a: quartus + 0x92179a (_ZN7PJM_APP6OnIdleEl + 0x2c)
	0xfffffffff7975b38: mfc400s + 0x12bb38 (_ZN10CWinThread3RunEv + 0xd8)
	0xfffffffff7977b59: mfc400s + 0x12db59 (_ZN7CWinApp3RunEv + 0x29)
	0x092e004b: quartus + 0x129804b (_ZN7AFC_APP19win_app_run_wrapperEPv + 0x1d)
	0xfffffffff7f460f9: ccl_thr_win32 + 0xe0f9 (thr_final_wrapper + 0xf)
	0x089c5eb2: quartus + 0x97deb2 (_Z18mem_thread_wrapperPFPvS_ES_ + 0xd2)
	0x0cf0c317: quartus + 0x4ec4317 (_Z18err_thread_wrapperPFPvS_ES_ + 0x29)
	0xfffffffff7f46187: ccl_thr_win32 + 0xe187 (thr_thread_wrapper + 0x2c)
	0x092e01b2: quartus + 0x12981b2 (_ZN7AFC_APP3RunEv + 0x160)
	0xfffffffff79262ed: mfc400s + 0xdc2ed (_Z10AfxWinMainP11HINSTANCE__S0_Pci + 0xad)
	0x0cf231b3: quartus + 0x4edb1b3 (WinMain + 0x53)
	0x089b2945: quartus + 0x96a945 (main + 0x9d)
	0x006ecdec: c.so.6 + 0x15dec (__libc_start_main + 0xdc)
	0x088e6031: quartus + 0x89e031 (_ZN13SECControlBar17CalcDynamicLayoutEim + 0x91)
</callstack>
<error>*** Fatal Error: Unhandled Exception</error>
<date>Mon Oct 26 17:32:51 2009
</date>
<version>Version 9.0 Build 235 06/17/2009 Service Pack 2 SJ Full Version</version>
</internal_error>