Partition Merge report for VME-NIMIO32
Mon Sep 17 17:47:17 2018
Quartus II 64-Bit Version 12.1 Build 243 01/31/2013 Service Pack 1 SJ Full Version


---------------------
; Table of Contents ;
---------------------
  1. Legal Notice
  2. Partition Merge Summary
  3. Partition Merge Netlist Types Used
  4. Connections to In-System Debugging Instance "auto_signaltap_0"
  5. Partition Merge Partition Statistics
  6. Partition Merge Resource Usage Summary
  7. Partition Merge RAM Summary
  8. Partition Merge Messages



----------------
; Legal Notice ;
----------------
Copyright (C) 1991-2012 Altera Corporation
Your use of Altera Corporation's design tools, logic functions 
and other software and tools, and its AMPP partner logic 
functions, and any output files from any of the foregoing 
(including device programming or simulation files), and any 
associated documentation or information are expressly subject 
to the terms and conditions of the Altera Program License 
Subscription Agreement, Altera MegaCore Function License 
Agreement, or other applicable license agreement, including, 
without limitation, that your use is for the sole purpose of 
programming logic devices manufactured by Altera and sold by 
Altera or its authorized distributors.  Please refer to the 
applicable agreement for further details.



+----------------------------------------------------------------------------+
; Partition Merge Summary                                                    ;
+---------------------------+------------------------------------------------+
; Partition Merge Status    ; Successful - Mon Sep 17 17:47:17 2018          ;
; Quartus II 64-Bit Version ; 12.1 Build 243 01/31/2013 SP 1 SJ Full Version ;
; Revision Name             ; VME-NIMIO32                                    ;
; Top-level Entity Name     ; VME-NIMIO32                                    ;
; Family                    ; Cyclone                                        ;
; Total logic elements      ; 6,751                                          ;
; Total pins                ; 183                                            ;
; Total virtual pins        ; 0                                              ;
; Total memory bits         ; 29,312                                         ;
; Total PLLs                ; 2                                              ;
+---------------------------+------------------------------------------------+


+-------------------------------------------------------------------------------------------------------------------------------+
; Partition Merge Netlist Types Used                                                                                            ;
+--------------------------------+----------------+-------------------+------------------------+--------------------------------+
; Partition Name                 ; Partition Type ; Netlist Type Used ; Netlist Type Requested ; Partition Contents             ;
+--------------------------------+----------------+-------------------+------------------------+--------------------------------+
; Top                            ; User-created   ; Source File       ; Post-Fit               ;                                ;
; sld_hub:auto_hub               ; Auto-generated ; Post-Synthesis    ; Post-Synthesis         ; sld_hub:auto_hub               ;
; sld_signaltap:auto_signaltap_0 ; Auto-generated ; Post-Synthesis    ; Post-Synthesis         ; sld_signaltap:auto_signaltap_0 ;
; hard_block:auto_generated_inst ; Auto-generated ; Source File       ; Source File            ; hard_block:auto_generated_inst ;
+--------------------------------+----------------+-------------------+------------------------+--------------------------------+


+---------------------------------------------------------------------------------------------------------------------------------------------------------------------------------+
; Connections to In-System Debugging Instance "auto_signaltap_0"                                                                                                                  ;
+------------------+---------------+-----------+----------------+-------------------+-----------------------------------------------------------------------------------+---------+
; Name             ; Type          ; Status    ; Partition Name ; Netlist Type Used ; Actual Connection                                                                 ; Details ;
+------------------+---------------+-----------+----------------+-------------------+-----------------------------------------------------------------------------------+---------+
; CMD_DFF[0]       ; pre-synthesis ; connected ; Top            ; post-synthesis    ; CMD_DFF[0]                                                                        ; N/A     ;
; CMD_DFF[0]       ; pre-synthesis ; connected ; Top            ; post-synthesis    ; CMD_DFF[0]                                                                        ; N/A     ;
; CMD_DFF[10]      ; pre-synthesis ; connected ; Top            ; post-synthesis    ; CMD_DFF[10]                                                                       ; N/A     ;
; CMD_DFF[10]      ; pre-synthesis ; connected ; Top            ; post-synthesis    ; CMD_DFF[10]                                                                       ; N/A     ;
; CMD_DFF[11]      ; pre-synthesis ; connected ; Top            ; post-synthesis    ; CMD_DFF[11]                                                                       ; N/A     ;
; CMD_DFF[11]      ; pre-synthesis ; connected ; Top            ; post-synthesis    ; CMD_DFF[11]                                                                       ; N/A     ;
; CMD_DFF[12]      ; pre-synthesis ; connected ; Top            ; post-synthesis    ; CMD_DFF[12]                                                                       ; N/A     ;
; CMD_DFF[12]      ; pre-synthesis ; connected ; Top            ; post-synthesis    ; CMD_DFF[12]                                                                       ; N/A     ;
; CMD_DFF[13]      ; pre-synthesis ; connected ; Top            ; post-synthesis    ; CMD_DFF[13]                                                                       ; N/A     ;
; CMD_DFF[13]      ; pre-synthesis ; connected ; Top            ; post-synthesis    ; CMD_DFF[13]                                                                       ; N/A     ;
; CMD_DFF[14]      ; pre-synthesis ; connected ; Top            ; post-synthesis    ; CMD_DFF[14]                                                                       ; N/A     ;
; CMD_DFF[14]      ; pre-synthesis ; connected ; Top            ; post-synthesis    ; CMD_DFF[14]                                                                       ; N/A     ;
; CMD_DFF[15]      ; pre-synthesis ; connected ; Top            ; post-synthesis    ; CMD_DFF[15]                                                                       ; N/A     ;
; CMD_DFF[15]      ; pre-synthesis ; connected ; Top            ; post-synthesis    ; CMD_DFF[15]                                                                       ; N/A     ;
; CMD_DFF[1]       ; pre-synthesis ; connected ; Top            ; post-synthesis    ; CMD_DFF[1]                                                                        ; N/A     ;
; CMD_DFF[1]       ; pre-synthesis ; connected ; Top            ; post-synthesis    ; CMD_DFF[1]                                                                        ; N/A     ;
; CMD_DFF[2]       ; pre-synthesis ; connected ; Top            ; post-synthesis    ; CMD_DFF[2]                                                                        ; N/A     ;
; CMD_DFF[2]       ; pre-synthesis ; connected ; Top            ; post-synthesis    ; CMD_DFF[2]                                                                        ; N/A     ;
; CMD_DFF[3]       ; pre-synthesis ; connected ; Top            ; post-synthesis    ; CMD_DFF[3]                                                                        ; N/A     ;
; CMD_DFF[3]       ; pre-synthesis ; connected ; Top            ; post-synthesis    ; CMD_DFF[3]                                                                        ; N/A     ;
; CMD_DFF[4]       ; pre-synthesis ; connected ; Top            ; post-synthesis    ; CMD_DFF[4]                                                                        ; N/A     ;
; CMD_DFF[4]       ; pre-synthesis ; connected ; Top            ; post-synthesis    ; CMD_DFF[4]                                                                        ; N/A     ;
; CMD_DFF[5]       ; pre-synthesis ; connected ; Top            ; post-synthesis    ; CMD_DFF[5]                                                                        ; N/A     ;
; CMD_DFF[5]       ; pre-synthesis ; connected ; Top            ; post-synthesis    ; CMD_DFF[5]                                                                        ; N/A     ;
; CMD_DFF[6]       ; pre-synthesis ; connected ; Top            ; post-synthesis    ; CMD_DFF[6]                                                                        ; N/A     ;
; CMD_DFF[6]       ; pre-synthesis ; connected ; Top            ; post-synthesis    ; CMD_DFF[6]                                                                        ; N/A     ;
; CMD_DFF[7]       ; pre-synthesis ; connected ; Top            ; post-synthesis    ; CMD_DFF[7]                                                                        ; N/A     ;
; CMD_DFF[7]       ; pre-synthesis ; connected ; Top            ; post-synthesis    ; CMD_DFF[7]                                                                        ; N/A     ;
; CMD_DFF[8]       ; pre-synthesis ; connected ; Top            ; post-synthesis    ; CMD_DFF[8]                                                                        ; N/A     ;
; CMD_DFF[8]       ; pre-synthesis ; connected ; Top            ; post-synthesis    ; CMD_DFF[8]                                                                        ; N/A     ;
; CMD_DFF[9]       ; pre-synthesis ; connected ; Top            ; post-synthesis    ; CMD_DFF[9]                                                                        ; N/A     ;
; CMD_DFF[9]       ; pre-synthesis ; connected ; Top            ; post-synthesis    ; CMD_DFF[9]                                                                        ; N/A     ;
; FP_LVDS_RX[0]    ; pre-synthesis ; connected ; Top            ; post-synthesis    ; FP_LVDS_RX[0]                                                                     ; N/A     ;
; FP_LVDS_RX[0]    ; pre-synthesis ; connected ; Top            ; post-synthesis    ; FP_LVDS_RX[0]                                                                     ; N/A     ;
; FP_LVDS_RX[10]   ; pre-synthesis ; connected ; Top            ; post-synthesis    ; FP_LVDS_RX[10]                                                                    ; N/A     ;
; FP_LVDS_RX[10]   ; pre-synthesis ; connected ; Top            ; post-synthesis    ; FP_LVDS_RX[10]                                                                    ; N/A     ;
; FP_LVDS_RX[11]   ; pre-synthesis ; connected ; Top            ; post-synthesis    ; FP_LVDS_RX[11]                                                                    ; N/A     ;
; FP_LVDS_RX[11]   ; pre-synthesis ; connected ; Top            ; post-synthesis    ; FP_LVDS_RX[11]                                                                    ; N/A     ;
; FP_LVDS_RX[12]   ; pre-synthesis ; connected ; Top            ; post-synthesis    ; FP_LVDS_RX[12]                                                                    ; N/A     ;
; FP_LVDS_RX[12]   ; pre-synthesis ; connected ; Top            ; post-synthesis    ; FP_LVDS_RX[12]                                                                    ; N/A     ;
; FP_LVDS_RX[13]   ; pre-synthesis ; connected ; Top            ; post-synthesis    ; FP_LVDS_RX[13]                                                                    ; N/A     ;
; FP_LVDS_RX[13]   ; pre-synthesis ; connected ; Top            ; post-synthesis    ; FP_LVDS_RX[13]                                                                    ; N/A     ;
; FP_LVDS_RX[14]   ; pre-synthesis ; connected ; Top            ; post-synthesis    ; FP_LVDS_RX[14]                                                                    ; N/A     ;
; FP_LVDS_RX[14]   ; pre-synthesis ; connected ; Top            ; post-synthesis    ; FP_LVDS_RX[14]                                                                    ; N/A     ;
; FP_LVDS_RX[15]   ; pre-synthesis ; connected ; Top            ; post-synthesis    ; FP_LVDS_RX[15]                                                                    ; N/A     ;
; FP_LVDS_RX[15]   ; pre-synthesis ; connected ; Top            ; post-synthesis    ; FP_LVDS_RX[15]                                                                    ; N/A     ;
; FP_LVDS_RX[1]    ; pre-synthesis ; connected ; Top            ; post-synthesis    ; FP_LVDS_RX[1]                                                                     ; N/A     ;
; FP_LVDS_RX[1]    ; pre-synthesis ; connected ; Top            ; post-synthesis    ; FP_LVDS_RX[1]                                                                     ; N/A     ;
; FP_LVDS_RX[2]    ; pre-synthesis ; connected ; Top            ; post-synthesis    ; FP_LVDS_RX[2]                                                                     ; N/A     ;
; FP_LVDS_RX[2]    ; pre-synthesis ; connected ; Top            ; post-synthesis    ; FP_LVDS_RX[2]                                                                     ; N/A     ;
; FP_LVDS_RX[3]    ; pre-synthesis ; connected ; Top            ; post-synthesis    ; FP_LVDS_RX[3]                                                                     ; N/A     ;
; FP_LVDS_RX[3]    ; pre-synthesis ; connected ; Top            ; post-synthesis    ; FP_LVDS_RX[3]                                                                     ; N/A     ;
; FP_LVDS_RX[4]    ; pre-synthesis ; connected ; Top            ; post-synthesis    ; FP_LVDS_RX[4]                                                                     ; N/A     ;
; FP_LVDS_RX[4]    ; pre-synthesis ; connected ; Top            ; post-synthesis    ; FP_LVDS_RX[4]                                                                     ; N/A     ;
; FP_LVDS_RX[5]    ; pre-synthesis ; connected ; Top            ; post-synthesis    ; FP_LVDS_RX[5]                                                                     ; N/A     ;
; FP_LVDS_RX[5]    ; pre-synthesis ; connected ; Top            ; post-synthesis    ; FP_LVDS_RX[5]                                                                     ; N/A     ;
; FP_LVDS_RX[6]    ; pre-synthesis ; connected ; Top            ; post-synthesis    ; FP_LVDS_RX[6]                                                                     ; N/A     ;
; FP_LVDS_RX[6]    ; pre-synthesis ; connected ; Top            ; post-synthesis    ; FP_LVDS_RX[6]                                                                     ; N/A     ;
; FP_LVDS_RX[7]    ; pre-synthesis ; connected ; Top            ; post-synthesis    ; FP_LVDS_RX[7]                                                                     ; N/A     ;
; FP_LVDS_RX[7]    ; pre-synthesis ; connected ; Top            ; post-synthesis    ; FP_LVDS_RX[7]                                                                     ; N/A     ;
; FP_LVDS_RX[8]    ; pre-synthesis ; connected ; Top            ; post-synthesis    ; FP_LVDS_RX[8]                                                                     ; N/A     ;
; FP_LVDS_RX[8]    ; pre-synthesis ; connected ; Top            ; post-synthesis    ; FP_LVDS_RX[8]                                                                     ; N/A     ;
; FP_LVDS_RX[9]    ; pre-synthesis ; connected ; Top            ; post-synthesis    ; FP_LVDS_RX[9]                                                                     ; N/A     ;
; FP_LVDS_RX[9]    ; pre-synthesis ; connected ; Top            ; post-synthesis    ; FP_LVDS_RX[9]                                                                     ; N/A     ;
; FP_NIMIN[0]      ; pre-synthesis ; connected ; Top            ; post-synthesis    ; FP_NIMIN[0]                                                                       ; N/A     ;
; FP_NIMIN[0]      ; pre-synthesis ; connected ; Top            ; post-synthesis    ; FP_NIMIN[0]                                                                       ; N/A     ;
; FP_NIMIN[10]     ; pre-synthesis ; connected ; Top            ; post-synthesis    ; FP_NIMIN[10]                                                                      ; N/A     ;
; FP_NIMIN[10]     ; pre-synthesis ; connected ; Top            ; post-synthesis    ; FP_NIMIN[10]                                                                      ; N/A     ;
; FP_NIMIN[11]     ; pre-synthesis ; connected ; Top            ; post-synthesis    ; FP_NIMIN[11]                                                                      ; N/A     ;
; FP_NIMIN[11]     ; pre-synthesis ; connected ; Top            ; post-synthesis    ; FP_NIMIN[11]                                                                      ; N/A     ;
; FP_NIMIN[12]     ; pre-synthesis ; connected ; Top            ; post-synthesis    ; FP_NIMIN[12]                                                                      ; N/A     ;
; FP_NIMIN[12]     ; pre-synthesis ; connected ; Top            ; post-synthesis    ; FP_NIMIN[12]                                                                      ; N/A     ;
; FP_NIMIN[13]     ; pre-synthesis ; connected ; Top            ; post-synthesis    ; FP_NIMIN[13]                                                                      ; N/A     ;
; FP_NIMIN[13]     ; pre-synthesis ; connected ; Top            ; post-synthesis    ; FP_NIMIN[13]                                                                      ; N/A     ;
; FP_NIMIN[14]     ; pre-synthesis ; connected ; Top            ; post-synthesis    ; FP_NIMIN[14]                                                                      ; N/A     ;
; FP_NIMIN[14]     ; pre-synthesis ; connected ; Top            ; post-synthesis    ; FP_NIMIN[14]                                                                      ; N/A     ;
; FP_NIMIN[15]     ; pre-synthesis ; connected ; Top            ; post-synthesis    ; FP_NIMIN[15]                                                                      ; N/A     ;
; FP_NIMIN[15]     ; pre-synthesis ; connected ; Top            ; post-synthesis    ; FP_NIMIN[15]                                                                      ; N/A     ;
; FP_NIMIN[1]      ; pre-synthesis ; connected ; Top            ; post-synthesis    ; FP_NIMIN[1]                                                                       ; N/A     ;
; FP_NIMIN[1]      ; pre-synthesis ; connected ; Top            ; post-synthesis    ; FP_NIMIN[1]                                                                       ; N/A     ;
; FP_NIMIN[2]      ; pre-synthesis ; connected ; Top            ; post-synthesis    ; FP_NIMIN[2]                                                                       ; N/A     ;
; FP_NIMIN[2]      ; pre-synthesis ; connected ; Top            ; post-synthesis    ; FP_NIMIN[2]                                                                       ; N/A     ;
; FP_NIMIN[3]      ; pre-synthesis ; connected ; Top            ; post-synthesis    ; FP_NIMIN[3]                                                                       ; N/A     ;
; FP_NIMIN[3]      ; pre-synthesis ; connected ; Top            ; post-synthesis    ; FP_NIMIN[3]                                                                       ; N/A     ;
; FP_NIMIN[4]      ; pre-synthesis ; connected ; Top            ; post-synthesis    ; FP_NIMIN[4]                                                                       ; N/A     ;
; FP_NIMIN[4]      ; pre-synthesis ; connected ; Top            ; post-synthesis    ; FP_NIMIN[4]                                                                       ; N/A     ;
; FP_NIMIN[5]      ; pre-synthesis ; connected ; Top            ; post-synthesis    ; FP_NIMIN[5]                                                                       ; N/A     ;
; FP_NIMIN[5]      ; pre-synthesis ; connected ; Top            ; post-synthesis    ; FP_NIMIN[5]                                                                       ; N/A     ;
; FP_NIMIN[6]      ; pre-synthesis ; connected ; Top            ; post-synthesis    ; FP_NIMIN[6]                                                                       ; N/A     ;
; FP_NIMIN[6]      ; pre-synthesis ; connected ; Top            ; post-synthesis    ; FP_NIMIN[6]                                                                       ; N/A     ;
; FP_NIMIN[7]      ; pre-synthesis ; connected ; Top            ; post-synthesis    ; FP_NIMIN[7]                                                                       ; N/A     ;
; FP_NIMIN[7]      ; pre-synthesis ; connected ; Top            ; post-synthesis    ; FP_NIMIN[7]                                                                       ; N/A     ;
; FP_NIMIN[8]      ; pre-synthesis ; connected ; Top            ; post-synthesis    ; FP_NIMIN[8]                                                                       ; N/A     ;
; FP_NIMIN[8]      ; pre-synthesis ; connected ; Top            ; post-synthesis    ; FP_NIMIN[8]                                                                       ; N/A     ;
; FP_NIMIN[9]      ; pre-synthesis ; connected ; Top            ; post-synthesis    ; FP_NIMIN[9]                                                                       ; N/A     ;
; FP_NIMIN[9]      ; pre-synthesis ; connected ; Top            ; post-synthesis    ; FP_NIMIN[9]                                                                       ; N/A     ;
; FP_NIMOUT[0]     ; pre-synthesis ; connected ; Top            ; post-synthesis    ; lpm_mux2:inst56|lpm_mux:lpm_mux_component|mux_6fc:auto_generated|result_node[0]~1 ; N/A     ;
; FP_NIMOUT[0]     ; pre-synthesis ; connected ; Top            ; post-synthesis    ; lpm_mux2:inst56|lpm_mux:lpm_mux_component|mux_6fc:auto_generated|result_node[0]~1 ; N/A     ;
; FP_NIMOUT[10]    ; pre-synthesis ; connected ; Top            ; post-synthesis    ; inst70[2]                                                                         ; N/A     ;
; FP_NIMOUT[10]    ; pre-synthesis ; connected ; Top            ; post-synthesis    ; inst70[2]                                                                         ; N/A     ;
; FP_NIMOUT[11]    ; pre-synthesis ; connected ; Top            ; post-synthesis    ; inst70[3]                                                                         ; N/A     ;
; FP_NIMOUT[11]    ; pre-synthesis ; connected ; Top            ; post-synthesis    ; inst70[3]                                                                         ; N/A     ;
; FP_NIMOUT[12]    ; pre-synthesis ; connected ; Top            ; post-synthesis    ; inst70[4]                                                                         ; N/A     ;
; FP_NIMOUT[12]    ; pre-synthesis ; connected ; Top            ; post-synthesis    ; inst70[4]                                                                         ; N/A     ;
; FP_NIMOUT[13]    ; pre-synthesis ; connected ; Top            ; post-synthesis    ; inst70[5]                                                                         ; N/A     ;
; FP_NIMOUT[13]    ; pre-synthesis ; connected ; Top            ; post-synthesis    ; inst70[5]                                                                         ; N/A     ;
; FP_NIMOUT[14]    ; pre-synthesis ; connected ; Top            ; post-synthesis    ; inst70[6]                                                                         ; N/A     ;
; FP_NIMOUT[14]    ; pre-synthesis ; connected ; Top            ; post-synthesis    ; inst70[6]                                                                         ; N/A     ;
; FP_NIMOUT[15]    ; pre-synthesis ; connected ; Top            ; post-synthesis    ; inst70[7]                                                                         ; N/A     ;
; FP_NIMOUT[15]    ; pre-synthesis ; connected ; Top            ; post-synthesis    ; inst70[7]                                                                         ; N/A     ;
; FP_NIMOUT[1]     ; pre-synthesis ; connected ; Top            ; post-synthesis    ; lpm_mux2:inst57|lpm_mux:lpm_mux_component|mux_6fc:auto_generated|result_node[0]~2 ; N/A     ;
; FP_NIMOUT[1]     ; pre-synthesis ; connected ; Top            ; post-synthesis    ; lpm_mux2:inst57|lpm_mux:lpm_mux_component|mux_6fc:auto_generated|result_node[0]~2 ; N/A     ;
; FP_NIMOUT[2]     ; pre-synthesis ; connected ; Top            ; post-synthesis    ; lpm_mux2:inst62|lpm_mux:lpm_mux_component|mux_6fc:auto_generated|result_node[0]~2 ; N/A     ;
; FP_NIMOUT[2]     ; pre-synthesis ; connected ; Top            ; post-synthesis    ; lpm_mux2:inst62|lpm_mux:lpm_mux_component|mux_6fc:auto_generated|result_node[0]~2 ; N/A     ;
; FP_NIMOUT[3]     ; pre-synthesis ; connected ; Top            ; post-synthesis    ; lpm_mux2:inst87|lpm_mux:lpm_mux_component|mux_6fc:auto_generated|result_node[0]~1 ; N/A     ;
; FP_NIMOUT[3]     ; pre-synthesis ; connected ; Top            ; post-synthesis    ; lpm_mux2:inst87|lpm_mux:lpm_mux_component|mux_6fc:auto_generated|result_node[0]~1 ; N/A     ;
; FP_NIMOUT[4]     ; pre-synthesis ; connected ; Top            ; post-synthesis    ; inst7[0]                                                                          ; N/A     ;
; FP_NIMOUT[4]     ; pre-synthesis ; connected ; Top            ; post-synthesis    ; inst7[0]                                                                          ; N/A     ;
; FP_NIMOUT[5]     ; pre-synthesis ; connected ; Top            ; post-synthesis    ; inst7[1]                                                                          ; N/A     ;
; FP_NIMOUT[5]     ; pre-synthesis ; connected ; Top            ; post-synthesis    ; inst7[1]                                                                          ; N/A     ;
; FP_NIMOUT[6]     ; pre-synthesis ; connected ; Top            ; post-synthesis    ; inst7[2]                                                                          ; N/A     ;
; FP_NIMOUT[6]     ; pre-synthesis ; connected ; Top            ; post-synthesis    ; inst7[2]                                                                          ; N/A     ;
; FP_NIMOUT[7]     ; pre-synthesis ; connected ; Top            ; post-synthesis    ; inst7[3]                                                                          ; N/A     ;
; FP_NIMOUT[7]     ; pre-synthesis ; connected ; Top            ; post-synthesis    ; inst7[3]                                                                          ; N/A     ;
; FP_NIMOUT[8]     ; pre-synthesis ; connected ; Top            ; post-synthesis    ; inst70[0]                                                                         ; N/A     ;
; FP_NIMOUT[8]     ; pre-synthesis ; connected ; Top            ; post-synthesis    ; inst70[0]                                                                         ; N/A     ;
; FP_NIMOUT[9]     ; pre-synthesis ; connected ; Top            ; post-synthesis    ; inst70[1]                                                                         ; N/A     ;
; FP_NIMOUT[9]     ; pre-synthesis ; connected ; Top            ; post-synthesis    ; inst70[1]                                                                         ; N/A     ;
; FP_VME_LEDn      ; pre-synthesis ; connected ; Top            ; post-synthesis    ; NVME:nvme|vmeled:inst31|inst52~_wirecell                                          ; N/A     ;
; FP_VME_LEDn      ; pre-synthesis ; connected ; Top            ; post-synthesis    ; NVME:nvme|vmeled:inst31|inst52~_wirecell                                          ; N/A     ;
; Module_Addressed ; pre-synthesis ; connected ; Top            ; post-synthesis    ; NVME:nvme|inst12                                                                  ; N/A     ;
; Module_Addressed ; pre-synthesis ; connected ; Top            ; post-synthesis    ; NVME:nvme|inst12                                                                  ; N/A     ;
; Read_done        ; pre-synthesis ; connected ; Top            ; post-synthesis    ; NVME:nvme|inst45~0                                                                ; N/A     ;
; Read_done        ; pre-synthesis ; connected ; Top            ; post-synthesis    ; NVME:nvme|inst45~0                                                                ; N/A     ;
; VME-245-OEn      ; pre-synthesis ; connected ; Top            ; post-synthesis    ; inst11~_wirecell                                                                  ; N/A     ;
; VME-245-OEn      ; pre-synthesis ; connected ; Top            ; post-synthesis    ; inst11~_wirecell                                                                  ; N/A     ;
; VME-AM[0]        ; pre-synthesis ; connected ; Top            ; post-synthesis    ; VME-AM[0]                                                                         ; N/A     ;
; VME-AM[1]        ; pre-synthesis ; connected ; Top            ; post-synthesis    ; VME-AM[1]                                                                         ; N/A     ;
; VME-AM[2]        ; pre-synthesis ; connected ; Top            ; post-synthesis    ; VME-AM[2]                                                                         ; N/A     ;
; VME-AM[3]        ; pre-synthesis ; connected ; Top            ; post-synthesis    ; VME-AM[3]                                                                         ; N/A     ;
; VME-AM[4]        ; pre-synthesis ; connected ; Top            ; post-synthesis    ; VME-AM[4]                                                                         ; N/A     ;
; VME-AM[5]        ; pre-synthesis ; connected ; Top            ; post-synthesis    ; VME-AM[5]                                                                         ; N/A     ;
; VME-ASn          ; pre-synthesis ; connected ; Top            ; post-synthesis    ; VME-ASn                                                                           ; N/A     ;
; VME-ASn          ; pre-synthesis ; connected ; Top            ; post-synthesis    ; VME-ASn                                                                           ; N/A     ;
; VME-A[10]        ; pre-synthesis ; connected ; Top            ; post-synthesis    ; VME-A[10]                                                                         ; N/A     ;
; VME-A[11]        ; pre-synthesis ; connected ; Top            ; post-synthesis    ; VME-A[11]                                                                         ; N/A     ;
; VME-A[12]        ; pre-synthesis ; connected ; Top            ; post-synthesis    ; VME-A[12]                                                                         ; N/A     ;
; VME-A[13]        ; pre-synthesis ; connected ; Top            ; post-synthesis    ; VME-A[13]                                                                         ; N/A     ;
; VME-A[14]        ; pre-synthesis ; connected ; Top            ; post-synthesis    ; VME-A[14]                                                                         ; N/A     ;
; VME-A[15]        ; pre-synthesis ; connected ; Top            ; post-synthesis    ; VME-A[15]                                                                         ; N/A     ;
; VME-A[16]        ; pre-synthesis ; connected ; Top            ; post-synthesis    ; VME-A[16]                                                                         ; N/A     ;
; VME-A[17]        ; pre-synthesis ; connected ; Top            ; post-synthesis    ; VME-A[17]                                                                         ; N/A     ;
; VME-A[18]        ; pre-synthesis ; connected ; Top            ; post-synthesis    ; VME-A[18]                                                                         ; N/A     ;
; VME-A[19]        ; pre-synthesis ; connected ; Top            ; post-synthesis    ; VME-A[19]                                                                         ; N/A     ;
; VME-A[1]         ; pre-synthesis ; connected ; Top            ; post-synthesis    ; VME-A[1]                                                                          ; N/A     ;
; VME-A[20]        ; pre-synthesis ; connected ; Top            ; post-synthesis    ; VME-A[20]                                                                         ; N/A     ;
; VME-A[21]        ; pre-synthesis ; connected ; Top            ; post-synthesis    ; VME-A[21]                                                                         ; N/A     ;
; VME-A[22]        ; pre-synthesis ; connected ; Top            ; post-synthesis    ; VME-A[22]                                                                         ; N/A     ;
; VME-A[23]        ; pre-synthesis ; connected ; Top            ; post-synthesis    ; VME-A[23]                                                                         ; N/A     ;
; VME-A[2]         ; pre-synthesis ; connected ; Top            ; post-synthesis    ; VME-A[2]                                                                          ; N/A     ;
; VME-A[3]         ; pre-synthesis ; connected ; Top            ; post-synthesis    ; VME-A[3]                                                                          ; N/A     ;
; VME-A[4]         ; pre-synthesis ; connected ; Top            ; post-synthesis    ; VME-A[4]                                                                          ; N/A     ;
; VME-A[5]         ; pre-synthesis ; connected ; Top            ; post-synthesis    ; VME-A[5]                                                                          ; N/A     ;
; VME-A[6]         ; pre-synthesis ; connected ; Top            ; post-synthesis    ; VME-A[6]                                                                          ; N/A     ;
; VME-A[7]         ; pre-synthesis ; connected ; Top            ; post-synthesis    ; VME-A[7]                                                                          ; N/A     ;
; VME-A[8]         ; pre-synthesis ; connected ; Top            ; post-synthesis    ; VME-A[8]                                                                          ; N/A     ;
; VME-A[9]         ; pre-synthesis ; connected ; Top            ; post-synthesis    ; VME-A[9]                                                                          ; N/A     ;
; VME-DS0n         ; pre-synthesis ; connected ; Top            ; post-synthesis    ; VME-DS0n                                                                          ; N/A     ;
; VME-DS0n         ; pre-synthesis ; connected ; Top            ; post-synthesis    ; VME-DS0n                                                                          ; N/A     ;
; VME-DS1n         ; pre-synthesis ; connected ; Top            ; post-synthesis    ; VME-DS1n                                                                          ; N/A     ;
; VME-DS1n         ; pre-synthesis ; connected ; Top            ; post-synthesis    ; VME-DS1n                                                                          ; N/A     ;
; VME-DTACK        ; pre-synthesis ; connected ; Top            ; post-synthesis    ; NVME:nvme|inst37                                                                  ; N/A     ;
; VME-DTACK        ; pre-synthesis ; connected ; Top            ; post-synthesis    ; NVME:nvme|inst37                                                                  ; N/A     ;
; VME-D[0]         ; pre-synthesis ; connected ; Top            ; post-synthesis    ; VME-D~31                                                                          ; N/A     ;
; VME-D[10]        ; pre-synthesis ; connected ; Top            ; post-synthesis    ; VME-D~21                                                                          ; N/A     ;
; VME-D[11]        ; pre-synthesis ; connected ; Top            ; post-synthesis    ; VME-D~20                                                                          ; N/A     ;
; VME-D[12]        ; pre-synthesis ; connected ; Top            ; post-synthesis    ; VME-D~19                                                                          ; N/A     ;
; VME-D[13]        ; pre-synthesis ; connected ; Top            ; post-synthesis    ; VME-D~18                                                                          ; N/A     ;
; VME-D[14]        ; pre-synthesis ; connected ; Top            ; post-synthesis    ; VME-D~17                                                                          ; N/A     ;
; VME-D[15]        ; pre-synthesis ; connected ; Top            ; post-synthesis    ; VME-D~16                                                                          ; N/A     ;
; VME-D[16]        ; pre-synthesis ; connected ; Top            ; post-synthesis    ; VME-D~15                                                                          ; N/A     ;
; VME-D[17]        ; pre-synthesis ; connected ; Top            ; post-synthesis    ; VME-D~14                                                                          ; N/A     ;
; VME-D[18]        ; pre-synthesis ; connected ; Top            ; post-synthesis    ; VME-D~13                                                                          ; N/A     ;
; VME-D[19]        ; pre-synthesis ; connected ; Top            ; post-synthesis    ; VME-D~12                                                                          ; N/A     ;
; VME-D[1]         ; pre-synthesis ; connected ; Top            ; post-synthesis    ; VME-D~30                                                                          ; N/A     ;
; VME-D[20]        ; pre-synthesis ; connected ; Top            ; post-synthesis    ; VME-D~11                                                                          ; N/A     ;
; VME-D[21]        ; pre-synthesis ; connected ; Top            ; post-synthesis    ; VME-D~10                                                                          ; N/A     ;
; VME-D[22]        ; pre-synthesis ; connected ; Top            ; post-synthesis    ; VME-D~9                                                                           ; N/A     ;
; VME-D[23]        ; pre-synthesis ; connected ; Top            ; post-synthesis    ; VME-D~8                                                                           ; N/A     ;
; VME-D[24]        ; pre-synthesis ; connected ; Top            ; post-synthesis    ; VME-D~7                                                                           ; N/A     ;
; VME-D[25]        ; pre-synthesis ; connected ; Top            ; post-synthesis    ; VME-D~6                                                                           ; N/A     ;
; VME-D[26]        ; pre-synthesis ; connected ; Top            ; post-synthesis    ; VME-D~5                                                                           ; N/A     ;
; VME-D[27]        ; pre-synthesis ; connected ; Top            ; post-synthesis    ; VME-D~4                                                                           ; N/A     ;
; VME-D[28]        ; pre-synthesis ; connected ; Top            ; post-synthesis    ; VME-D~3                                                                           ; N/A     ;
; VME-D[29]        ; pre-synthesis ; connected ; Top            ; post-synthesis    ; VME-D~2                                                                           ; N/A     ;
; VME-D[2]         ; pre-synthesis ; connected ; Top            ; post-synthesis    ; VME-D~29                                                                          ; N/A     ;
; VME-D[30]        ; pre-synthesis ; connected ; Top            ; post-synthesis    ; VME-D~1                                                                           ; N/A     ;
; VME-D[31]        ; pre-synthesis ; connected ; Top            ; post-synthesis    ; VME-D~0                                                                           ; N/A     ;
; VME-D[3]         ; pre-synthesis ; connected ; Top            ; post-synthesis    ; VME-D~28                                                                          ; N/A     ;
; VME-D[4]         ; pre-synthesis ; connected ; Top            ; post-synthesis    ; VME-D~27                                                                          ; N/A     ;
; VME-D[5]         ; pre-synthesis ; connected ; Top            ; post-synthesis    ; VME-D~26                                                                          ; N/A     ;
; VME-D[6]         ; pre-synthesis ; connected ; Top            ; post-synthesis    ; VME-D~25                                                                          ; N/A     ;
; VME-D[7]         ; pre-synthesis ; connected ; Top            ; post-synthesis    ; VME-D~24                                                                          ; N/A     ;
; VME-D[8]         ; pre-synthesis ; connected ; Top            ; post-synthesis    ; VME-D~23                                                                          ; N/A     ;
; VME-D[9]         ; pre-synthesis ; connected ; Top            ; post-synthesis    ; VME-D~22                                                                          ; N/A     ;
; VME-LWORDn       ; pre-synthesis ; connected ; Top            ; post-synthesis    ; VME-LWORDn                                                                        ; N/A     ;
; VME-MOD-SELn     ; pre-synthesis ; connected ; Top            ; post-synthesis    ; VME-MOD-SELn                                                                      ; N/A     ;
; VME-MOD-SELn     ; pre-synthesis ; connected ; Top            ; post-synthesis    ; VME-MOD-SELn                                                                      ; N/A     ;
; VME-WRn          ; pre-synthesis ; connected ; Top            ; post-synthesis    ; VME-WRn                                                                           ; N/A     ;
; VME-WRn          ; pre-synthesis ; connected ; Top            ; post-synthesis    ; VME-WRn                                                                           ; N/A     ;
; Write_strobe     ; pre-synthesis ; connected ; Top            ; post-synthesis    ; NVME:nvme|vme:vme|inst67                                                          ; N/A     ;
; Write_strobe     ; pre-synthesis ; connected ; Top            ; post-synthesis    ; NVME:nvme|vme:vme|inst67                                                          ; N/A     ;
; clock_100MHz     ; pre-synthesis ; connected ; Top            ; post-synthesis    ; altpll0:pll0|altpll:altpll_component|_clk0                                        ; N/A     ;
; vme_data_oe      ; pre-synthesis ; connected ; Top            ; post-synthesis    ; NVME:nvme|inst35~1                                                                ; N/A     ;
; vme_data_oe      ; pre-synthesis ; connected ; Top            ; post-synthesis    ; NVME:nvme|inst35~1                                                                ; N/A     ;
+------------------+---------------+-----------+----------------+-------------------+-----------------------------------------------------------------------------------+---------+


+------------------------------------------------------------------------------------------------------------------------------------------+
; Partition Merge Partition Statistics                                                                                                     ;
+---------------------------------------------+-------+------------------+--------------------------------+--------------------------------+
; Statistic                                   ; Top   ; sld_hub:auto_hub ; sld_signaltap:auto_signaltap_0 ; hard_block:auto_generated_inst ;
+---------------------------------------------+-------+------------------+--------------------------------+--------------------------------+
; Total logic elements                        ; 4894  ; 196              ; 1661                           ; 0                              ;
;     -- Combinational with no register       ; 2049  ; 84               ; 182                            ; 0                              ;
;     -- Register only                        ; 1481  ; 21               ; 1153                           ; 0                              ;
;     -- Combinational with a register        ; 1364  ; 91               ; 326                            ; 0                              ;
;                                             ;       ;                  ;                                ;                                ;
; Logic element usage by number of LUT inputs ;       ;                  ;                                ;                                ;
;     -- 4 input functions                    ; 0     ; 0                ; 0                              ; 0                              ;
;     -- 3 input functions                    ; 0     ; 0                ; 0                              ; 0                              ;
;     -- 2 input functions                    ; 0     ; 0                ; 0                              ; 0                              ;
;     -- 1 input functions                    ; 0     ; 0                ; 0                              ; 0                              ;
;     -- 0 input functions                    ; 0     ; 0                ; 0                              ; 0                              ;
;                                             ;       ;                  ;                                ;                                ;
; Logic elements by mode                      ;       ;                  ;                                ;                                ;
;     -- normal mode                          ; 0     ; 0                ; 0                              ; 0                              ;
;     -- arithmetic mode                      ; 0     ; 0                ; 0                              ; 0                              ;
;     -- qfbk mode                            ; 0     ; 0                ; 0                              ; 0                              ;
;     -- register cascade mode                ; 0     ; 0                ; 0                              ; 0                              ;
;     -- synchronous clear/load mode          ; 0     ; 0                ; 0                              ; 0                              ;
;     -- asynchronous clear/load mode         ; 0     ; 0                ; 0                              ; 0                              ;
;                                             ;       ;                  ;                                ;                                ;
; Total registers                             ; 2845  ; 112              ; 1479                           ; 0                              ;
; Virtual pins                                ; 0     ; 0                ; 0                              ; 0                              ;
; I/O pins                                    ; 177   ; 0                ; 6                              ; 0                              ;
; DSP block 9-bit elements                    ; 0     ; 0                ; 0                              ; 0                              ;
; Total memory bits                           ; 20480 ; 0                ; 8832                           ; 0                              ;
; Total RAM block bits                        ; 0     ; 0                ; 0                              ; 0                              ;
; JTAG                                        ; 1     ; 0                ; 0                              ; 0                              ;
; PLL                                         ; 0     ; 0                ; 0                              ; 2                              ;
; ASMI Block                                  ; 1     ; 0                ; 0                              ; 0                              ;
;                                             ;       ;                  ;                                ;                                ;
; Connections                                 ;       ;                  ;                                ;                                ;
;     -- Input Connections                    ; 2337  ; 163              ; 2188                           ; 2                              ;
;     -- Registered Input Connections         ; 2184  ; 148              ; 1727                           ; 0                              ;
;     -- Output Connections                   ; 1068  ; 251              ; 1                              ; 3370                           ;
;     -- Registered Output Connections        ; 36    ; 251              ; 0                              ; 0                              ;
;                                             ;       ;                  ;                                ;                                ;
; Internal Connections                        ;       ;                  ;                                ;                                ;
;     -- Total Connections                    ; 21211 ; 1096             ; 7668                           ; 3372                           ;
;     -- Registered Connections               ; 11967 ; 869              ; 6211                           ; 0                              ;
;                                             ;       ;                  ;                                ;                                ;
; External Connections                        ;       ;                  ;                                ;                                ;
;     -- Top                                  ; 180   ; 176              ; 822                            ; 2227                           ;
;     -- sld_hub:auto_hub                     ; 176   ; 16               ; 222                            ; 0                              ;
;     -- sld_signaltap:auto_signaltap_0       ; 822   ; 222              ; 0                              ; 1145                           ;
;     -- hard_block:auto_generated_inst       ; 2227  ; 0                ; 1145                           ; 0                              ;
;                                             ;       ;                  ;                                ;                                ;
; Partition Interface                         ;       ;                  ;                                ;                                ;
;     -- Input Ports                          ; 91    ; 29               ; 271                            ; 2                              ;
;     -- Output Ports                         ; 81    ; 46               ; 224                            ; 3                              ;
;     -- Bidir Ports                          ; 50    ; 0                ; 0                              ; 0                              ;
;                                             ;       ;                  ;                                ;                                ;
; Registered Ports                            ;       ;                  ;                                ;                                ;
;     -- Registered Input Ports               ; 0     ; 17               ; 217                            ; 0                              ;
;     -- Registered Output Ports              ; 0     ; 36               ; 215                            ; 0                              ;
;                                             ;       ;                  ;                                ;                                ;
; Port Connectivity                           ;       ;                  ;                                ;                                ;
;     -- Input Ports driven by GND            ; 0     ; 8                ; 0                              ; 0                              ;
;     -- Output Ports driven by GND           ; 0     ; 1                ; 0                              ; 0                              ;
;     -- Input Ports driven by VCC            ; 0     ; 1                ; 0                              ; 0                              ;
;     -- Output Ports driven by VCC           ; 0     ; 0                ; 0                              ; 0                              ;
;     -- Input Ports with no Source           ; 0     ; 1                ; 35                             ; 0                              ;
;     -- Output Ports with no Source          ; 0     ; 0                ; 0                              ; 0                              ;
;     -- Input Ports with no Fanout           ; 0     ; 2                ; 40                             ; 0                              ;
;     -- Output Ports with no Fanout          ; 0     ; 19               ; 215                            ; 0                              ;
+---------------------------------------------+-------+------------------+--------------------------------+--------------------------------+
Note: Resource usage numbers presented for Partitions containing post-synthesis logic are estimates.  For Partitions containing post-fit logic, resource usage numbers are accurate based on previous placement information.  Actual Fitter results may vary depending on current Fitter Preservation Level assignments.


+-----------------------------------------------------+
; Partition Merge Resource Usage Summary              ;
+---------------------------------------------+-------+
; Resource                                    ; Usage ;
+---------------------------------------------+-------+
; Total logic elements                        ; 6751  ;
;     -- Combinational with no register       ; 2315  ;
;     -- Register only                        ; 2655  ;
;     -- Combinational with a register        ; 1781  ;
;                                             ;       ;
; Logic element usage by number of LUT inputs ;       ;
;     -- 4 input functions                    ; 1845  ;
;     -- 3 input functions                    ; 1041  ;
;     -- 2 input functions                    ; 1015  ;
;     -- 1 input functions                    ; 160   ;
;     -- 0 input functions                    ; 35    ;
;                                             ;       ;
; Logic elements by mode                      ;       ;
;     -- normal mode                          ; 5733  ;
;     -- arithmetic mode                      ; 1018  ;
;     -- qfbk mode                            ; 0     ;
;     -- register cascade mode                ; 0     ;
;     -- synchronous clear/load mode          ; 335   ;
;     -- asynchronous clear/load mode         ; 2299  ;
;                                             ;       ;
; Total registers                             ; 4436  ;
; Total logic cells in carry chains           ; 1096  ;
; I/O pins                                    ; 183   ;
; Total memory bits                           ; 29312 ;
; Total PLLs                                  ; 2     ;
;     -- PLLs                                 ; 2     ;
;                                             ;       ;
; Maximum fan-out                             ; 3305  ;
; Total fan-out                               ; 28455 ;
; Average fan-out                             ; 3.98  ;
+---------------------------------------------+-------+


+------------------------------------------------------------------------------------------------------------------------------------------------------------------------------------------------------------------------------------------------------------------------------------------------------------+
; Partition Merge RAM Summary                                                                                                                                                                                                                                                                                ;
+-------------------------------------------------------------------------------------------------------------------------------------------------------------------------------------------------------+------+------------------+--------------+--------------+--------------+--------------+-------+------+
; Name                                                                                                                                                                                                  ; Type ; Mode             ; Port A Depth ; Port A Width ; Port B Depth ; Port B Width ; Size  ; MIF  ;
+-------------------------------------------------------------------------------------------------------------------------------------------------------------------------------------------------------+------+------------------+--------------+--------------+--------------+--------------+-------+------+
; ScalerABF:Scalers|lpm_fifo:fifoA|scfifo:myFIFO|scfifo_v601:auto_generated|a_dpfifo_s2t:dpfifo|altsyncram_j581:FIFOram|ALTSYNCRAM                                                                      ; AUTO ; Simple Dual Port ; 128          ; 28           ; 128          ; 28           ; 3584  ; None ;
; ScalerABF:Scalers|lpm_fifo:fifoB|scfifo:myFIFO|scfifo_9501:auto_generated|a_dpfifo_61t:dpfifo|altsyncram_7281:FIFOram|ALTSYNCRAM                                                                      ; AUTO ; Simple Dual Port ; 128          ; 4            ; 128          ; 4            ; 512   ; None ;
; scfifo3:tsc4_fifo|scfifo:scfifo_component|scfifo_ia31:auto_generated|a_dpfifo_pg31:dpfifo|altsyncram_7581:FIFOram|ALTSYNCRAM                                                                          ; AUTO ; Simple Dual Port ; 512          ; 32           ; 512          ; 32           ; 16384 ; None ;
; sld_signaltap:auto_signaltap_0|sld_signaltap_impl:sld_signaltap_body|sld_signaltap_implb:sld_signaltap_body|altsyncram:\stp_non_zero_ram_gen:stp_buffer_ram|altsyncram_il14:auto_generated|ALTSYNCRAM ; AUTO ; Simple Dual Port ; 64           ; 138          ; 64           ; 138          ; 8832  ; None ;
+-------------------------------------------------------------------------------------------------------------------------------------------------------------------------------------------------------+------+------------------+--------------+--------------+--------------+--------------+-------+------+


+--------------------------+
; Partition Merge Messages ;
+--------------------------+
Info: *******************************************************************
Info: Running Quartus II 64-Bit Partition Merge
    Info: Version 12.1 Build 243 01/31/2013 Service Pack 1 SJ Full Version
    Info: Processing started: Mon Sep 17 17:47:15 2018
Info: Command: quartus_cdb --read_settings_files=off --write_settings_files=off VME-NIMIO32 -c VME-NIMIO32 --merge=on
Warning (35010): Previously generated Fitter netlist for partition "Top" is older than current Synthesis netlist -- using the current Synthesis netlist instead to ensure that the latest source changes are included
    Info (35011): Set the option to Ignore source file changes to force the Quartus II software to always use a previously generated Fitter netlist
Info (35007): Using synthesis netlist for partition "Top"
Info (35007): Using synthesis netlist for partition "sld_hub:auto_hub"
Info (35007): Using synthesis netlist for partition "sld_signaltap:auto_signaltap_0"
Info (35024): Succesfully connected in-system debug instance "auto_signaltap_0" to all 215 required data inputs, trigger inputs, acquisition clocks, and dynamic pins
Info (35002): Resolved and merged 3 partition(s)
Info (16010): Generating hard_block partition "hard_block:auto_generated_inst"
    Info (16011): Adding 2 node(s), including 0 DDIO, 2 PLL, 0 transceiver and 0 LCELL
Warning (21074): Design contains 2 input pin(s) that do not drive logic
    Warning (15610): No output dependent on input pin "VME-IACKn"
    Warning (15610): No output dependent on input pin "VME-IACKINn"
Info (21057): Implemented 7144 device resources after synthesis - the final resource count might be different
    Info (21058): Implemented 82 input pins
    Info (21059): Implemented 55 output pins
    Info (21060): Implemented 50 bidirectional pins
    Info (21061): Implemented 6751 logic cells
    Info (21064): Implemented 202 RAM segments
    Info (21065): Implemented 2 PLLs
Info: Quartus II 64-Bit Partition Merge was successful. 0 errors, 4 warnings
    Info: Peak virtual memory: 808 megabytes
    Info: Processing ended: Mon Sep 17 17:47:17 2018
    Info: Elapsed time: 00:00:02
    Info: Total CPU time (on all processors): 00:00:02


