/*
WARNING: Do NOT edit the input and output ports in this file in a text
editor if you plan to continue editing the block that represents it in
the Block Editor! File corruption is VERY likely to occur.
*/
/*
Copyright (C) 1991-2010 Altera Corporation
Your use of Altera Corporation's design tools, logic functions 
and other software and tools, and its AMPP partner logic 
functions, and any output files from any of the foregoing 
(including device programming or simulation files), and any 
associated documentation or information are expressly subject 
to the terms and conditions of the Altera Program License 
Subscription Agreement, Altera MegaCore Function License 
Agreement, or other applicable license agreement, including, 
without limitation, that your use is for the sole purpose of 
programming logic devices manufactured by Altera and sold by 
Altera or its authorized distributors.  Please refer to the 
applicable agreement for further details.
*/
//#pragma file_not_in_maxplusii_format
(header "graphic" (version "1.3"))
(pin
	(input)
	(rect 16 8 184 24)
	(text "INPUT" (rect 133 0 161 11)(font "Arial" (font_size 6)))
	(text "sysclock" (rect 5 0 41 11)(font "Arial" ))
	(pt 168 8)
	(drawing
		(line (pt 92 12)(pt 117 12)(line_width 1))
		(line (pt 92 4)(pt 117 4)(line_width 1))
		(line (pt 121 8)(pt 168 8)(line_width 1))
		(line (pt 92 12)(pt 92 4)(line_width 1))
		(line (pt 117 4)(pt 121 8)(line_width 1))
		(line (pt 117 12)(pt 121 8)(line_width 1))
	)
	(text "VCC" (rect 136 7 157 18)(font "Arial" (font_size 6)))
)
(pin
	(input)
	(rect 16 32 184 48)
	(text "INPUT" (rect 133 0 161 11)(font "Arial" (font_size 6)))
	(text "tdc_clock" (rect 5 0 47 11)(font "Arial" ))
	(pt 168 8)
	(drawing
		(line (pt 92 12)(pt 117 12)(line_width 1))
		(line (pt 92 4)(pt 117 4)(line_width 1))
		(line (pt 121 8)(pt 168 8)(line_width 1))
		(line (pt 92 12)(pt 92 4)(line_width 1))
		(line (pt 117 4)(pt 121 8)(line_width 1))
		(line (pt 117 12)(pt 121 8)(line_width 1))
	)
	(text "VCC" (rect 136 7 157 18)(font "Arial" (font_size 6)))
)
(pin
	(input)
	(rect 16 72 184 88)
	(text "INPUT" (rect 133 0 161 11)(font "Arial" (font_size 6)))
	(text "input[3..0]" (rect 5 0 48 11)(font "Arial" ))
	(pt 168 8)
	(drawing
		(line (pt 92 12)(pt 117 12)(line_width 1))
		(line (pt 92 4)(pt 117 4)(line_width 1))
		(line (pt 121 8)(pt 168 8)(line_width 1))
		(line (pt 92 12)(pt 92 4)(line_width 1))
		(line (pt 117 4)(pt 121 8)(line_width 1))
		(line (pt 117 12)(pt 121 8)(line_width 1))
	)
	(text "VCC" (rect 136 7 157 18)(font "Arial" (font_size 6)))
)
(pin
	(input)
	(rect 16 136 184 152)
	(text "INPUT" (rect 133 0 161 11)(font "Arial" (font_size 6)))
	(text "reset" (rect 5 0 26 11)(font "Arial" ))
	(pt 168 8)
	(drawing
		(line (pt 92 12)(pt 117 12)(line_width 1))
		(line (pt 92 4)(pt 117 4)(line_width 1))
		(line (pt 121 8)(pt 168 8)(line_width 1))
		(line (pt 92 12)(pt 92 4)(line_width 1))
		(line (pt 117 4)(pt 121 8)(line_width 1))
		(line (pt 117 12)(pt 121 8)(line_width 1))
	)
	(text "VCC" (rect 136 7 157 18)(font "Arial" (font_size 6)))
)
(pin
	(input)
	(rect 16 104 184 120)
	(text "INPUT" (rect 133 0 161 11)(font "Arial" (font_size 6)))
	(text "read_done" (rect 5 0 52 11)(font "Arial" ))
	(pt 168 8)
	(drawing
		(line (pt 92 12)(pt 117 12)(line_width 1))
		(line (pt 92 4)(pt 117 4)(line_width 1))
		(line (pt 121 8)(pt 168 8)(line_width 1))
		(line (pt 92 12)(pt 92 4)(line_width 1))
		(line (pt 117 4)(pt 121 8)(line_width 1))
		(line (pt 117 12)(pt 121 8)(line_width 1))
	)
	(text "VCC" (rect 136 7 157 18)(font "Arial" (font_size 6)))
)
(pin
	(output)
	(rect 16 256 192 272)
	(text "OUTPUT" (rect 1 0 38 11)(font "Arial" (font_size 6)))
	(text "data_out[31..0]" (rect 90 0 156 11)(font "Arial" ))
	(pt 0 8)
	(drawing
		(line (pt 0 8)(pt 52 8)(line_width 1))
		(line (pt 52 4)(pt 78 4)(line_width 1))
		(line (pt 52 12)(pt 78 12)(line_width 1))
		(line (pt 52 12)(pt 52 4)(line_width 1))
		(line (pt 78 4)(pt 82 8)(line_width 1))
		(line (pt 82 8)(pt 78 12)(line_width 1))
		(line (pt 78 12)(pt 82 8)(line_width 1))
	)
)
(pin
	(output)
	(rect 16 280 192 296)
	(text "OUTPUT" (rect 1 0 38 11)(font "Arial" (font_size 6)))
	(text "empty" (rect 90 0 115 11)(font "Arial" ))
	(pt 0 8)
	(drawing
		(line (pt 0 8)(pt 52 8)(line_width 1))
		(line (pt 52 4)(pt 78 4)(line_width 1))
		(line (pt 52 12)(pt 78 12)(line_width 1))
		(line (pt 52 12)(pt 52 4)(line_width 1))
		(line (pt 78 4)(pt 82 8)(line_width 1))
		(line (pt 82 8)(pt 78 12)(line_width 1))
		(line (pt 78 12)(pt 82 8)(line_width 1))
	)
)
(symbol
	(rect 904 392 968 472)
	(text "DFF" (rect 1 0 19 11)(font "Arial" (font_size 6)))
	(text "inst123" (rect 3 68 37 79)(font "Arial" ))
	(port
		(pt 32 80)
		(input)
		(text "CLRN" (rect 21 59 44 68)(font "Courier New" (bold)))
		(text "CLRN" (rect 21 58 44 67)(font "Courier New" (bold)))
		(line (pt 32 80)(pt 32 76)(line_width 1))
	)
	(port
		(pt 0 40)
		(input)
		(text "CLK" (rect 3 29 20 38)(font "Courier New" (bold))(invisible))
		(text "CLK" (rect 3 29 20 38)(font "Courier New" (bold))(invisible))
		(line (pt 0 40)(pt 12 40)(line_width 1))
	)
	(port
		(pt 0 24)
		(input)
		(text "D" (rect 14 20 19 29)(font "Courier New" (bold)))
		(text "D" (rect 14 20 19 29)(font "Courier New" (bold)))
		(line (pt 0 24)(pt 12 24)(line_width 1))
	)
	(port
		(pt 32 0)
		(input)
		(text "PRN" (rect 24 13 41 22)(font "Courier New" (bold)))
		(text "PRN" (rect 24 11 41 20)(font "Courier New" (bold)))
		(line (pt 32 4)(pt 32 0)(line_width 1))
	)
	(port
		(pt 64 24)
		(output)
		(text "Q" (rect 45 20 50 29)(font "Courier New" (bold)))
		(text "Q" (rect 45 20 50 29)(font "Courier New" (bold)))
		(line (pt 52 24)(pt 64 24)(line_width 1))
	)
	(drawing
		(line (pt 12 12)(pt 52 12)(line_width 1))
		(line (pt 12 68)(pt 52 68)(line_width 1))
		(line (pt 52 68)(pt 52 12)(line_width 1))
		(line (pt 12 68)(pt 12 12)(line_width 1))
		(line (pt 19 40)(pt 12 47)(line_width 1))
		(line (pt 12 32)(pt 20 40)(line_width 1))
		(circle (rect 28 4 36 12)(line_width 1))
		(circle (rect 28 68 36 76)(line_width 1))
	)
)
(symbol
	(rect 3400 528 3464 608)
	(text "SRFF" (rect 1 0 26 11)(font "Arial" (font_size 6)))
	(text "inst8" (rect 3 68 25 79)(font "Arial" ))
	(port
		(pt 32 0)
		(input)
		(text "PRN" (rect 24 13 41 22)(font "Courier New" (bold)))
		(text "PRN" (rect 24 11 41 20)(font "Courier New" (bold)))
		(line (pt 32 4)(pt 32 0)(line_width 1))
	)
	(port
		(pt 32 80)
		(input)
		(text "CLRN" (rect 21 59 44 68)(font "Courier New" (bold)))
		(text "CLRN" (rect 21 58 44 67)(font "Courier New" (bold)))
		(line (pt 32 80)(pt 32 76)(line_width 1))
	)
	(port
		(pt 0 24)
		(input)
		(text "S" (rect 14 20 19 29)(font "Courier New" (bold)))
		(text "S" (rect 14 20 19 29)(font "Courier New" (bold)))
		(line (pt 0 24)(pt 12 24)(line_width 1))
	)
	(port
		(pt 0 56)
		(input)
		(text "R" (rect 14 51 19 60)(font "Courier New" (bold)))
		(text "R" (rect 14 51 19 60)(font "Courier New" (bold)))
		(line (pt 0 56)(pt 12 56)(line_width 1))
	)
	(port
		(pt 0 40)
		(input)
		(text "CLK" (rect 2 29 19 38)(font "Courier New" (bold))(invisible))
		(text "CLK" (rect 2 29 19 38)(font "Courier New" (bold))(invisible))
		(line (pt 0 40)(pt 12 40)(line_width 1))
	)
	(port
		(pt 64 24)
		(output)
		(text "Q" (rect 45 20 50 29)(font "Courier New" (bold)))
		(text "Q" (rect 45 20 50 29)(font "Courier New" (bold)))
		(line (pt 52 24)(pt 64 24)(line_width 1))
	)
	(drawing
		(line (pt 12 68)(pt 52 68)(line_width 1))
		(line (pt 12 12)(pt 52 12)(line_width 1))
		(line (pt 52 68)(pt 52 12)(line_width 1))
		(line (pt 12 68)(pt 12 12)(line_width 1))
		(line (pt 19 40)(pt 12 47)(line_width 1))
		(line (pt 12 33)(pt 19 40)(line_width 1))
		(circle (rect 28 4 36 12)(line_width 1))
		(circle (rect 28 68 36 76)(line_width 1))
	)
)
(symbol
	(rect 3208 384 3272 464)
	(text "DFFE" (rect 1 0 26 11)(font "Arial" (font_size 6)))
	(text "inst10" (rect 3 68 31 79)(font "Arial" ))
	(port
		(pt 32 0)
		(input)
		(text "PRN" (rect 24 13 41 22)(font "Courier New" (bold)))
		(text "PRN" (rect 24 11 41 20)(font "Courier New" (bold)))
		(line (pt 32 4)(pt 32 0)(line_width 1))
	)
	(port
		(pt 32 80)
		(input)
		(text "CLRN" (rect 21 59 44 68)(font "Courier New" (bold)))
		(text "CLRN" (rect 21 58 44 67)(font "Courier New" (bold)))
		(line (pt 32 80)(pt 32 76)(line_width 1))
	)
	(port
		(pt 0 24)
		(input)
		(text "D" (rect 14 20 19 29)(font "Courier New" (bold)))
		(text "D" (rect 14 20 19 29)(font "Courier New" (bold)))
		(line (pt 0 24)(pt 12 24)(line_width 1))
	)
	(port
		(pt 0 40)
		(input)
		(text "CLK" (rect 2 28 19 37)(font "Courier New" (bold))(invisible))
		(text "CLK" (rect 2 28 19 37)(font "Courier New" (bold))(invisible))
		(line (pt 0 40)(pt 12 40)(line_width 1))
	)
	(port
		(pt 0 56)
		(input)
		(text "ENA" (rect 14 50 31 59)(font "Courier New" (bold)))
		(text "ENA" (rect 14 50 31 59)(font "Courier New" (bold)))
		(line (pt 0 56)(pt 12 56)(line_width 1))
	)
	(port
		(pt 64 24)
		(output)
		(text "Q" (rect 44 20 49 29)(font "Courier New" (bold)))
		(text "Q" (rect 44 20 49 29)(font "Courier New" (bold)))
		(line (pt 53 24)(pt 64 24)(line_width 1))
	)
	(drawing
		(line (pt 12 68)(pt 52 68)(line_width 1))
		(line (pt 12 12)(pt 52 12)(line_width 1))
		(line (pt 52 68)(pt 52 12)(line_width 1))
		(line (pt 12 68)(pt 12 12)(line_width 1))
		(line (pt 12 34)(pt 19 41)(line_width 1))
		(line (pt 18 41)(pt 12 47)(line_width 1))
		(circle (rect 28 4 36 12)(line_width 1))
		(circle (rect 28 68 36 76)(line_width 1))
	)
)
(symbol
	(rect 2776 496 2840 576)
	(text "DFF" (rect 1 0 19 11)(font "Arial" (font_size 6)))
	(text "inst13" (rect 3 68 31 79)(font "Arial" ))
	(port
		(pt 32 80)
		(input)
		(text "CLRN" (rect 21 59 44 68)(font "Courier New" (bold)))
		(text "CLRN" (rect 21 58 44 67)(font "Courier New" (bold)))
		(line (pt 32 80)(pt 32 76)(line_width 1))
	)
	(port
		(pt 0 40)
		(input)
		(text "CLK" (rect 3 29 20 38)(font "Courier New" (bold))(invisible))
		(text "CLK" (rect 3 29 20 38)(font "Courier New" (bold))(invisible))
		(line (pt 0 40)(pt 12 40)(line_width 1))
	)
	(port
		(pt 0 24)
		(input)
		(text "D" (rect 14 20 19 29)(font "Courier New" (bold)))
		(text "D" (rect 14 20 19 29)(font "Courier New" (bold)))
		(line (pt 0 24)(pt 12 24)(line_width 1))
	)
	(port
		(pt 32 0)
		(input)
		(text "PRN" (rect 24 13 41 22)(font "Courier New" (bold)))
		(text "PRN" (rect 24 11 41 20)(font "Courier New" (bold)))
		(line (pt 32 4)(pt 32 0)(line_width 1))
	)
	(port
		(pt 64 24)
		(output)
		(text "Q" (rect 45 20 50 29)(font "Courier New" (bold)))
		(text "Q" (rect 45 20 50 29)(font "Courier New" (bold)))
		(line (pt 52 24)(pt 64 24)(line_width 1))
	)
	(drawing
		(line (pt 12 12)(pt 52 12)(line_width 1))
		(line (pt 12 68)(pt 52 68)(line_width 1))
		(line (pt 52 68)(pt 52 12)(line_width 1))
		(line (pt 12 68)(pt 12 12)(line_width 1))
		(line (pt 19 40)(pt 12 47)(line_width 1))
		(line (pt 12 32)(pt 20 40)(line_width 1))
		(circle (rect 28 4 36 12)(line_width 1))
		(circle (rect 28 68 36 76)(line_width 1))
	)
)
(symbol
	(rect 2872 496 2936 576)
	(text "DFF" (rect 1 0 19 11)(font "Arial" (font_size 6)))
	(text "inst14" (rect 3 68 31 79)(font "Arial" ))
	(port
		(pt 32 80)
		(input)
		(text "CLRN" (rect 21 59 44 68)(font "Courier New" (bold)))
		(text "CLRN" (rect 21 58 44 67)(font "Courier New" (bold)))
		(line (pt 32 80)(pt 32 76)(line_width 1))
	)
	(port
		(pt 0 40)
		(input)
		(text "CLK" (rect 3 29 20 38)(font "Courier New" (bold))(invisible))
		(text "CLK" (rect 3 29 20 38)(font "Courier New" (bold))(invisible))
		(line (pt 0 40)(pt 12 40)(line_width 1))
	)
	(port
		(pt 0 24)
		(input)
		(text "D" (rect 14 20 19 29)(font "Courier New" (bold)))
		(text "D" (rect 14 20 19 29)(font "Courier New" (bold)))
		(line (pt 0 24)(pt 12 24)(line_width 1))
	)
	(port
		(pt 32 0)
		(input)
		(text "PRN" (rect 24 13 41 22)(font "Courier New" (bold)))
		(text "PRN" (rect 24 11 41 20)(font "Courier New" (bold)))
		(line (pt 32 4)(pt 32 0)(line_width 1))
	)
	(port
		(pt 64 24)
		(output)
		(text "Q" (rect 45 20 50 29)(font "Courier New" (bold)))
		(text "Q" (rect 45 20 50 29)(font "Courier New" (bold)))
		(line (pt 52 24)(pt 64 24)(line_width 1))
	)
	(drawing
		(line (pt 12 12)(pt 52 12)(line_width 1))
		(line (pt 12 68)(pt 52 68)(line_width 1))
		(line (pt 52 68)(pt 52 12)(line_width 1))
		(line (pt 12 68)(pt 12 12)(line_width 1))
		(line (pt 19 40)(pt 12 47)(line_width 1))
		(line (pt 12 32)(pt 20 40)(line_width 1))
		(circle (rect 28 4 36 12)(line_width 1))
		(circle (rect 28 68 36 76)(line_width 1))
	)
)
(symbol
	(rect 2952 504 3000 536)
	(text "NOT" (rect 1 0 19 11)(font "Arial" (font_size 6)))
	(text "inst16" (rect 3 21 31 32)(font "Arial" ))
	(port
		(pt 0 16)
		(input)
		(text "IN" (rect 2 7 13 16)(font "Courier New" (bold))(invisible))
		(text "IN" (rect 2 7 13 16)(font "Courier New" (bold))(invisible))
		(line (pt 0 16)(pt 13 16)(line_width 1))
	)
	(port
		(pt 48 16)
		(output)
		(text "OUT" (rect 32 7 49 16)(font "Courier New" (bold))(invisible))
		(text "OUT" (rect 32 7 49 16)(font "Courier New" (bold))(invisible))
		(line (pt 39 16)(pt 48 16)(line_width 1))
	)
	(drawing
		(line (pt 13 25)(pt 13 7)(line_width 1))
		(line (pt 13 7)(pt 31 16)(line_width 1))
		(line (pt 13 25)(pt 31 16)(line_width 1))
		(circle (rect 31 12 39 20)(line_width 1))
	)
)
(symbol
	(rect 3976 408 4040 488)
	(text "DFF" (rect 1 0 19 11)(font "Arial" (font_size 6)))
	(text "inst18" (rect 3 68 31 79)(font "Arial" ))
	(port
		(pt 32 80)
		(input)
		(text "CLRN" (rect 21 59 44 68)(font "Courier New" (bold)))
		(text "CLRN" (rect 21 58 44 67)(font "Courier New" (bold)))
		(line (pt 32 80)(pt 32 76)(line_width 1))
	)
	(port
		(pt 0 40)
		(input)
		(text "CLK" (rect 3 29 20 38)(font "Courier New" (bold))(invisible))
		(text "CLK" (rect 3 29 20 38)(font "Courier New" (bold))(invisible))
		(line (pt 0 40)(pt 12 40)(line_width 1))
	)
	(port
		(pt 0 24)
		(input)
		(text "D" (rect 14 20 19 29)(font "Courier New" (bold)))
		(text "D" (rect 14 20 19 29)(font "Courier New" (bold)))
		(line (pt 0 24)(pt 12 24)(line_width 1))
	)
	(port
		(pt 32 0)
		(input)
		(text "PRN" (rect 24 13 41 22)(font "Courier New" (bold)))
		(text "PRN" (rect 24 11 41 20)(font "Courier New" (bold)))
		(line (pt 32 4)(pt 32 0)(line_width 1))
	)
	(port
		(pt 64 24)
		(output)
		(text "Q" (rect 45 20 50 29)(font "Courier New" (bold)))
		(text "Q" (rect 45 20 50 29)(font "Courier New" (bold)))
		(line (pt 52 24)(pt 64 24)(line_width 1))
	)
	(drawing
		(line (pt 12 12)(pt 52 12)(line_width 1))
		(line (pt 12 68)(pt 52 68)(line_width 1))
		(line (pt 52 68)(pt 52 12)(line_width 1))
		(line (pt 12 68)(pt 12 12)(line_width 1))
		(line (pt 19 40)(pt 12 47)(line_width 1))
		(line (pt 12 32)(pt 20 40)(line_width 1))
		(circle (rect 28 4 36 12)(line_width 1))
		(circle (rect 28 68 36 76)(line_width 1))
	)
)
(symbol
	(rect 4552 416 4616 464)
	(text "AND2" (rect 1 0 28 11)(font "Arial" (font_size 6)))
	(text "inst3" (rect 3 37 25 48)(font "Arial" ))
	(port
		(pt 0 16)
		(input)
		(text "IN1" (rect 2 7 19 16)(font "Courier New" (bold))(invisible))
		(text "IN1" (rect 2 7 19 16)(font "Courier New" (bold))(invisible))
		(line (pt 0 16)(pt 14 16)(line_width 1))
	)
	(port
		(pt 0 32)
		(input)
		(text "IN2" (rect 2 23 19 32)(font "Courier New" (bold))(invisible))
		(text "IN2" (rect 2 23 19 32)(font "Courier New" (bold))(invisible))
		(line (pt 0 32)(pt 14 32)(line_width 1))
	)
	(port
		(pt 64 24)
		(output)
		(text "OUT" (rect 48 15 65 24)(font "Courier New" (bold))(invisible))
		(text "OUT" (rect 48 15 65 24)(font "Courier New" (bold))(invisible))
		(line (pt 42 24)(pt 64 24)(line_width 1))
	)
	(drawing
		(line (pt 14 12)(pt 30 12)(line_width 1))
		(line (pt 14 37)(pt 31 37)(line_width 1))
		(line (pt 14 12)(pt 14 37)(line_width 1))
		(arc (pt 31 37)(pt 30 12)(rect 18 12 43 37)(line_width 1))
	)
)
(symbol
	(rect 4464 440 4512 472)
	(text "NOT" (rect 1 0 19 11)(font "Arial" (font_size 6)))
	(text "inst22" (rect 3 21 31 32)(font "Arial" ))
	(port
		(pt 0 16)
		(input)
		(text "IN" (rect 2 7 13 16)(font "Courier New" (bold))(invisible))
		(text "IN" (rect 2 7 13 16)(font "Courier New" (bold))(invisible))
		(line (pt 0 16)(pt 13 16)(line_width 1))
	)
	(port
		(pt 48 16)
		(output)
		(text "OUT" (rect 32 7 49 16)(font "Courier New" (bold))(invisible))
		(text "OUT" (rect 32 7 49 16)(font "Courier New" (bold))(invisible))
		(line (pt 39 16)(pt 48 16)(line_width 1))
	)
	(drawing
		(line (pt 13 25)(pt 13 7)(line_width 1))
		(line (pt 13 7)(pt 31 16)(line_width 1))
		(line (pt 13 25)(pt 31 16)(line_width 1))
		(circle (rect 31 12 39 20)(line_width 1))
	)
)
(symbol
	(rect 3976 576 4040 656)
	(text "DFF" (rect 1 0 19 11)(font "Arial" (font_size 6)))
	(text "inst23" (rect 3 68 31 79)(font "Arial" ))
	(port
		(pt 32 80)
		(input)
		(text "CLRN" (rect 21 59 44 68)(font "Courier New" (bold)))
		(text "CLRN" (rect 21 58 44 67)(font "Courier New" (bold)))
		(line (pt 32 80)(pt 32 76)(line_width 1))
	)
	(port
		(pt 0 40)
		(input)
		(text "CLK" (rect 3 29 20 38)(font "Courier New" (bold))(invisible))
		(text "CLK" (rect 3 29 20 38)(font "Courier New" (bold))(invisible))
		(line (pt 0 40)(pt 12 40)(line_width 1))
	)
	(port
		(pt 0 24)
		(input)
		(text "D" (rect 14 20 19 29)(font "Courier New" (bold)))
		(text "D" (rect 14 20 19 29)(font "Courier New" (bold)))
		(line (pt 0 24)(pt 12 24)(line_width 1))
	)
	(port
		(pt 32 0)
		(input)
		(text "PRN" (rect 24 13 41 22)(font "Courier New" (bold)))
		(text "PRN" (rect 24 11 41 20)(font "Courier New" (bold)))
		(line (pt 32 4)(pt 32 0)(line_width 1))
	)
	(port
		(pt 64 24)
		(output)
		(text "Q" (rect 45 20 50 29)(font "Courier New" (bold)))
		(text "Q" (rect 45 20 50 29)(font "Courier New" (bold)))
		(line (pt 52 24)(pt 64 24)(line_width 1))
	)
	(drawing
		(line (pt 12 12)(pt 52 12)(line_width 1))
		(line (pt 12 68)(pt 52 68)(line_width 1))
		(line (pt 52 68)(pt 52 12)(line_width 1))
		(line (pt 12 68)(pt 12 12)(line_width 1))
		(line (pt 19 40)(pt 12 47)(line_width 1))
		(line (pt 12 32)(pt 20 40)(line_width 1))
		(circle (rect 28 4 36 12)(line_width 1))
		(circle (rect 28 68 36 76)(line_width 1))
	)
)
(symbol
	(rect 1616 688 1680 736)
	(text "AND2" (rect 1 0 28 11)(font "Arial" (font_size 6)))
	(text "inst12" (rect 3 37 31 48)(font "Arial" ))
	(port
		(pt 0 16)
		(input)
		(text "IN1" (rect 2 7 19 16)(font "Courier New" (bold))(invisible))
		(text "IN1" (rect 2 7 19 16)(font "Courier New" (bold))(invisible))
		(line (pt 0 16)(pt 14 16)(line_width 1))
	)
	(port
		(pt 0 32)
		(input)
		(text "IN2" (rect 2 23 19 32)(font "Courier New" (bold))(invisible))
		(text "IN2" (rect 2 23 19 32)(font "Courier New" (bold))(invisible))
		(line (pt 0 32)(pt 14 32)(line_width 1))
	)
	(port
		(pt 64 24)
		(output)
		(text "OUT" (rect 48 15 65 24)(font "Courier New" (bold))(invisible))
		(text "OUT" (rect 48 15 65 24)(font "Courier New" (bold))(invisible))
		(line (pt 42 24)(pt 64 24)(line_width 1))
	)
	(drawing
		(line (pt 14 12)(pt 30 12)(line_width 1))
		(line (pt 14 37)(pt 31 37)(line_width 1))
		(line (pt 14 12)(pt 14 37)(line_width 1))
		(arc (pt 31 37)(pt 30 12)(rect 18 12 43 37)(line_width 1))
	)
)
(symbol
	(rect 1616 760 1680 808)
	(text "AND2" (rect 1 0 28 11)(font "Arial" (font_size 6)))
	(text "inst15" (rect 3 37 31 48)(font "Arial" ))
	(port
		(pt 0 16)
		(input)
		(text "IN1" (rect 2 7 19 16)(font "Courier New" (bold))(invisible))
		(text "IN1" (rect 2 7 19 16)(font "Courier New" (bold))(invisible))
		(line (pt 0 16)(pt 14 16)(line_width 1))
	)
	(port
		(pt 0 32)
		(input)
		(text "IN2" (rect 2 23 19 32)(font "Courier New" (bold))(invisible))
		(text "IN2" (rect 2 23 19 32)(font "Courier New" (bold))(invisible))
		(line (pt 0 32)(pt 14 32)(line_width 1))
	)
	(port
		(pt 64 24)
		(output)
		(text "OUT" (rect 48 15 65 24)(font "Courier New" (bold))(invisible))
		(text "OUT" (rect 48 15 65 24)(font "Courier New" (bold))(invisible))
		(line (pt 42 24)(pt 64 24)(line_width 1))
	)
	(drawing
		(line (pt 14 12)(pt 30 12)(line_width 1))
		(line (pt 14 37)(pt 31 37)(line_width 1))
		(line (pt 14 12)(pt 14 37)(line_width 1))
		(arc (pt 31 37)(pt 30 12)(rect 18 12 43 37)(line_width 1))
	)
)
(symbol
	(rect 1520 824 1584 872)
	(text "AND2" (rect 36 0 63 11)(font "Arial" (font_size 6)))
	(text "inst19" (rect 33 37 61 48)(font "Arial" ))
	(port
		(pt 64 16)
		(input)
		(text "IN1" (rect 2 7 19 16)(font "Courier New" (bold))(invisible))
		(text "IN1" (rect 45 7 62 16)(font "Courier New" (bold))(invisible))
		(line (pt 64 16)(pt 50 16)(line_width 1))
	)
	(port
		(pt 64 32)
		(input)
		(text "IN2" (rect 2 23 19 32)(font "Courier New" (bold))(invisible))
		(text "IN2" (rect 45 23 62 32)(font "Courier New" (bold))(invisible))
		(line (pt 64 32)(pt 50 32)(line_width 1))
	)
	(port
		(pt 0 24)
		(output)
		(text "OUT" (rect 48 15 65 24)(font "Courier New" (bold))(invisible))
		(text "OUT" (rect -1 15 16 24)(font "Courier New" (bold))(invisible))
		(line (pt 22 24)(pt 0 24)(line_width 1))
	)
	(drawing
		(line (pt 50 12)(pt 34 12)(line_width 1))
		(line (pt 50 37)(pt 33 37)(line_width 1))
		(line (pt 50 12)(pt 50 37)(line_width 1))
		(arc (pt 34 12)(pt 33 37)(rect 21 12 46 37)(line_width 1))
	)
	(flipy)
)
(symbol
	(rect 1536 760 1584 792)
	(text "NOT" (rect 1 0 19 11)(font "Arial" (font_size 6)))
	(text "inst24" (rect 3 21 31 32)(font "Arial" ))
	(port
		(pt 0 16)
		(input)
		(text "IN" (rect 2 7 13 16)(font "Courier New" (bold))(invisible))
		(text "IN" (rect 2 7 13 16)(font "Courier New" (bold))(invisible))
		(line (pt 0 16)(pt 13 16)(line_width 1))
	)
	(port
		(pt 48 16)
		(output)
		(text "OUT" (rect 32 7 49 16)(font "Courier New" (bold))(invisible))
		(text "OUT" (rect 32 7 49 16)(font "Courier New" (bold))(invisible))
		(line (pt 39 16)(pt 48 16)(line_width 1))
	)
	(drawing
		(line (pt 13 25)(pt 13 7)(line_width 1))
		(line (pt 13 7)(pt 31 16)(line_width 1))
		(line (pt 13 25)(pt 31 16)(line_width 1))
		(circle (rect 31 12 39 20)(line_width 1))
	)
)
(symbol
	(rect 1616 896 1680 944)
	(text "AND2" (rect 1 0 28 11)(font "Arial" (font_size 6)))
	(text "inst25" (rect 3 37 31 48)(font "Arial" ))
	(port
		(pt 0 16)
		(input)
		(text "IN1" (rect 2 7 19 16)(font "Courier New" (bold))(invisible))
		(text "IN1" (rect 2 7 19 16)(font "Courier New" (bold))(invisible))
		(line (pt 0 16)(pt 14 16)(line_width 1))
	)
	(port
		(pt 0 32)
		(input)
		(text "IN2" (rect 2 23 19 32)(font "Courier New" (bold))(invisible))
		(text "IN2" (rect 2 23 19 32)(font "Courier New" (bold))(invisible))
		(line (pt 0 32)(pt 14 32)(line_width 1))
	)
	(port
		(pt 64 24)
		(output)
		(text "OUT" (rect 48 15 65 24)(font "Courier New" (bold))(invisible))
		(text "OUT" (rect 48 15 65 24)(font "Courier New" (bold))(invisible))
		(line (pt 42 24)(pt 64 24)(line_width 1))
	)
	(drawing
		(line (pt 14 12)(pt 30 12)(line_width 1))
		(line (pt 14 37)(pt 31 37)(line_width 1))
		(line (pt 14 12)(pt 14 37)(line_width 1))
		(arc (pt 31 37)(pt 30 12)(rect 18 12 43 37)(line_width 1))
	)
)
(symbol
	(rect 1616 968 1680 1016)
	(text "AND2" (rect 1 0 28 11)(font "Arial" (font_size 6)))
	(text "inst26" (rect 3 37 31 48)(font "Arial" ))
	(port
		(pt 0 16)
		(input)
		(text "IN1" (rect 2 7 19 16)(font "Courier New" (bold))(invisible))
		(text "IN1" (rect 2 7 19 16)(font "Courier New" (bold))(invisible))
		(line (pt 0 16)(pt 14 16)(line_width 1))
	)
	(port
		(pt 0 32)
		(input)
		(text "IN2" (rect 2 23 19 32)(font "Courier New" (bold))(invisible))
		(text "IN2" (rect 2 23 19 32)(font "Courier New" (bold))(invisible))
		(line (pt 0 32)(pt 14 32)(line_width 1))
	)
	(port
		(pt 64 24)
		(output)
		(text "OUT" (rect 48 15 65 24)(font "Courier New" (bold))(invisible))
		(text "OUT" (rect 48 15 65 24)(font "Courier New" (bold))(invisible))
		(line (pt 42 24)(pt 64 24)(line_width 1))
	)
	(drawing
		(line (pt 14 12)(pt 30 12)(line_width 1))
		(line (pt 14 37)(pt 31 37)(line_width 1))
		(line (pt 14 12)(pt 14 37)(line_width 1))
		(arc (pt 31 37)(pt 30 12)(rect 18 12 43 37)(line_width 1))
	)
)
(symbol
	(rect 1520 1032 1584 1080)
	(text "AND2" (rect 36 0 63 11)(font "Arial" (font_size 6)))
	(text "inst27" (rect 33 37 61 48)(font "Arial" ))
	(port
		(pt 64 16)
		(input)
		(text "IN1" (rect 2 7 19 16)(font "Courier New" (bold))(invisible))
		(text "IN1" (rect 45 7 62 16)(font "Courier New" (bold))(invisible))
		(line (pt 64 16)(pt 50 16)(line_width 1))
	)
	(port
		(pt 64 32)
		(input)
		(text "IN2" (rect 2 23 19 32)(font "Courier New" (bold))(invisible))
		(text "IN2" (rect 45 23 62 32)(font "Courier New" (bold))(invisible))
		(line (pt 64 32)(pt 50 32)(line_width 1))
	)
	(port
		(pt 0 24)
		(output)
		(text "OUT" (rect 48 15 65 24)(font "Courier New" (bold))(invisible))
		(text "OUT" (rect -1 15 16 24)(font "Courier New" (bold))(invisible))
		(line (pt 22 24)(pt 0 24)(line_width 1))
	)
	(drawing
		(line (pt 50 12)(pt 34 12)(line_width 1))
		(line (pt 50 37)(pt 33 37)(line_width 1))
		(line (pt 50 12)(pt 50 37)(line_width 1))
		(arc (pt 34 12)(pt 33 37)(rect 21 12 46 37)(line_width 1))
	)
	(flipy)
)
(symbol
	(rect 1536 968 1584 1000)
	(text "NOT" (rect 1 0 19 11)(font "Arial" (font_size 6)))
	(text "inst28" (rect 3 21 31 32)(font "Arial" ))
	(port
		(pt 0 16)
		(input)
		(text "IN" (rect 2 7 13 16)(font "Courier New" (bold))(invisible))
		(text "IN" (rect 2 7 13 16)(font "Courier New" (bold))(invisible))
		(line (pt 0 16)(pt 13 16)(line_width 1))
	)
	(port
		(pt 48 16)
		(output)
		(text "OUT" (rect 32 7 49 16)(font "Courier New" (bold))(invisible))
		(text "OUT" (rect 32 7 49 16)(font "Courier New" (bold))(invisible))
		(line (pt 39 16)(pt 48 16)(line_width 1))
	)
	(drawing
		(line (pt 13 25)(pt 13 7)(line_width 1))
		(line (pt 13 7)(pt 31 16)(line_width 1))
		(line (pt 13 25)(pt 31 16)(line_width 1))
		(circle (rect 31 12 39 20)(line_width 1))
	)
)
(symbol
	(rect 1616 1104 1680 1152)
	(text "AND2" (rect 1 0 28 11)(font "Arial" (font_size 6)))
	(text "inst29" (rect 3 37 31 48)(font "Arial" ))
	(port
		(pt 0 16)
		(input)
		(text "IN1" (rect 2 7 19 16)(font "Courier New" (bold))(invisible))
		(text "IN1" (rect 2 7 19 16)(font "Courier New" (bold))(invisible))
		(line (pt 0 16)(pt 14 16)(line_width 1))
	)
	(port
		(pt 0 32)
		(input)
		(text "IN2" (rect 2 23 19 32)(font "Courier New" (bold))(invisible))
		(text "IN2" (rect 2 23 19 32)(font "Courier New" (bold))(invisible))
		(line (pt 0 32)(pt 14 32)(line_width 1))
	)
	(port
		(pt 64 24)
		(output)
		(text "OUT" (rect 48 15 65 24)(font "Courier New" (bold))(invisible))
		(text "OUT" (rect 48 15 65 24)(font "Courier New" (bold))(invisible))
		(line (pt 42 24)(pt 64 24)(line_width 1))
	)
	(drawing
		(line (pt 14 12)(pt 30 12)(line_width 1))
		(line (pt 14 37)(pt 31 37)(line_width 1))
		(line (pt 14 12)(pt 14 37)(line_width 1))
		(arc (pt 31 37)(pt 30 12)(rect 18 12 43 37)(line_width 1))
	)
)
(symbol
	(rect 1616 1176 1680 1224)
	(text "AND2" (rect 1 0 28 11)(font "Arial" (font_size 6)))
	(text "inst30" (rect 3 37 31 48)(font "Arial" ))
	(port
		(pt 0 16)
		(input)
		(text "IN1" (rect 2 7 19 16)(font "Courier New" (bold))(invisible))
		(text "IN1" (rect 2 7 19 16)(font "Courier New" (bold))(invisible))
		(line (pt 0 16)(pt 14 16)(line_width 1))
	)
	(port
		(pt 0 32)
		(input)
		(text "IN2" (rect 2 23 19 32)(font "Courier New" (bold))(invisible))
		(text "IN2" (rect 2 23 19 32)(font "Courier New" (bold))(invisible))
		(line (pt 0 32)(pt 14 32)(line_width 1))
	)
	(port
		(pt 64 24)
		(output)
		(text "OUT" (rect 48 15 65 24)(font "Courier New" (bold))(invisible))
		(text "OUT" (rect 48 15 65 24)(font "Courier New" (bold))(invisible))
		(line (pt 42 24)(pt 64 24)(line_width 1))
	)
	(drawing
		(line (pt 14 12)(pt 30 12)(line_width 1))
		(line (pt 14 37)(pt 31 37)(line_width 1))
		(line (pt 14 12)(pt 14 37)(line_width 1))
		(arc (pt 31 37)(pt 30 12)(rect 18 12 43 37)(line_width 1))
	)
)
(symbol
	(rect 1520 1240 1584 1288)
	(text "AND2" (rect 36 0 63 11)(font "Arial" (font_size 6)))
	(text "inst31" (rect 33 37 61 48)(font "Arial" ))
	(port
		(pt 64 16)
		(input)
		(text "IN1" (rect 2 7 19 16)(font "Courier New" (bold))(invisible))
		(text "IN1" (rect 45 7 62 16)(font "Courier New" (bold))(invisible))
		(line (pt 64 16)(pt 50 16)(line_width 1))
	)
	(port
		(pt 64 32)
		(input)
		(text "IN2" (rect 2 23 19 32)(font "Courier New" (bold))(invisible))
		(text "IN2" (rect 45 23 62 32)(font "Courier New" (bold))(invisible))
		(line (pt 64 32)(pt 50 32)(line_width 1))
	)
	(port
		(pt 0 24)
		(output)
		(text "OUT" (rect 48 15 65 24)(font "Courier New" (bold))(invisible))
		(text "OUT" (rect -1 15 16 24)(font "Courier New" (bold))(invisible))
		(line (pt 22 24)(pt 0 24)(line_width 1))
	)
	(drawing
		(line (pt 50 12)(pt 34 12)(line_width 1))
		(line (pt 50 37)(pt 33 37)(line_width 1))
		(line (pt 50 12)(pt 50 37)(line_width 1))
		(arc (pt 34 12)(pt 33 37)(rect 21 12 46 37)(line_width 1))
	)
	(flipy)
)
(symbol
	(rect 1536 1176 1584 1208)
	(text "NOT" (rect 1 0 19 11)(font "Arial" (font_size 6)))
	(text "inst32" (rect 3 21 31 32)(font "Arial" ))
	(port
		(pt 0 16)
		(input)
		(text "IN" (rect 2 7 13 16)(font "Courier New" (bold))(invisible))
		(text "IN" (rect 2 7 13 16)(font "Courier New" (bold))(invisible))
		(line (pt 0 16)(pt 13 16)(line_width 1))
	)
	(port
		(pt 48 16)
		(output)
		(text "OUT" (rect 32 7 49 16)(font "Courier New" (bold))(invisible))
		(text "OUT" (rect 32 7 49 16)(font "Courier New" (bold))(invisible))
		(line (pt 39 16)(pt 48 16)(line_width 1))
	)
	(drawing
		(line (pt 13 25)(pt 13 7)(line_width 1))
		(line (pt 13 7)(pt 31 16)(line_width 1))
		(line (pt 13 25)(pt 31 16)(line_width 1))
		(circle (rect 31 12 39 20)(line_width 1))
	)
)
(symbol
	(rect 1616 456 1680 504)
	(text "AND2" (rect 1 0 28 11)(font "Arial" (font_size 6)))
	(text "inst33" (rect 3 37 31 48)(font "Arial" ))
	(port
		(pt 0 16)
		(input)
		(text "IN1" (rect 2 7 19 16)(font "Courier New" (bold))(invisible))
		(text "IN1" (rect 2 7 19 16)(font "Courier New" (bold))(invisible))
		(line (pt 0 16)(pt 14 16)(line_width 1))
	)
	(port
		(pt 0 32)
		(input)
		(text "IN2" (rect 2 23 19 32)(font "Courier New" (bold))(invisible))
		(text "IN2" (rect 2 23 19 32)(font "Courier New" (bold))(invisible))
		(line (pt 0 32)(pt 14 32)(line_width 1))
	)
	(port
		(pt 64 24)
		(output)
		(text "OUT" (rect 48 15 65 24)(font "Courier New" (bold))(invisible))
		(text "OUT" (rect 48 15 65 24)(font "Courier New" (bold))(invisible))
		(line (pt 42 24)(pt 64 24)(line_width 1))
	)
	(drawing
		(line (pt 14 12)(pt 30 12)(line_width 1))
		(line (pt 14 37)(pt 31 37)(line_width 1))
		(line (pt 14 12)(pt 14 37)(line_width 1))
		(arc (pt 31 37)(pt 30 12)(rect 18 12 43 37)(line_width 1))
	)
)
(symbol
	(rect 1616 528 1680 576)
	(text "AND2" (rect 1 0 28 11)(font "Arial" (font_size 6)))
	(text "inst34" (rect 3 37 31 48)(font "Arial" ))
	(port
		(pt 0 16)
		(input)
		(text "IN1" (rect 2 7 19 16)(font "Courier New" (bold))(invisible))
		(text "IN1" (rect 2 7 19 16)(font "Courier New" (bold))(invisible))
		(line (pt 0 16)(pt 14 16)(line_width 1))
	)
	(port
		(pt 0 32)
		(input)
		(text "IN2" (rect 2 23 19 32)(font "Courier New" (bold))(invisible))
		(text "IN2" (rect 2 23 19 32)(font "Courier New" (bold))(invisible))
		(line (pt 0 32)(pt 14 32)(line_width 1))
	)
	(port
		(pt 64 24)
		(output)
		(text "OUT" (rect 48 15 65 24)(font "Courier New" (bold))(invisible))
		(text "OUT" (rect 48 15 65 24)(font "Courier New" (bold))(invisible))
		(line (pt 42 24)(pt 64 24)(line_width 1))
	)
	(drawing
		(line (pt 14 12)(pt 30 12)(line_width 1))
		(line (pt 14 37)(pt 31 37)(line_width 1))
		(line (pt 14 12)(pt 14 37)(line_width 1))
		(arc (pt 31 37)(pt 30 12)(rect 18 12 43 37)(line_width 1))
	)
)
(symbol
	(rect 1520 592 1584 640)
	(text "AND2" (rect 36 0 63 11)(font "Arial" (font_size 6)))
	(text "inst35" (rect 33 37 61 48)(font "Arial" ))
	(port
		(pt 64 16)
		(input)
		(text "IN1" (rect 2 7 19 16)(font "Courier New" (bold))(invisible))
		(text "IN1" (rect 45 7 62 16)(font "Courier New" (bold))(invisible))
		(line (pt 64 16)(pt 50 16)(line_width 1))
	)
	(port
		(pt 64 32)
		(input)
		(text "IN2" (rect 2 23 19 32)(font "Courier New" (bold))(invisible))
		(text "IN2" (rect 45 23 62 32)(font "Courier New" (bold))(invisible))
		(line (pt 64 32)(pt 50 32)(line_width 1))
	)
	(port
		(pt 0 24)
		(output)
		(text "OUT" (rect 48 15 65 24)(font "Courier New" (bold))(invisible))
		(text "OUT" (rect -1 15 16 24)(font "Courier New" (bold))(invisible))
		(line (pt 22 24)(pt 0 24)(line_width 1))
	)
	(drawing
		(line (pt 50 12)(pt 34 12)(line_width 1))
		(line (pt 50 37)(pt 33 37)(line_width 1))
		(line (pt 50 12)(pt 50 37)(line_width 1))
		(arc (pt 34 12)(pt 33 37)(rect 21 12 46 37)(line_width 1))
	)
	(flipy)
)
(symbol
	(rect 1536 528 1584 560)
	(text "NOT" (rect 1 0 19 11)(font "Arial" (font_size 6)))
	(text "inst36" (rect 3 21 31 32)(font "Arial" ))
	(port
		(pt 0 16)
		(input)
		(text "IN" (rect 2 7 13 16)(font "Courier New" (bold))(invisible))
		(text "IN" (rect 2 7 13 16)(font "Courier New" (bold))(invisible))
		(line (pt 0 16)(pt 13 16)(line_width 1))
	)
	(port
		(pt 48 16)
		(output)
		(text "OUT" (rect 32 7 49 16)(font "Courier New" (bold))(invisible))
		(text "OUT" (rect 32 7 49 16)(font "Courier New" (bold))(invisible))
		(line (pt 39 16)(pt 48 16)(line_width 1))
	)
	(drawing
		(line (pt 13 25)(pt 13 7)(line_width 1))
		(line (pt 13 7)(pt 31 16)(line_width 1))
		(line (pt 13 25)(pt 31 16)(line_width 1))
		(circle (rect 31 12 39 20)(line_width 1))
	)
)
(symbol
	(rect 1992 368 2056 448)
	(text "OR4" (rect 1 0 21 11)(font "Arial" (font_size 6)))
	(text "inst9" (rect 3 69 25 80)(font "Arial" ))
	(port
		(pt 0 16)
		(input)
		(text "IN1" (rect 2 7 19 16)(font "Courier New" (bold))(invisible))
		(text "IN1" (rect 2 7 19 16)(font "Courier New" (bold))(invisible))
		(line (pt 0 16)(pt 13 16)(line_width 1))
	)
	(port
		(pt 0 48)
		(input)
		(text "IN3" (rect 2 39 19 48)(font "Courier New" (bold))(invisible))
		(text "IN3" (rect 2 39 19 48)(font "Courier New" (bold))(invisible))
		(line (pt 0 48)(pt 15 48)(line_width 1))
	)
	(port
		(pt 0 64)
		(input)
		(text "IN4" (rect 2 55 19 64)(font "Courier New" (bold))(invisible))
		(text "IN4" (rect 2 55 19 64)(font "Courier New" (bold))(invisible))
		(line (pt 0 64)(pt 13 64)(line_width 1))
	)
	(port
		(pt 0 32)
		(input)
		(text "IN2" (rect 2 23 19 32)(font "Courier New" (bold))(invisible))
		(text "IN2" (rect 2 23 19 32)(font "Courier New" (bold))(invisible))
		(line (pt 0 32)(pt 15 32)(line_width 1))
	)
	(port
		(pt 64 40)
		(output)
		(text "OUT" (rect 48 31 65 40)(font "Courier New" (bold))(invisible))
		(text "OUT" (rect 48 31 65 40)(font "Courier New" (bold))(invisible))
		(line (pt 48 40)(pt 64 40)(line_width 1))
	)
	(drawing
		(line (pt 13 67)(pt 13 51)(line_width 1))
		(line (pt 25 52)(pt 13 52)(line_width 1))
		(line (pt 13 12)(pt 13 29)(line_width 1))
		(line (pt 13 29)(pt 25 29)(line_width 1))
		(arc (pt 7 45)(pt 7 35)(rect -14 24 19 57)(line_width 1))
		(arc (pt 49 40)(pt 25 29)(rect -6 29 57 92)(line_width 1))
		(arc (pt 25 51)(pt 49 40)(rect -6 -11 57 52)(line_width 1))
	)
)
(symbol
	(rect 1992 480 2056 560)
	(text "OR4" (rect 1 0 21 11)(font "Arial" (font_size 6)))
	(text "inst11" (rect 3 69 31 80)(font "Arial" ))
	(port
		(pt 0 16)
		(input)
		(text "IN1" (rect 2 7 19 16)(font "Courier New" (bold))(invisible))
		(text "IN1" (rect 2 7 19 16)(font "Courier New" (bold))(invisible))
		(line (pt 0 16)(pt 13 16)(line_width 1))
	)
	(port
		(pt 0 48)
		(input)
		(text "IN3" (rect 2 39 19 48)(font "Courier New" (bold))(invisible))
		(text "IN3" (rect 2 39 19 48)(font "Courier New" (bold))(invisible))
		(line (pt 0 48)(pt 15 48)(line_width 1))
	)
	(port
		(pt 0 64)
		(input)
		(text "IN4" (rect 2 55 19 64)(font "Courier New" (bold))(invisible))
		(text "IN4" (rect 2 55 19 64)(font "Courier New" (bold))(invisible))
		(line (pt 0 64)(pt 13 64)(line_width 1))
	)
	(port
		(pt 0 32)
		(input)
		(text "IN2" (rect 2 23 19 32)(font "Courier New" (bold))(invisible))
		(text "IN2" (rect 2 23 19 32)(font "Courier New" (bold))(invisible))
		(line (pt 0 32)(pt 15 32)(line_width 1))
	)
	(port
		(pt 64 40)
		(output)
		(text "OUT" (rect 48 31 65 40)(font "Courier New" (bold))(invisible))
		(text "OUT" (rect 48 31 65 40)(font "Courier New" (bold))(invisible))
		(line (pt 48 40)(pt 64 40)(line_width 1))
	)
	(drawing
		(line (pt 13 67)(pt 13 51)(line_width 1))
		(line (pt 25 52)(pt 13 52)(line_width 1))
		(line (pt 13 12)(pt 13 29)(line_width 1))
		(line (pt 13 29)(pt 25 29)(line_width 1))
		(arc (pt 7 45)(pt 7 35)(rect -14 24 19 57)(line_width 1))
		(arc (pt 49 40)(pt 25 29)(rect -6 29 57 92)(line_width 1))
		(arc (pt 25 51)(pt 49 40)(rect -6 -11 57 52)(line_width 1))
	)
)
(symbol
	(rect 2600 808 2664 888)
	(text "DFFE" (rect 1 0 26 11)(font "Arial" (font_size 6)))
	(text "inst39" (rect 3 68 31 79)(font "Arial" ))
	(port
		(pt 32 0)
		(input)
		(text "PRN" (rect 24 13 41 22)(font "Courier New" (bold)))
		(text "PRN" (rect 24 11 41 20)(font "Courier New" (bold)))
		(line (pt 32 4)(pt 32 0)(line_width 1))
	)
	(port
		(pt 32 80)
		(input)
		(text "CLRN" (rect 21 59 44 68)(font "Courier New" (bold)))
		(text "CLRN" (rect 21 58 44 67)(font "Courier New" (bold)))
		(line (pt 32 80)(pt 32 76)(line_width 1))
	)
	(port
		(pt 0 24)
		(input)
		(text "D" (rect 14 20 19 29)(font "Courier New" (bold)))
		(text "D" (rect 14 20 19 29)(font "Courier New" (bold)))
		(line (pt 0 24)(pt 12 24)(line_width 1))
	)
	(port
		(pt 0 40)
		(input)
		(text "CLK" (rect 2 28 19 37)(font "Courier New" (bold))(invisible))
		(text "CLK" (rect 2 28 19 37)(font "Courier New" (bold))(invisible))
		(line (pt 0 40)(pt 12 40)(line_width 1))
	)
	(port
		(pt 0 56)
		(input)
		(text "ENA" (rect 14 50 31 59)(font "Courier New" (bold)))
		(text "ENA" (rect 14 50 31 59)(font "Courier New" (bold)))
		(line (pt 0 56)(pt 12 56)(line_width 1))
	)
	(port
		(pt 64 24)
		(output)
		(text "Q" (rect 44 20 49 29)(font "Courier New" (bold)))
		(text "Q" (rect 44 20 49 29)(font "Courier New" (bold)))
		(line (pt 53 24)(pt 64 24)(line_width 1))
	)
	(drawing
		(line (pt 12 68)(pt 52 68)(line_width 1))
		(line (pt 12 12)(pt 52 12)(line_width 1))
		(line (pt 52 68)(pt 52 12)(line_width 1))
		(line (pt 12 68)(pt 12 12)(line_width 1))
		(line (pt 12 34)(pt 19 41)(line_width 1))
		(line (pt 18 41)(pt 12 47)(line_width 1))
		(circle (rect 28 4 36 12)(line_width 1))
		(circle (rect 28 68 36 76)(line_width 1))
	)
)
(symbol
	(rect 2168 872 2216 904)
	(text "NOT" (rect 1 0 19 11)(font "Arial" (font_size 6)))
	(text "inst40" (rect 3 21 31 32)(font "Arial" ))
	(port
		(pt 0 16)
		(input)
		(text "IN" (rect 2 7 13 16)(font "Courier New" (bold))(invisible))
		(text "IN" (rect 2 7 13 16)(font "Courier New" (bold))(invisible))
		(line (pt 0 16)(pt 13 16)(line_width 1))
	)
	(port
		(pt 48 16)
		(output)
		(text "OUT" (rect 32 7 49 16)(font "Courier New" (bold))(invisible))
		(text "OUT" (rect 32 7 49 16)(font "Courier New" (bold))(invisible))
		(line (pt 39 16)(pt 48 16)(line_width 1))
	)
	(drawing
		(line (pt 13 25)(pt 13 7)(line_width 1))
		(line (pt 13 7)(pt 31 16)(line_width 1))
		(line (pt 13 25)(pt 31 16)(line_width 1))
		(circle (rect 31 12 39 20)(line_width 1))
	)
)
(symbol
	(rect 24 376 56 408)
	(text "GND" (rect 8 16 29 27)(font "Arial" (font_size 6)))
	(text "inst41" (rect 3 21 31 32)(font "Arial" )(invisible))
	(port
		(pt 16 0)
		(output)
		(text "1" (rect 18 0 23 9)(font "Courier New" (bold))(invisible))
		(text "1" (rect 18 0 23 9)(font "Courier New" (bold))(invisible))
		(line (pt 16 8)(pt 16 0)(line_width 1))
	)
	(drawing
		(line (pt 8 8)(pt 16 16)(line_width 1))
		(line (pt 16 16)(pt 24 8)(line_width 1))
		(line (pt 8 8)(pt 24 8)(line_width 1))
	)
)
(symbol
	(rect 2552 496 2616 544)
	(text "AND2" (rect 1 0 28 11)(font "Arial" (font_size 6)))
	(text "inst42" (rect 3 37 31 48)(font "Arial" ))
	(port
		(pt 0 16)
		(input)
		(text "IN1" (rect 2 7 19 16)(font "Courier New" (bold))(invisible))
		(text "IN1" (rect 2 7 19 16)(font "Courier New" (bold))(invisible))
		(line (pt 0 16)(pt 14 16)(line_width 1))
	)
	(port
		(pt 0 32)
		(input)
		(text "IN2" (rect 2 23 19 32)(font "Courier New" (bold))(invisible))
		(text "IN2" (rect 2 23 19 32)(font "Courier New" (bold))(invisible))
		(line (pt 0 32)(pt 14 32)(line_width 1))
	)
	(port
		(pt 64 24)
		(output)
		(text "OUT" (rect 48 15 65 24)(font "Courier New" (bold))(invisible))
		(text "OUT" (rect 48 15 65 24)(font "Courier New" (bold))(invisible))
		(line (pt 42 24)(pt 64 24)(line_width 1))
	)
	(drawing
		(line (pt 14 12)(pt 30 12)(line_width 1))
		(line (pt 14 37)(pt 31 37)(line_width 1))
		(line (pt 14 12)(pt 14 37)(line_width 1))
		(arc (pt 31 37)(pt 30 12)(rect 18 12 43 37)(line_width 1))
	)
)
(symbol
	(rect 3048 464 3112 512)
	(text "AND2" (rect 1 0 28 11)(font "Arial" (font_size 6)))
	(text "inst43" (rect 3 37 31 48)(font "Arial" ))
	(port
		(pt 0 16)
		(input)
		(text "IN1" (rect 2 7 19 16)(font "Courier New" (bold))(invisible))
		(text "IN1" (rect 2 7 19 16)(font "Courier New" (bold))(invisible))
		(line (pt 0 16)(pt 14 16)(line_width 1))
	)
	(port
		(pt 0 32)
		(input)
		(text "IN2" (rect 2 23 19 32)(font "Courier New" (bold))(invisible))
		(text "IN2" (rect 2 23 19 32)(font "Courier New" (bold))(invisible))
		(line (pt 0 32)(pt 14 32)(line_width 1))
	)
	(port
		(pt 64 24)
		(output)
		(text "OUT" (rect 48 15 65 24)(font "Courier New" (bold))(invisible))
		(text "OUT" (rect 48 15 65 24)(font "Courier New" (bold))(invisible))
		(line (pt 42 24)(pt 64 24)(line_width 1))
	)
	(drawing
		(line (pt 14 12)(pt 30 12)(line_width 1))
		(line (pt 14 37)(pt 31 37)(line_width 1))
		(line (pt 14 12)(pt 14 37)(line_width 1))
		(arc (pt 31 37)(pt 30 12)(rect 18 12 43 37)(line_width 1))
	)
)
(symbol
	(rect 2472 528 2520 560)
	(text "NOT" (rect 1 0 19 11)(font "Arial" (font_size 6)))
	(text "inst21" (rect 3 21 31 32)(font "Arial" ))
	(port
		(pt 0 16)
		(input)
		(text "IN" (rect 2 7 13 16)(font "Courier New" (bold))(invisible))
		(text "IN" (rect 2 7 13 16)(font "Courier New" (bold))(invisible))
		(line (pt 0 16)(pt 13 16)(line_width 1))
	)
	(port
		(pt 48 16)
		(output)
		(text "OUT" (rect 32 7 49 16)(font "Courier New" (bold))(invisible))
		(text "OUT" (rect 32 7 49 16)(font "Courier New" (bold))(invisible))
		(line (pt 39 16)(pt 48 16)(line_width 1))
	)
	(drawing
		(line (pt 13 25)(pt 13 7)(line_width 1))
		(line (pt 13 7)(pt 31 16)(line_width 1))
		(line (pt 13 25)(pt 31 16)(line_width 1))
		(circle (rect 31 12 39 20)(line_width 1))
	)
)
(symbol
	(rect 2232 824 2376 920)
	(text "TDC4_lpm_counter" (rect 19 1 145 16)(font "Arial" (font_size 10)))
	(text "inst" (rect 8 81 24 92)(font "Arial" ))
	(port
		(pt 0 32)
		(input)
		(text "clock" (rect 0 0 27 13)(font "Arial" (font_size 8)))
		(text "clock" (rect 26 28 53 41)(font "Arial" (font_size 8)))
		(line (pt 0 32)(pt 16 32)(line_width 1))
	)
	(port
		(pt 0 64)
		(input)
		(text "cnt_en" (rect 0 0 37 13)(font "Arial" (font_size 8)))
		(text "cnt_en" (rect 20 60 57 73)(font "Arial" (font_size 8)))
		(line (pt 0 64)(pt 16 64)(line_width 1))
	)
	(port
		(pt 144 48)
		(output)
		(text "q[1..0]" (rect 0 0 35 13)(font "Arial" (font_size 8)))
		(text "q[1..0]" (rect 95 44 130 57)(font "Arial" (font_size 8)))
		(line (pt 144 48)(pt 128 48)(line_width 3))
	)
	(port
		(pt 144 64)
		(output)
		(text "cout" (rect 0 0 23 13)(font "Arial" (font_size 8)))
		(text "cout" (rect 105 60 128 73)(font "Arial" (font_size 8)))
		(line (pt 144 64)(pt 128 64)(line_width 1))
	)
	(drawing
		(text "up counter" (rect 89 17 135 28)(font "Arial" ))
		(line (pt 16 16)(pt 128 16)(line_width 1))
		(line (pt 128 16)(pt 128 80)(line_width 1))
		(line (pt 128 80)(pt 16 80)(line_width 1))
		(line (pt 16 80)(pt 16 16)(line_width 1))
		(line (pt 16 26)(pt 22 32)(line_width 1))
		(line (pt 22 32)(pt 16 38)(line_width 1))
	)
)
(symbol
	(rect 3584 488 3728 584)
	(text "TDC4_lpm_counter" (rect 19 1 145 16)(font "Arial" (font_size 10)))
	(text "inst5" (rect 8 81 30 92)(font "Arial" ))
	(port
		(pt 0 32)
		(input)
		(text "clock" (rect 0 0 27 13)(font "Arial" (font_size 8)))
		(text "clock" (rect 26 28 53 41)(font "Arial" (font_size 8)))
		(line (pt 0 32)(pt 16 32)(line_width 1))
	)
	(port
		(pt 0 64)
		(input)
		(text "cnt_en" (rect 0 0 37 13)(font "Arial" (font_size 8)))
		(text "cnt_en" (rect 20 60 57 73)(font "Arial" (font_size 8)))
		(line (pt 0 64)(pt 16 64)(line_width 1))
	)
	(port
		(pt 144 48)
		(output)
		(text "q[1..0]" (rect 0 0 35 13)(font "Arial" (font_size 8)))
		(text "q[1..0]" (rect 95 44 130 57)(font "Arial" (font_size 8)))
		(line (pt 144 48)(pt 128 48)(line_width 3))
	)
	(port
		(pt 144 64)
		(output)
		(text "cout" (rect 0 0 23 13)(font "Arial" (font_size 8)))
		(text "cout" (rect 105 60 128 73)(font "Arial" (font_size 8)))
		(line (pt 144 64)(pt 128 64)(line_width 1))
	)
	(drawing
		(text "up counter" (rect 89 17 135 28)(font "Arial" ))
		(line (pt 16 16)(pt 128 16)(line_width 1))
		(line (pt 128 16)(pt 128 80)(line_width 1))
		(line (pt 128 80)(pt 16 80)(line_width 1))
		(line (pt 16 80)(pt 16 16)(line_width 1))
		(line (pt 16 26)(pt 22 32)(line_width 1))
		(line (pt 22 32)(pt 16 38)(line_width 1))
	)
)
(symbol
	(rect 3576 184 3720 280)
	(text "TDC4_lpm_counter1" (rect 15 1 149 16)(font "Arial" (font_size 10)))
	(text "inst6" (rect 8 81 30 92)(font "Arial" ))
	(port
		(pt 0 32)
		(input)
		(text "clock" (rect 0 0 27 13)(font "Arial" (font_size 8)))
		(text "clock" (rect 26 28 53 41)(font "Arial" (font_size 8)))
		(line (pt 0 32)(pt 16 32)(line_width 1))
	)
	(port
		(pt 0 64)
		(input)
		(text "cnt_en" (rect 0 0 37 13)(font "Arial" (font_size 8)))
		(text "cnt_en" (rect 20 60 57 73)(font "Arial" (font_size 8)))
		(line (pt 0 64)(pt 16 64)(line_width 1))
	)
	(port
		(pt 144 56)
		(output)
		(text "q[15..0]" (rect 0 0 42 13)(font "Arial" (font_size 8)))
		(text "q[15..0]" (rect 89 52 131 65)(font "Arial" (font_size 8)))
		(line (pt 144 56)(pt 128 56)(line_width 3))
	)
	(drawing
		(text "up counter" (rect 89 17 135 28)(font "Arial" ))
		(line (pt 16 16)(pt 128 16)(line_width 1))
		(line (pt 128 16)(pt 128 80)(line_width 1))
		(line (pt 128 80)(pt 16 80)(line_width 1))
		(line (pt 16 80)(pt 16 16)(line_width 1))
		(line (pt 16 26)(pt 22 32)(line_width 1))
		(line (pt 22 32)(pt 16 38)(line_width 1))
	)
)
(symbol
	(rect 3744 368 3896 480)
	(text "TDC4_lpm_mux1" (rect 33 2 143 17)(font "Arial" (font_size 10)))
	(text "inst20" (rect 8 97 36 108)(font "Arial" ))
	(port
		(pt 0 40)
		(input)
		(text "data3x[31..0]" (rect 0 0 73 13)(font "Arial" (font_size 8)))
		(text "data3x[31..0]" (rect 4 29 77 42)(font "Arial" (font_size 8)))
		(line (pt 0 40)(pt 72 40)(line_width 3))
	)
	(port
		(pt 0 56)
		(input)
		(text "data2x[31..0]" (rect 0 0 73 13)(font "Arial" (font_size 8)))
		(text "data2x[31..0]" (rect 4 45 77 58)(font "Arial" (font_size 8)))
		(line (pt 0 56)(pt 72 56)(line_width 3))
	)
	(port
		(pt 0 72)
		(input)
		(text "data1x[31..0]" (rect 0 0 73 13)(font "Arial" (font_size 8)))
		(text "data1x[31..0]" (rect 4 61 77 74)(font "Arial" (font_size 8)))
		(line (pt 0 72)(pt 72 72)(line_width 3))
	)
	(port
		(pt 0 88)
		(input)
		(text "data0x[31..0]" (rect 0 0 73 13)(font "Arial" (font_size 8)))
		(text "data0x[31..0]" (rect 4 77 77 90)(font "Arial" (font_size 8)))
		(line (pt 0 88)(pt 72 88)(line_width 3))
	)
	(port
		(pt 80 112)
		(input)
		(text "sel[1..0]" (rect 0 0 42 13)(font "Arial" (font_size 8)))
		(text "sel[1..0]" (rect 84 101 126 114)(font "Arial" (font_size 8)))
		(line (pt 80 112)(pt 80 100)(line_width 3))
	)
	(port
		(pt 152 64)
		(output)
		(text "result[31..0]" (rect 0 0 64 13)(font "Arial" (font_size 8)))
		(text "result[31..0]" (rect 94 53 158 66)(font "Arial" (font_size 8)))
		(line (pt 152 64)(pt 88 64)(line_width 3))
	)
	(drawing
		(line (pt 72 24)(pt 72 104)(line_width 1))
		(line (pt 88 32)(pt 88 96)(line_width 1))
		(line (pt 72 24)(pt 88 32)(line_width 1))
		(line (pt 72 104)(pt 88 96)(line_width 1))
	)
)
(symbol
	(rect 3544 128 3720 176)
	(text "TDC4_lpm_constant_0xFEED" (rect 6 1 200 16)(font "Arial" (font_size 10)))
	(text "inst37" (rect 8 33 36 44)(font "Arial" ))
	(port
		(pt 176 24)
		(output)
		(text "result[15..0]" (rect 0 0 64 13)(font "Arial" (font_size 8)))
		(text "result[15..0]" (rect 173 -19 237 -6)(font "Arial" (font_size 8))(invisible))
		(line (pt 176 24)(pt 160 24)(line_width 3))
	)
	(drawing
		(text "65261" (rect 135 19 164 30)(font "Arial" ))
		(text "16" (rect 165 25 176 36)(font "Arial" ))
		(line (pt 16 16)(pt 160 16)(line_width 1))
		(line (pt 160 16)(pt 160 32)(line_width 1))
		(line (pt 160 32)(pt 16 32)(line_width 1))
		(line (pt 16 32)(pt 16 16)(line_width 1))
		(line (pt 160 28)(pt 168 20)(line_width 1))
	)
)
(symbol
	(rect 2568 912 2696 1024)
	(text "TDC4_lpm_decode3" (rect 7 1 141 16)(font "Arial" (font_size 10)))
	(text "inst44" (rect 8 97 36 108)(font "Arial" ))
	(port
		(pt 0 56)
		(input)
		(text "data[1..0]" (rect 0 0 51 13)(font "Arial" (font_size 8)))
		(text "data[1..0]" (rect 20 52 71 65)(font "Arial" (font_size 8)))
		(line (pt 0 56)(pt 16 56)(line_width 3))
	)
	(port
		(pt 128 32)
		(output)
		(text "eq0" (rect 0 0 20 13)(font "Arial" (font_size 8)))
		(text "eq0" (rect 92 28 112 41)(font "Arial" (font_size 8)))
		(line (pt 128 32)(pt 112 32)(line_width 1))
	)
	(port
		(pt 128 48)
		(output)
		(text "eq1" (rect 0 0 20 13)(font "Arial" (font_size 8)))
		(text "eq1" (rect 92 44 112 57)(font "Arial" (font_size 8)))
		(line (pt 128 48)(pt 112 48)(line_width 1))
	)
	(port
		(pt 128 64)
		(output)
		(text "eq2" (rect 0 0 20 13)(font "Arial" (font_size 8)))
		(text "eq2" (rect 92 60 112 73)(font "Arial" (font_size 8)))
		(line (pt 128 64)(pt 112 64)(line_width 1))
	)
	(port
		(pt 128 80)
		(output)
		(text "eq3" (rect 0 0 20 13)(font "Arial" (font_size 8)))
		(text "eq3" (rect 92 76 112 89)(font "Arial" (font_size 8)))
		(line (pt 128 80)(pt 112 80)(line_width 1))
	)
	(drawing
		(line (pt 16 16)(pt 112 16)(line_width 1))
		(line (pt 112 16)(pt 112 96)(line_width 1))
		(line (pt 112 96)(pt 16 96)(line_width 1))
		(line (pt 16 96)(pt 16 16)(line_width 1))
	)
)
(symbol
	(rect 704 376 848 472)
	(text "TDC4_lpm_counter32" (rect 12 1 154 16)(font "Arial" (font_size 10)))
	(text "inst45" (rect 8 81 36 92)(font "Arial" ))
	(port
		(pt 0 32)
		(input)
		(text "clock" (rect 0 0 27 13)(font "Arial" (font_size 8)))
		(text "clock" (rect 26 28 53 41)(font "Arial" (font_size 8)))
		(line (pt 0 32)(pt 16 32)(line_width 1))
	)
	(port
		(pt 80 96)
		(input)
		(text "aclr" (rect 0 0 13 18)(font "Arial" (font_size 8))(vertical))
		(text "aclr" (rect 74 63 87 81)(font "Arial" (font_size 8))(vertical))
		(line (pt 80 96)(pt 80 80)(line_width 1))
	)
	(port
		(pt 144 40)
		(output)
		(text "q[31..0]" (rect 0 0 42 13)(font "Arial" (font_size 8)))
		(text "q[31..0]" (rect 89 36 131 49)(font "Arial" (font_size 8)))
		(line (pt 144 40)(pt 128 40)(line_width 3))
	)
	(drawing
		(text "up counter" (rect 89 17 135 28)(font "Arial" ))
		(line (pt 16 16)(pt 128 16)(line_width 1))
		(line (pt 128 16)(pt 128 80)(line_width 1))
		(line (pt 128 80)(pt 16 80)(line_width 1))
		(line (pt 16 80)(pt 16 16)(line_width 1))
		(line (pt 16 26)(pt 22 32)(line_width 1))
		(line (pt 22 32)(pt 16 38)(line_width 1))
	)
)
(symbol
	(rect 1296 672 1504 832)
	(text "TDC" (rect 5 0 29 13)(font "Arial" (font_size 8)))
	(text "tdcb" (rect 8 144 28 155)(font "Arial" ))
	(port
		(pt 0 32)
		(input)
		(text "reset" (rect 0 0 27 13)(font "Arial" (font_size 8)))
		(text "reset" (rect 21 27 48 40)(font "Arial" (font_size 8)))
		(line (pt 0 32)(pt 16 32)(line_width 1))
	)
	(port
		(pt 0 48)
		(input)
		(text "sysclock" (rect 0 0 44 13)(font "Arial" (font_size 8)))
		(text "sysclock" (rect 21 43 65 56)(font "Arial" (font_size 8)))
		(line (pt 0 48)(pt 16 48)(line_width 1))
	)
	(port
		(pt 0 64)
		(input)
		(text "clock" (rect 0 0 27 13)(font "Arial" (font_size 8)))
		(text "clock" (rect 21 59 48 72)(font "Arial" (font_size 8)))
		(line (pt 0 64)(pt 16 64)(line_width 1))
	)
	(port
		(pt 0 80)
		(input)
		(text "timestamp[31..0]" (rect 0 0 90 13)(font "Arial" (font_size 8)))
		(text "timestamp[31..0]" (rect 21 75 111 88)(font "Arial" (font_size 8)))
		(line (pt 0 80)(pt 16 80)(line_width 3))
	)
	(port
		(pt 0 96)
		(input)
		(text "async_input" (rect 0 0 64 13)(font "Arial" (font_size 8)))
		(text "async_input" (rect 21 91 85 104)(font "Arial" (font_size 8)))
		(line (pt 0 96)(pt 16 96)(line_width 1))
	)
	(port
		(pt 0 112)
		(input)
		(text "read_done" (rect 0 0 57 13)(font "Arial" (font_size 8)))
		(text "read_done" (rect 21 107 78 120)(font "Arial" (font_size 8)))
		(line (pt 0 112)(pt 16 112)(line_width 1))
	)
	(port
		(pt 208 32)
		(output)
		(text "data[63..0]" (rect 0 0 59 13)(font "Arial" (font_size 8)))
		(text "data[63..0]" (rect 127 27 186 40)(font "Arial" (font_size 8)))
		(line (pt 208 32)(pt 192 32)(line_width 3))
	)
	(port
		(pt 208 48)
		(output)
		(text "empty" (rect 0 0 33 13)(font "Arial" (font_size 8)))
		(text "empty" (rect 153 43 186 56)(font "Arial" (font_size 8)))
		(line (pt 208 48)(pt 192 48)(line_width 1))
	)
	(drawing
		(rectangle (rect 16 16 192 144)(line_width 1))
	)
)
(symbol
	(rect 1296 440 1504 600)
	(text "TDC" (rect 5 0 29 13)(font "Arial" (font_size 8)))
	(text "tdca" (rect 8 144 26 155)(font "Arial" ))
	(port
		(pt 0 32)
		(input)
		(text "reset" (rect 0 0 27 13)(font "Arial" (font_size 8)))
		(text "reset" (rect 21 27 48 40)(font "Arial" (font_size 8)))
		(line (pt 0 32)(pt 16 32)(line_width 1))
	)
	(port
		(pt 0 48)
		(input)
		(text "sysclock" (rect 0 0 44 13)(font "Arial" (font_size 8)))
		(text "sysclock" (rect 21 43 65 56)(font "Arial" (font_size 8)))
		(line (pt 0 48)(pt 16 48)(line_width 1))
	)
	(port
		(pt 0 64)
		(input)
		(text "clock" (rect 0 0 27 13)(font "Arial" (font_size 8)))
		(text "clock" (rect 21 59 48 72)(font "Arial" (font_size 8)))
		(line (pt 0 64)(pt 16 64)(line_width 1))
	)
	(port
		(pt 0 80)
		(input)
		(text "timestamp[31..0]" (rect 0 0 90 13)(font "Arial" (font_size 8)))
		(text "timestamp[31..0]" (rect 21 75 111 88)(font "Arial" (font_size 8)))
		(line (pt 0 80)(pt 16 80)(line_width 3))
	)
	(port
		(pt 0 96)
		(input)
		(text "async_input" (rect 0 0 64 13)(font "Arial" (font_size 8)))
		(text "async_input" (rect 21 91 85 104)(font "Arial" (font_size 8)))
		(line (pt 0 96)(pt 16 96)(line_width 1))
	)
	(port
		(pt 0 112)
		(input)
		(text "read_done" (rect 0 0 57 13)(font "Arial" (font_size 8)))
		(text "read_done" (rect 21 107 78 120)(font "Arial" (font_size 8)))
		(line (pt 0 112)(pt 16 112)(line_width 1))
	)
	(port
		(pt 208 32)
		(output)
		(text "data[63..0]" (rect 0 0 59 13)(font "Arial" (font_size 8)))
		(text "data[63..0]" (rect 127 27 186 40)(font "Arial" (font_size 8)))
		(line (pt 208 32)(pt 192 32)(line_width 3))
	)
	(port
		(pt 208 48)
		(output)
		(text "empty" (rect 0 0 33 13)(font "Arial" (font_size 8)))
		(text "empty" (rect 153 43 186 56)(font "Arial" (font_size 8)))
		(line (pt 208 48)(pt 192 48)(line_width 1))
	)
	(drawing
		(rectangle (rect 16 16 192 144)(line_width 1))
	)
)
(symbol
	(rect 1296 880 1504 1040)
	(text "TDC" (rect 5 0 29 13)(font "Arial" (font_size 8)))
	(text "tdcc" (rect 8 144 26 155)(font "Arial" ))
	(port
		(pt 0 32)
		(input)
		(text "reset" (rect 0 0 27 13)(font "Arial" (font_size 8)))
		(text "reset" (rect 21 27 48 40)(font "Arial" (font_size 8)))
		(line (pt 0 32)(pt 16 32)(line_width 1))
	)
	(port
		(pt 0 48)
		(input)
		(text "sysclock" (rect 0 0 44 13)(font "Arial" (font_size 8)))
		(text "sysclock" (rect 21 43 65 56)(font "Arial" (font_size 8)))
		(line (pt 0 48)(pt 16 48)(line_width 1))
	)
	(port
		(pt 0 64)
		(input)
		(text "clock" (rect 0 0 27 13)(font "Arial" (font_size 8)))
		(text "clock" (rect 21 59 48 72)(font "Arial" (font_size 8)))
		(line (pt 0 64)(pt 16 64)(line_width 1))
	)
	(port
		(pt 0 80)
		(input)
		(text "timestamp[31..0]" (rect 0 0 90 13)(font "Arial" (font_size 8)))
		(text "timestamp[31..0]" (rect 21 75 111 88)(font "Arial" (font_size 8)))
		(line (pt 0 80)(pt 16 80)(line_width 3))
	)
	(port
		(pt 0 96)
		(input)
		(text "async_input" (rect 0 0 64 13)(font "Arial" (font_size 8)))
		(text "async_input" (rect 21 91 85 104)(font "Arial" (font_size 8)))
		(line (pt 0 96)(pt 16 96)(line_width 1))
	)
	(port
		(pt 0 112)
		(input)
		(text "read_done" (rect 0 0 57 13)(font "Arial" (font_size 8)))
		(text "read_done" (rect 21 107 78 120)(font "Arial" (font_size 8)))
		(line (pt 0 112)(pt 16 112)(line_width 1))
	)
	(port
		(pt 208 32)
		(output)
		(text "data[63..0]" (rect 0 0 59 13)(font "Arial" (font_size 8)))
		(text "data[63..0]" (rect 127 27 186 40)(font "Arial" (font_size 8)))
		(line (pt 208 32)(pt 192 32)(line_width 3))
	)
	(port
		(pt 208 48)
		(output)
		(text "empty" (rect 0 0 33 13)(font "Arial" (font_size 8)))
		(text "empty" (rect 153 43 186 56)(font "Arial" (font_size 8)))
		(line (pt 208 48)(pt 192 48)(line_width 1))
	)
	(drawing
		(rectangle (rect 16 16 192 144)(line_width 1))
	)
)
(symbol
	(rect 1296 1088 1504 1248)
	(text "TDC" (rect 5 0 29 13)(font "Arial" (font_size 8)))
	(text "tdcd" (rect 8 144 28 155)(font "Arial" ))
	(port
		(pt 0 32)
		(input)
		(text "reset" (rect 0 0 27 13)(font "Arial" (font_size 8)))
		(text "reset" (rect 21 27 48 40)(font "Arial" (font_size 8)))
		(line (pt 0 32)(pt 16 32)(line_width 1))
	)
	(port
		(pt 0 48)
		(input)
		(text "sysclock" (rect 0 0 44 13)(font "Arial" (font_size 8)))
		(text "sysclock" (rect 21 43 65 56)(font "Arial" (font_size 8)))
		(line (pt 0 48)(pt 16 48)(line_width 1))
	)
	(port
		(pt 0 64)
		(input)
		(text "clock" (rect 0 0 27 13)(font "Arial" (font_size 8)))
		(text "clock" (rect 21 59 48 72)(font "Arial" (font_size 8)))
		(line (pt 0 64)(pt 16 64)(line_width 1))
	)
	(port
		(pt 0 80)
		(input)
		(text "timestamp[31..0]" (rect 0 0 90 13)(font "Arial" (font_size 8)))
		(text "timestamp[31..0]" (rect 21 75 111 88)(font "Arial" (font_size 8)))
		(line (pt 0 80)(pt 16 80)(line_width 3))
	)
	(port
		(pt 0 96)
		(input)
		(text "async_input" (rect 0 0 64 13)(font "Arial" (font_size 8)))
		(text "async_input" (rect 21 91 85 104)(font "Arial" (font_size 8)))
		(line (pt 0 96)(pt 16 96)(line_width 1))
	)
	(port
		(pt 0 112)
		(input)
		(text "read_done" (rect 0 0 57 13)(font "Arial" (font_size 8)))
		(text "read_done" (rect 21 107 78 120)(font "Arial" (font_size 8)))
		(line (pt 0 112)(pt 16 112)(line_width 1))
	)
	(port
		(pt 208 32)
		(output)
		(text "data[63..0]" (rect 0 0 59 13)(font "Arial" (font_size 8)))
		(text "data[63..0]" (rect 127 27 186 40)(font "Arial" (font_size 8)))
		(line (pt 208 32)(pt 192 32)(line_width 3))
	)
	(port
		(pt 208 48)
		(output)
		(text "empty" (rect 0 0 33 13)(font "Arial" (font_size 8)))
		(text "empty" (rect 153 43 186 56)(font "Arial" (font_size 8)))
		(line (pt 208 48)(pt 192 48)(line_width 1))
	)
	(drawing
		(rectangle (rect 16 16 192 144)(line_width 1))
	)
)
(symbol
	(rect 4200 400 4360 544)
	(text "TDC4_scfifo" (rect 46 1 126 16)(font "Arial" (font_size 10)))
	(text "inst7" (rect 8 129 30 140)(font "Arial" ))
	(port
		(pt 0 32)
		(input)
		(text "data[31..0]" (rect 0 0 59 13)(font "Arial" (font_size 8)))
		(text "data[31..0]" (rect 20 28 79 41)(font "Arial" (font_size 8)))
		(line (pt 0 32)(pt 16 32)(line_width 3))
	)
	(port
		(pt 0 56)
		(input)
		(text "wrreq" (rect 0 0 31 13)(font "Arial" (font_size 8)))
		(text "wrreq" (rect 20 52 51 65)(font "Arial" (font_size 8)))
		(line (pt 0 56)(pt 16 56)(line_width 1))
	)
	(port
		(pt 0 72)
		(input)
		(text "rdreq" (rect 0 0 29 13)(font "Arial" (font_size 8)))
		(text "rdreq" (rect 20 68 49 81)(font "Arial" (font_size 8)))
		(line (pt 0 72)(pt 16 72)(line_width 1))
	)
	(port
		(pt 0 96)
		(input)
		(text "clock" (rect 0 0 27 13)(font "Arial" (font_size 8)))
		(text "clock" (rect 26 92 53 105)(font "Arial" (font_size 8)))
		(line (pt 0 96)(pt 16 96)(line_width 1))
	)
	(port
		(pt 0 120)
		(input)
		(text "sclr" (rect 0 0 18 13)(font "Arial" (font_size 8)))
		(text "sclr" (rect 20 116 38 129)(font "Arial" (font_size 8)))
		(line (pt 0 120)(pt 16 120)(line_width 1))
	)
	(port
		(pt 160 32)
		(output)
		(text "q[31..0]" (rect 0 0 42 13)(font "Arial" (font_size 8)))
		(text "q[31..0]" (rect 105 28 147 41)(font "Arial" (font_size 8)))
		(line (pt 160 32)(pt 144 32)(line_width 3))
	)
	(port
		(pt 160 56)
		(output)
		(text "full" (rect 0 0 15 13)(font "Arial" (font_size 8)))
		(text "full" (rect 128 52 143 65)(font "Arial" (font_size 8)))
		(line (pt 160 56)(pt 144 56)(line_width 1))
	)
	(port
		(pt 160 72)
		(output)
		(text "empty" (rect 0 0 33 13)(font "Arial" (font_size 8)))
		(text "empty" (rect 113 68 146 81)(font "Arial" (font_size 8)))
		(line (pt 160 72)(pt 144 72)(line_width 1))
	)
	(port
		(pt 160 88)
		(output)
		(text "usedw[3..0]" (rect 0 0 62 13)(font "Arial" (font_size 8)))
		(text "usedw[3..0]" (rect 88 84 150 97)(font "Arial" (font_size 8)))
		(line (pt 160 88)(pt 144 88)(line_width 3))
	)
	(drawing
		(text "(ack)" (rect 51 68 72 79)(font "Arial" ))
		(text "32 bits x 16 words" (rect 74 117 156 128)(font "Arial" ))
		(line (pt 16 16)(pt 144 16)(line_width 1))
		(line (pt 144 16)(pt 144 128)(line_width 1))
		(line (pt 144 128)(pt 16 128)(line_width 1))
		(line (pt 16 128)(pt 16 16)(line_width 1))
		(line (pt 16 108)(pt 144 108)(line_width 1))
		(line (pt 16 90)(pt 22 96)(line_width 1))
		(line (pt 22 96)(pt 16 102)(line_width 1))
	)
)
(connector
	(text "sysclock" (rect 1248 704 1284 715)(font "Arial" ))
	(pt 1296 720)
	(pt 1256 720)
)
(connector
	(text "reset" (rect 1256 688 1277 699)(font "Arial" ))
	(pt 1296 704)
	(pt 1256 704)
)
(connector
	(pt 1032 736)
	(pt 1296 736)
)
(connector
	(text "sysclock" (rect 1248 472 1284 483)(font "Arial" ))
	(pt 1296 488)
	(pt 1256 488)
)
(connector
	(text "reset" (rect 1256 456 1277 467)(font "Arial" ))
	(pt 1296 472)
	(pt 1256 472)
)
(connector
	(pt 784 488)
	(pt 784 472)
)
(connector
	(text "reset" (rect 601 472 622 483)(font "Arial" ))
	(pt 784 488)
	(pt 592 488)
)
(connector
	(pt 904 432)
	(pt 688 432)
)
(connector
	(pt 848 416)
	(pt 904 416)
	(bus)
)
(connector
	(pt 688 408)
	(pt 704 408)
)
(connector
	(text "tdc_clock" (rect 600 392 642 403)(font "Arial" ))
	(pt 592 408)
	(pt 688 408)
)
(connector
	(pt 1032 504)
	(pt 1032 736)
)
(connector
	(pt 688 504)
	(pt 1032 504)
)
(connector
	(pt 1032 504)
	(pt 1296 504)
)
(connector
	(pt 688 408)
	(pt 688 432)
)
(connector
	(pt 688 432)
	(pt 688 504)
)
(connector
	(pt 2936 520)
	(pt 2952 520)
)
(connector
	(pt 3000 520)
	(pt 3008 520)
)
(connector
	(text "sysclock" (rect 3920 432 3956 443)(font "Arial" ))
	(pt 3912 448)
	(pt 3976 448)
)
(connector
	(pt 3896 432)
	(pt 3976 432)
	(bus)
)
(connector
	(text "sysclock" (rect 4120 480 4156 491)(font "Arial" ))
	(pt 4200 496)
	(pt 4112 496)
)
(connector
	(text "reset" (rect 4120 504 4141 515)(font "Arial" ))
	(pt 4200 520)
	(pt 4112 520)
)
(connector
	(pt 4200 432)
	(pt 4040 432)
	(bus)
)
(connector
	(text "read_done" (rect 4120 456 4167 467)(font "Arial" ))
	(pt 4112 472)
	(pt 4200 472)
)
(connector
	(pt 4200 456)
	(pt 4064 456)
)
(connector
	(text "data96x[31..0]" (rect 3664 424 3727 435)(font "Arial" ))
	(pt 3744 440)
	(pt 3656 440)
	(bus)
)
(connector
	(text "data96x[63..32]" (rect 3661 408 3730 419)(font "Arial" ))
	(pt 3744 424)
	(pt 3656 424)
	(bus)
)
(connector
	(pt 2856 520)
	(pt 2856 480)
)
(connector
	(pt 2856 480)
	(pt 3048 480)
)
(connector
	(text "data_out[31..0]" (rect 4680 424 4746 435)(font "Arial" ))
	(pt 4616 440)
	(pt 4744 440)
	(bus)
)
(connector
	(pt 4552 432)
	(pt 4360 432)
	(bus)
)
(connector
	(pt 4512 456)
	(pt 4536 456)
)
(connector
	(pt 4536 456)
	(pt 4536 448)
)
(connector
	(pt 4536 448)
	(pt 4552 448)
)
(connector
	(pt 2840 520)
	(pt 2856 520)
)
(connector
	(pt 2856 520)
	(pt 2872 520)
)
(connector
	(text "sysclock" (rect 2720 520 2756 531)(font "Arial" ))
	(pt 2712 536)
	(pt 2776 536)
)
(connector
	(pt 2776 536)
	(pt 2872 536)
)
(connector
	(text "sysclock" (rect 1248 912 1284 923)(font "Arial" ))
	(pt 1296 928)
	(pt 1256 928)
)
(connector
	(text "reset" (rect 1256 896 1277 907)(font "Arial" ))
	(pt 1296 912)
	(pt 1256 912)
)
(connector
	(text "tdc_clock" (rect 1247 928 1289 939)(font "Arial" ))
	(pt 1240 944)
	(pt 1296 944)
)
(connector
	(text "sysclock" (rect 1248 1120 1284 1131)(font "Arial" ))
	(pt 1296 1136)
	(pt 1256 1136)
)
(connector
	(text "reset" (rect 1256 1104 1277 1115)(font "Arial" ))
	(pt 1296 1120)
	(pt 1256 1120)
)
(connector
	(text "tdc_clock" (rect 1246 1136 1288 1147)(font "Arial" ))
	(pt 1256 1152)
	(pt 1296 1152)
)
(connector
	(pt 1616 720)
	(pt 1600 720)
)
(connector
	(pt 1600 792)
	(pt 1616 792)
)
(connector
	(pt 1280 848)
	(pt 1520 848)
)
(connector
	(pt 1600 720)
	(pt 1600 792)
)
(connector
	(pt 1600 792)
	(pt 1600 856)
)
(connector
	(pt 1584 840)
	(pt 1728 840)
)
(connector
	(pt 1616 776)
	(pt 1584 776)
)
(connector
	(pt 1520 776)
	(pt 1520 720)
)
(connector
	(pt 1536 776)
	(pt 1520 776)
)
(connector
	(pt 1584 1048)
	(pt 1728 1048)
)
(connector
	(pt 1520 984)
	(pt 1520 928)
)
(connector
	(pt 1600 928)
	(pt 1600 1000)
)
(connector
	(pt 1600 1000)
	(pt 1600 1064)
)
(connector
	(pt 1600 928)
	(pt 1616 928)
)
(connector
	(pt 1584 984)
	(pt 1616 984)
)
(connector
	(pt 1600 1000)
	(pt 1616 1000)
)
(connector
	(pt 1280 1056)
	(pt 1520 1056)
)
(connector
	(pt 1520 984)
	(pt 1536 984)
)
(connector
	(pt 1584 1256)
	(pt 1728 1256)
)
(connector
	(pt 1520 1192)
	(pt 1520 1136)
)
(connector
	(pt 1600 1136)
	(pt 1600 1208)
)
(connector
	(pt 1600 1208)
	(pt 1600 1272)
)
(connector
	(pt 1600 1136)
	(pt 1616 1136)
)
(connector
	(pt 1584 1192)
	(pt 1616 1192)
)
(connector
	(pt 1600 1208)
	(pt 1616 1208)
)
(connector
	(pt 1280 1264)
	(pt 1520 1264)
)
(connector
	(pt 1520 1192)
	(pt 1536 1192)
)
(connector
	(pt 1616 488)
	(pt 1600 488)
)
(connector
	(pt 1600 560)
	(pt 1616 560)
)
(connector
	(pt 1616 544)
	(pt 1584 544)
)
(connector
	(pt 1520 544)
	(pt 1520 488)
)
(connector
	(pt 1536 544)
	(pt 1520 544)
)
(connector
	(pt 1280 616)
	(pt 1520 616)
)
(connector
	(pt 1600 488)
	(pt 1600 560)
)
(connector
	(pt 1600 560)
	(pt 1600 624)
)
(connector
	(pt 1832 480)
	(pt 1680 480)
	(bus)
)
(connector
	(pt 1848 712)
	(pt 1680 712)
	(bus)
)
(connector
	(pt 1864 920)
	(pt 1680 920)
	(bus)
)
(connector
	(pt 1880 1128)
	(pt 1680 1128)
	(bus)
)
(connector
	(pt 1912 552)
	(pt 1680 552)
)
(connector
	(pt 1912 552)
	(pt 1912 496)
)
(connector
	(pt 1912 496)
	(pt 1992 496)
)
(connector
	(pt 1680 784)
	(pt 1928 784)
)
(connector
	(pt 1928 784)
	(pt 1928 512)
)
(connector
	(pt 1928 512)
	(pt 1992 512)
)
(connector
	(pt 1944 992)
	(pt 1680 992)
)
(connector
	(pt 1944 528)
	(pt 1944 992)
)
(connector
	(pt 1944 528)
	(pt 1992 528)
)
(connector
	(pt 1960 1200)
	(pt 1680 1200)
)
(connector
	(pt 1960 544)
	(pt 1960 1200)
)
(connector
	(pt 1960 544)
	(pt 1992 544)
)
(connector
	(pt 1728 608)
	(pt 1728 840)
)
(connector
	(pt 1728 840)
	(pt 1728 1048)
)
(connector
	(pt 1728 1048)
	(pt 1728 1256)
)
(connector
	(pt 1584 856)
	(pt 1600 856)
)
(connector
	(pt 1584 1064)
	(pt 1600 1064)
)
(connector
	(pt 1584 1272)
	(pt 1600 1272)
)
(connector
	(text "0xFEED[15..4],gnd,gnd,ch_no[1..0],hit_no[15..0]" (rect 3544 440 3761 451)(font "Arial" ))
	(pt 3528 456)
	(pt 3744 456)
	(bus)
)
(connector
	(pt 1584 624)
	(pt 1600 624)
)
(connector
	(text "ena0" (rect 2024 608 2045 619)(font "Arial" ))
	(pt 1600 624)
	(pt 2064 624)
)
(connector
	(text "ena1" (rect 2002 840 2023 851)(font "Arial" ))
	(pt 1600 856)
	(pt 2032 856)
)
(connector
	(text "ena2" (rect 2005 1048 2026 1059)(font "Arial" ))
	(pt 1600 1064)
	(pt 2032 1064)
)
(connector
	(text "ena3" (rect 2014 1256 2035 1267)(font "Arial" ))
	(pt 1600 1272)
	(pt 2032 1272)
)
(connector
	(pt 40 376)
	(pt 40 360)
)
(connector
	(text "gnd" (rect 85 344 102 355)(font "Arial" ))
	(pt 40 360)
	(pt 96 360)
)
(connector
	(pt 2616 520)
	(pt 2776 520)
)
(connector
	(pt 2064 520)
	(pt 2064 512)
)
(connector
	(pt 2056 520)
	(pt 2064 520)
)
(connector
	(pt 1584 608)
	(pt 1728 608)
)
(connector
	(pt 1728 608)
	(pt 3200 608)
)
(connector
	(pt 3008 520)
	(pt 3008 496)
)
(connector
	(pt 3008 496)
	(pt 3048 496)
)
(connector
	(pt 1832 480)
	(pt 1832 384)
	(bus)
)
(connector
	(pt 1832 384)
	(pt 1992 384)
	(bus)
)
(connector
	(pt 1848 712)
	(pt 1848 400)
	(bus)
)
(connector
	(pt 1848 400)
	(pt 1992 400)
	(bus)
)
(connector
	(pt 1864 920)
	(pt 1864 416)
	(bus)
)
(connector
	(pt 1864 416)
	(pt 1992 416)
	(bus)
)
(connector
	(pt 1880 1128)
	(pt 1880 432)
	(bus)
)
(connector
	(pt 1880 432)
	(pt 1992 432)
	(bus)
)
(connector
	(text "sysclock" (rect 3152 408 3188 419)(font "Arial" ))
	(pt 3208 424)
	(pt 3144 424)
)
(connector
	(pt 2056 408)
	(pt 3208 408)
	(bus)
)
(connector
	(pt 3200 488)
	(pt 3200 608)
)
(connector
	(text "empty" (rect 4718 472 4743 483)(font "Arial" ))
	(pt 4744 488)
	(pt 4448 488)
)
(connector
	(pt 3768 624)
	(pt 3360 624)
)
(connector
	(text "sysclock" (rect 3344 552 3380 563)(font "Arial" ))
	(pt 3400 568)
	(pt 3336 568)
)
(connector
	(pt 3360 552)
	(pt 3400 552)
)
(connector
	(pt 3360 488)
	(pt 3360 552)
)
(connector
	(pt 3360 584)
	(pt 3400 584)
)
(connector
	(pt 3360 624)
	(pt 3360 584)
)
(connector
	(pt 3488 552)
	(pt 3488 600)
)
(connector
	(pt 2536 528)
	(pt 2552 528)
)
(connector
	(pt 2472 544)
	(pt 2416 544)
)
(connector
	(pt 2520 544)
	(pt 2536 544)
)
(connector
	(pt 2536 544)
	(pt 2536 528)
)
(connector
	(pt 2376 872)
	(pt 2496 872)
	(bus)
)
(connector
	(pt 2496 832)
	(pt 2600 832)
	(bus)
)
(connector
	(text "sysclock" (rect 2544 832 2580 843)(font "Arial" ))
	(pt 2536 848)
	(pt 2600 848)
)
(connector
	(text "ch_no[1..0]" (rect 2688 816 2737 827)(font "Arial" ))
	(pt 2664 832)
	(pt 2744 832)
	(bus)
)
(connector
	(text "sysclock" (rect 2176 840 2212 851)(font "Arial" ))
	(pt 2168 856)
	(pt 2232 856)
)
(connector
	(pt 2232 888)
	(pt 2216 888)
)
(connector
	(pt 2168 888)
	(pt 2136 888)
)
(connector
	(pt 2136 512)
	(pt 2136 888)
)
(connector
	(pt 2064 512)
	(pt 2136 512)
)
(connector
	(pt 2136 512)
	(pt 2552 512)
)
(connector
	(text "0xFEED[15..0]" (rect 3784 136 3850 147)(font "Arial" ))
	(pt 3720 152)
	(pt 3848 152)
	(bus)
)
(connector
	(text "sysclock" (rect 3520 200 3556 211)(font "Arial" ))
	(pt 3576 216)
	(pt 3512 216)
)
(connector
	(text "hit_no[15..0]" (rect 3792 224 3848 235)(font "Arial" ))
	(pt 3720 240)
	(pt 3848 240)
	(bus)
)
(connector
	(pt 3208 440)
	(pt 3176 440)
)
(connector
	(pt 3576 248)
	(pt 3176 248)
)
(connector
	(pt 3112 488)
	(pt 3176 488)
)
(connector
	(pt 3176 488)
	(pt 3200 488)
)
(connector
	(pt 3200 488)
	(pt 3360 488)
)
(connector
	(pt 3176 248)
	(pt 3176 440)
)
(connector
	(pt 3176 440)
	(pt 3176 488)
)
(connector
	(pt 4064 600)
	(pt 4040 600)
)
(connector
	(text "sysclock" (rect 3920 600 3956 611)(font "Arial" ))
	(pt 3912 616)
	(pt 3976 616)
)
(connector
	(pt 4064 456)
	(pt 4064 600)
)
(connector
	(text "sysclock" (rect 3528 504 3564 515)(font "Arial" ))
	(pt 3584 520)
	(pt 3520 520)
)
(connector
	(pt 3768 624)
	(pt 3768 552)
)
(connector
	(pt 3824 480)
	(pt 3824 536)
	(bus)
)
(connector
	(pt 3464 552)
	(pt 3488 552)
)
(connector
	(pt 3488 552)
	(pt 3584 552)
)
(connector
	(pt 3728 536)
	(pt 3824 536)
	(bus)
)
(connector
	(pt 3728 552)
	(pt 3768 552)
)
(connector
	(pt 3504 600)
	(pt 3504 664)
)
(connector
	(pt 2416 544)
	(pt 2416 664)
)
(connector
	(pt 2416 664)
	(pt 3504 664)
)
(connector
	(pt 3488 600)
	(pt 3504 600)
)
(connector
	(pt 3504 600)
	(pt 3976 600)
)
(connector
	(text "data96x[63..0]" (rect 3368 392 3431 403)(font "Arial" ))
	(pt 3272 408)
	(pt 3448 408)
	(bus)
)
(connector
	(text "data96x[63..32]" (rect 3658 392 3727 403)(font "Arial" ))
	(pt 3744 408)
	(pt 3656 408)
	(bus)
)
(connector
	(pt 1496 472)
	(pt 1504 472)
	(bus)
)
(connector
	(pt 1504 472)
	(pt 1616 472)
	(bus)
)
(connector
	(pt 1496 488)
	(pt 1504 488)
)
(connector
	(pt 1504 488)
	(pt 1520 488)
)
(connector
	(text "input[0]" (rect 1095 520 1128 531)(font "Arial" ))
	(pt 1296 536)
	(pt 1080 536)
)
(connector
	(pt 1280 552)
	(pt 1296 552)
)
(connector
	(pt 1280 616)
	(pt 1280 552)
)
(connector
	(pt 1496 704)
	(pt 1504 704)
	(bus)
)
(connector
	(pt 1504 704)
	(pt 1616 704)
	(bus)
)
(connector
	(pt 1496 720)
	(pt 1504 720)
)
(connector
	(pt 1504 720)
	(pt 1520 720)
)
(connector
	(text "input[1]" (rect 1095 752 1128 763)(font "Arial" ))
	(pt 1296 768)
	(pt 1080 768)
)
(connector
	(pt 1280 848)
	(pt 1280 784)
)
(connector
	(pt 1280 784)
	(pt 1296 784)
)
(connector
	(pt 1496 912)
	(pt 1504 912)
	(bus)
)
(connector
	(pt 1504 912)
	(pt 1616 912)
	(bus)
)
(connector
	(pt 1496 928)
	(pt 1504 928)
)
(connector
	(pt 1504 928)
	(pt 1520 928)
)
(connector
	(text "input[2]" (rect 1095 960 1128 971)(font "Arial" ))
	(pt 1296 976)
	(pt 1080 976)
)
(connector
	(pt 1280 992)
	(pt 1280 1056)
)
(connector
	(pt 1280 992)
	(pt 1296 992)
)
(connector
	(pt 1496 1120)
	(pt 1504 1120)
	(bus)
)
(connector
	(pt 1504 1120)
	(pt 1616 1120)
	(bus)
)
(connector
	(pt 1496 1136)
	(pt 1504 1136)
)
(connector
	(pt 1504 1136)
	(pt 1520 1136)
)
(connector
	(text "input[3]" (rect 1095 1168 1128 1179)(font "Arial" ))
	(pt 1296 1184)
	(pt 1080 1184)
)
(connector
	(pt 1280 1200)
	(pt 1280 1264)
)
(connector
	(pt 1280 1200)
	(pt 1296 1200)
)
(connector
	(text "<<__$DEF_ALIAS2041>>" (rect 1176 1152 1296 1163)(font "Arial" )(invisible))
	(pt 1296 1168)
	(pt 1168 1168)
	(bus)
)
(connector
	(text "<<__$DEF_ALIAS2043>>" (rect 1176 944 1296 955)(font "Arial" )(invisible))
	(pt 1296 960)
	(pt 1168 960)
	(bus)
)
(connector
	(text "<<__$DEF_ALIAS2046>>" (rect 1176 736 1296 747)(font "Arial" )(invisible))
	(pt 1296 752)
	(pt 1168 752)
	(bus)
)
(connector
	(pt 1168 960)
	(pt 1168 1168)
	(bus)
)
(connector
	(text "<<__$DEF_ALIAS2053>>" (rect 1176 504 1296 515)(font "Arial" )(invisible))
	(pt 1296 520)
	(pt 1168 520)
	(bus)
)
(connector
	(pt 1168 520)
	(pt 1168 752)
	(bus)
)
(connector
	(pt 1168 752)
	(pt 1168 960)
	(bus)
)
(connector
	(pt 1168 416)
	(pt 1168 520)
	(bus)
)
(connector
	(text "<<__$DEF_ALIAS2068>>" (rect 1006 400 1126 411)(font "Arial" )(invisible))
	(pt 968 416)
	(pt 1168 416)
	(bus)
)
(connector
	(text "ena0" (rect 2731 928 2752 939)(font "Arial" ))
	(pt 2696 944)
	(pt 2744 944)
)
(connector
	(text "ena1" (rect 2734 944 2755 955)(font "Arial" ))
	(pt 2696 960)
	(pt 2744 960)
)
(connector
	(text "ena2" (rect 2735 960 2756 971)(font "Arial" ))
	(pt 2696 976)
	(pt 2744 976)
)
(connector
	(text "ena3" (rect 2733 976 2754 987)(font "Arial" ))
	(pt 2696 992)
	(pt 2744 992)
)
(connector
	(pt 2496 968)
	(pt 2568 968)
	(bus)
)
(connector
	(pt 2496 832)
	(pt 2496 872)
	(bus)
)
(connector
	(pt 2496 872)
	(pt 2496 968)
	(bus)
)
(connector
	(pt 4448 456)
	(pt 4464 456)
)
(connector
	(pt 4360 472)
	(pt 4448 472)
)
(connector
	(pt 4448 456)
	(pt 4448 472)
)
(connector
	(pt 4448 472)
	(pt 4448 488)
)
(junction (pt 688 432))
(junction (pt 688 408))
(junction (pt 1032 504))
(junction (pt 2856 520))
(junction (pt 2776 536))
(junction (pt 1600 792))
(junction (pt 1600 1000))
(junction (pt 1600 1208))
(junction (pt 1600 560))
(junction (pt 1728 840))
(junction (pt 1728 1048))
(junction (pt 1728 608))
(junction (pt 1600 624))
(junction (pt 1600 856))
(junction (pt 1600 1064))
(junction (pt 1600 1272))
(junction (pt 3200 488))
(junction (pt 3488 552))
(junction (pt 3504 600))
(junction (pt 2136 512))
(junction (pt 2496 872))
(junction (pt 3176 488))
(junction (pt 3176 440))
(junction (pt 1504 472))
(junction (pt 1504 488))
(junction (pt 1504 704))
(junction (pt 1504 720))
(junction (pt 1504 928))
(junction (pt 1504 912))
(junction (pt 1504 1136))
(junction (pt 1504 1120))
(junction (pt 1168 960))
(junction (pt 1168 520))
(junction (pt 1168 752))
(junction (pt 4448 472))
